sku,store_view_code,attribute_set_code,product_type,categories,product_websites,name,description,brand,short_description,base_image,small_image,thumbnail_image,additional_images_1,additional_images_2,additional_images_3,weight,product_online,tax_class_name,visibility,price,special_price,special_price_from_date,special_price_to_date,url_key,meta_title,meta_keywords,meta_description,created_at,updated_at,new_from_date,new_to_date,display_product_options_in,map_price,msrp_price,map_enabled,gift_message_available,custom_design,custom_design_from,custom_design_to,custom_layout_update,page_layout,product_options_container,msrp_display_actual_price_type,country_of_manufacture,additional_attributes,qty,out_of_stock_qty,use_config_min_qty,is_qty_decimal,allow_backorders,use_config_backorders,min_cart_qty,use_config_min_sale_qty,max_cart_qty,use_config_max_sale_qty,is_in_stock,notify_on_stock_below,use_config_notify_stock_qty,manage_stock,use_config_manage_stock,use_config_qty_increments,qty_increments,use_config_enable_qty_inc,enable_qty_increments,is_decimal_divided,website_id,deferred_stock_update,use_config_deferred_stock_update,related_skus,crosssell_skus,upsell_skus,hide_from_product_page,custom_options,bundle_price_type,bundle_sku_type,bundle_price_view,bundle_weight_type,bundle_values,associated_skus,errors
MISCHI-ORGANISER,,Default,simple,Baby/Baby Safety,base,Mischi Bag Organiser Light Grey,,,,https://www.blushandbloom.com/shop/images/images_small/Organiser_mischi-80x120.png,https://www.blushandbloom.com/shop/images/images_small/Organiser_mischi-80x120.png,https://www.blushandbloom.com/shop/images/images_small/Organiser_mischi-80x120.png,,,https://www.blushandbloom.com/shop/images/images_small/Mischi_organiser_bag-80x120.png,1,1,Taxable Goods,"Catalog, Search",162,,,,Mischi-Bag-Organiser-Light-Grey,Mischi Bag Organiser Light Grey,,,,,,,,,,,,,,,,,,Use config,,"has_options=1,quantity_and_stock_status=In Stock,required_options=0",20,0,1,0,0,1,1,0,0,1,1,,1,0,1,1,0,1,0,0,1,0,1,,,,,,,,,,,,
TP-B-WASH,,Default,simple,Baby/Baby Bath,base,Tiddley Pom Organic Baby wash,,,,https://www.blushandbloom.com/shop/images/images_small/Tiddleypom_wash-80x120.png,https://www.blushandbloom.com/shop/images/images_small/Tiddleypom_wash-80x120.png,https://www.blushandbloom.com/shop/images/images_small/Tiddleypom_wash-80x120.png,https://www.blushandbloom.com/shop/images/images_small/Tiddley_washbaby-80x120.png,https://www.blushandbloom.com/shop/images/images_small/Tiddley_washbaby-80x120.png,,1,1,Taxable Goods,"Catalog, Search",52,,,,Tiddley-Pom-Organic-Baby-wash,Tiddley Pom Organic Baby wash,,,,,,,,,,,,,,,,,,Use config,,"has_options=1,quantity_and_stock_status=In Stock,required_options=0",20,0,1,0,0,1,1,0,0,1,1,,1,0,1,1,0,1,0,0,1,0,1,,,,,,,,,,,,
MNLM-OBA-WBLU,,Default,simple,Baby/Baby Wear,base,Boat and Anchor Boy's Onesie White & Blue,,,,https://www.blushandbloom.com/shop/images/images_small/MNLM-OBA-WBLU-a-80x120.jpg,https://www.blushandbloom.com/shop/images/images_small/MNLM-OBA-WBLU-a-80x120.jpg,https://www.blushandbloom.com/shop/images/images_small/MNLM-OBA-WBLU-a-80x120.jpg,,,,0.11,1,Taxable Goods,"Catalog, Search",180,,,,boat-and-anchor-boys-onesie-white-blue,Boat and Anchor Boy's Onesie White & Blue,,,,,,,,,,,,,,,,,,Use config,,"has_options=1,quantity_and_stock_status=In Stock,required_options=0",20,0,1,0,0,1,1,0,0,1,1,,1,1,1,1,0,1,0,0,1,0,1,,,,,,,,,,,,
MNLM-SDS-WPNK,,Default,simple,Baby/Baby Wear,base,"Girl's Sundress, Bonnet and Bloomers Pink & White",,,,https://www.blushandbloom.com/shop/images/images_small/MNLM-SDS-PNK-a-80x120.jpg,https://www.blushandbloom.com/shop/images/images_small/MNLM-SDS-PNK-a-80x120.jpg,https://www.blushandbloom.com/shop/images/images_small/MNLM-SDS-PNK-a-80x120.jpg,https://www.blushandbloom.com/shop/images/images_small/MNLM-SDS-PNK-b-80x120.jpg,https://www.blushandbloom.com/shop/images/images_small/MNLM-SDS-PNK-c-80x120.jpg,https://www.blushandbloom.com/shop/images/images_small/MNLM-SDS-PNK-d-80x120.jpg,0.11,1,Taxable Goods,"Catalog, Search",175,,,,girls-sundress-bonnet-and-bloomers-pink-white,"Girl's Sundress, Bonnet and Bloomers Pink & White",,,,,,,,,,,,,,,,,,Use config,,"has_options=1,quantity_and_stock_status=In Stock,required_options=0",20,0,1,0,0,1,1,0,0,1,1,,1,0,1,1,0,1,0,0,1,0,1,,,,,,,,,,,,
PIC-HAT-BMS,,Default,simple,Baby/Baby Accessories,base,Newborn Hat Bird Multi Spot,,,,https://www.blushandbloom.com/shop/images/images_small/PL-HAT-BUB-a-80x120.jpg,https://www.blushandbloom.com/shop/images/images_small/PL-HAT-BUB-a-80x120.jpg,https://www.blushandbloom.com/shop/images/images_small/PL-HAT-BUB-a-80x120.jpg,https://www.blushandbloom.com/shop/images/images_small/PL-HAT-BUB-a-80x120.jpg,,,0.35,1,Taxable Goods,"Catalog, Search",55,,,,Newborn-Hat-Bird-Multi-Spot,Newborn Hat Bird Multi Spot,,,,,,,,,,,,,,,,,,Use config,,"has_options=1,quantity_and_stock_status=In Stock,required_options=0",20,0,1,0,0,1,1,0,0,1,1,,1,0,1,1,0,1,0,0,1,0,1,,,,,,,,,,,,
BBT-CB-LG,,Default,simple,Baby/Baby Swaddles & Blanket,base,Pure Cashmere Baby Blanket in Lime,,,,https://www.blushandbloom.com/shop/images/images_small/BBT-CBB-LG-a-80x120.jpg,https://www.blushandbloom.com/shop/images/images_small/BBT-CBB-LG-a-80x120.jpg,https://www.blushandbloom.com/shop/images/images_small/BBT-CBB-LG-a-80x120.jpg,https://www.blushandbloom.com/shop/images/images_small/BBT-CBB-LG-b-80x120.jpg,,,0.16,1,Taxable Goods,"Catalog, Search",350,,,,Pure-Cashmere-Baby-Blanket-in-a-Lime,Pure Cashmere Baby Blanket in Lime,,,,,,,,,,,,,,,,,,Use config,,"has_options=1,quantity_and_stock_status=In Stock,required_options=0",20,0,1,0,0,1,1,0,0,1,1,,1,0,1,1,0,1,0,0,1,0,1,,,,,,,,,,,,
BBT-CSB-LG,,Default,simple,Baby/Bedding & Accessories,base,Pure Cashmere Snuggle Sleeping Bag in Lime,,,,https://www.blushandbloom.com/shop/images/images_small/BBT-CSB-LG-a-80x120.jpg,https://www.blushandbloom.com/shop/images/images_small/BBT-CSB-LG-a-80x120.jpg,https://www.blushandbloom.com/shop/images/images_small/BBT-CSB-LG-a-80x120.jpg,https://www.blushandbloom.com/shop/images/images_small/BBT-CSB-LG-b-80x120.jpg,https://www.blushandbloom.com/shop/images/images_small/BBT-CSB-LG-c-80x120.jpg,https://www.blushandbloom.com/shop/images/images_small/BBT-CSB-LG-d-80x120.jpg,0.175,1,Taxable Goods,"Catalog, Search",395,,,,pure-cashmere-snuggle-sleeping-bag-in-a-lime,Pure Cashmere Snuggle Sleeping Bag in Lime,,,,,,,,,,,,,,,,,,Use config,,"has_options=1,quantity_and_stock_status=In Stock,required_options=0",20,0,1,0,0,1,1,0,0,1,1,,1,0,1,1,0,1,0,0,1,0,1,,,,,,,,,,,,
BAL-CSC-TIN,,Default,simple,Baby/Baby Safety,base,Premium Muslin Car Seat Cover - Tinsley,,,,https://www.blushandbloom.com/shop/images/images_small/BAL-CSC-TIN-a-80x120.jpg,https://www.blushandbloom.com/shop/images/images_small/BAL-CSC-TIN-a-80x120.jpg,https://www.blushandbloom.com/shop/images/images_small/BAL-CSC-TIN-a-80x120.jpg,https://www.blushandbloom.com/shop/images/images_small/BAL-CSC-TIN-b-80x120.jpg,https://www.blushandbloom.com/shop/images/images_small/BAL-CSC-OWL-b-80x120.jpg,https://www.blushandbloom.com/shop/images/images_small/BAL-CSC-TIN-d-80x120.jpg,0.205,1,Taxable Goods,"Catalog, Search",170,,,,premium-muslin-car-seat-cover-tinsleyy,Premium Muslin Car Seat Cover - Tinsley,,,,,,,,,,,,,,,,,,Use config,,"has_options=1,quantity_and_stock_status=In Stock,required_options=0",20,0,1,0,0,1,1,0,0,1,1,,1,1,1,1,0,1,0,0,1,0,1,,,,,,,,,,,,
MARL-DDSW-BPNK,,Default,simple,Baby/Swaddles & Blanket,base,Bright Pink Dip Dye Swaddle with Embroidery,,,,https://www.blushandbloom.com/shop/images/images_small/MLO-SWAD-PNK-c-80x120.jpg,https://www.blushandbloom.com/shop/images/images_small/MLO-SWAD-PNK-c-80x120.jpg,https://www.blushandbloom.com/shop/images/images_small/MLO-SWAD-PNK-c-80x120.jpg,https://www.blushandbloom.com/shop/images/images_small/MLO-SWAD-PNK-b-80x120.jpg,https://www.blushandbloom.com/shop/images/images_small/MLO-SWAD-PNK-g-80x120.jpg,https://www.blushandbloom.com/shop/images/images_small/MLO-SWAD-PNK-d-80x120.jpg,0.33,1,Taxable Goods,"Catalog, Search",355,,,,Bright-Pink-Dip-Dye-Swaddle-with-Embroidery,Bright Pink Dip Dye Swaddle with Embroidery,,,,,,,,,,,,,,,,,,Use config,,"has_options=1,quantity_and_stock_status=In Stock,required_options=0",20,0,1,0,0,1,1,0,0,1,1,,1,0,1,1,0,1,0,0,1,0,1,,,,,,,,,,,,
MARL-DDSW-INDG,,Default,simple,Baby/Swaddles & Blanket,base,Indigo Dip Dye Swaddle with Embroidery,,,,https://www.blushandbloom.com/shop/images/images_small/MLO-SWAD-IND-c-100x150-80x120.jpg,https://www.blushandbloom.com/shop/images/images_small/MLO-SWAD-IND-c-100x150-80x120.jpg,https://www.blushandbloom.com/shop/images/images_small/MLO-SWAD-IND-c-100x150-80x120.jpg,https://www.blushandbloom.com/shop/images/images_small/MLO-SWAD-IND-b-100x150-80x120.jpg,https://www.blushandbloom.com/shop/images/images_small/MLO-SWAD-IND-d-100x150-80x120.jpg,https://www.blushandbloom.com/shop/images/images_small/MLO-SWAD-IND-h-100x150-80x120.jpg,0.33,1,Taxable Goods,"Catalog, Search",355,,,,Indigo-Dip-Dye-Swaddle-with-Embroidery,Indigo Dip Dye Swaddle with Embroidery,,,,,,,,,,,,,,,,,,Use config,,"has_options=1,quantity_and_stock_status=In Stock,required_options=0",20,0,1,0,0,1,1,0,0,1,1,,1,0,1,1,0,1,0,0,1,0,1,,,,,,,,,,,,
MARL-DDSW-LILC,,Default,simple,Baby/Swaddles & Blanket,base,Lilac Dip Dye Swaddle with Embroidery,,,,https://www.blushandbloom.com/shop/images/images_small/lilac1-80x120.jpg,https://www.blushandbloom.com/shop/images/images_small/lilac1-80x120.jpg,https://www.blushandbloom.com/shop/images/images_small/lilac1-80x120.jpg,https://www.blushandbloom.com/shop/images/images_small/lilac4-80x120.jpg,https://www.blushandbloom.com/shop/images/images_small/lilac5-80x120.jpg,https://www.blushandbloom.com/shop/images/images_small/lilac3-80x120.jpg,0.33,1,Taxable Goods,"Catalog, Search",355,,,,Lilac-Dip-Dye-Swaddle-with-Embroidery,Lilac Dip Dye Swaddle with Embroidery,,,,,,,,,,,,,,,,,,Use config,,"has_options=1,quantity_and_stock_status=In Stock,required_options=0",20,0,1,0,0,1,1,0,0,1,1,,1,0,1,1,0,1,0,0,1,0,1,,,,,,,,,,,,
PP-MATCOVER-WHT,,Default,simple,Baby/Baby Safety,base,Petit Bunny Changing Mat Cover,,,,https://www.blushandbloom.com/shop/images/images_small/CHANGING_COVER-80x120.png,https://www.blushandbloom.com/shop/images/images_small/CHANGING_COVER-80x120.png,https://www.blushandbloom.com/shop/images/images_small/CHANGING_COVER-80x120.png,https://www.blushandbloom.com/shop/images/images_small/CHANGINGMAT-80x120.png,,,1,1,Taxable Goods,"Catalog, Search",79,,,,Petit-Bunny-Changing-Mat-Cover,Petit Bunny Changing Mat Cover,,,,,,,,,,,,,,,,,,Use config,,"has_options=1,quantity_and_stock_status=In Stock,required_options=0",20,0,1,0,0,1,1,0,0,1,1,,1,1,1,1,0,1,0,0,1,0,1,,,,,,,,,,,,
PB-WRAP-GREY,,Default,simple,Baby/Bedding & Accessories,base,Petit Bunny Baby Wrap Grey,,,,https://www.blushandbloom.com/shop/images/images_small/Baby_wrap_petitbunny-80x120.png,https://www.blushandbloom.com/shop/images/images_small/Baby_wrap_petitbunny-80x120.png,https://www.blushandbloom.com/shop/images/images_small/Baby_wrap_petitbunny-80x120.png,https://www.blushandbloom.com/shop/images/images_small/Baby_wrap-80x120.png,https://www.blushandbloom.com/shop/images/images_small/PetitBunny_babywrap-80x120.png,https://www.blushandbloom.com/shop/images/images_small/Petitbunny_wrap-80x120.png,1,1,Taxable Goods,"Catalog, Search",189,,,,Petit-Bunny-Baby-Wrap-Grey,Petit Bunny Baby Wrap Grey,,,,,,,,,,,,,,,,,,Use config,,"has_options=1,quantity_and_stock_status=In Stock,required_options=0",20,0,1,0,0,1,1,0,0,1,1,,1,0,1,1,0,1,0,0,1,0,1,,,,,,,,,,,,
PB-BABESHADE-FLORAL,,Default,simple,Baby/Baby Safety,base,The Ultimate #BabeShade Floral,,,,https://www.blushandbloom.com/shop/images/images_small/babeshade-80x120.png,https://www.blushandbloom.com/shop/images/images_small/babeshade-80x120.png,https://www.blushandbloom.com/shop/images/images_small/babeshade-80x120.png,https://www.blushandbloom.com/shop/images/images_small/babeshade-80x120.png,https://www.blushandbloom.com/shop/images/images_small/babyshade-80x120.png,,1,1,Taxable Goods,"Catalog, Search",85,,,,the-ultimate-babeshade-floral,The Ultimate #BabeShade Floral,,,,,,,,,,,,,,,,,,Use config,,"has_options=1,quantity_and_stock_status=In Stock,required_options=0",20,0,1,0,0,1,1,0,0,1,1,,1,0,1,1,0,1,0,0,1,0,1,,,,,,,,,,,,
BAL-BS-GLD,,Default,simple,Baby/Bedding & Accessories,base,Garland Muslin Bebe Sleeper 6-12 months,,,,https://www.blushandbloom.com/shop/images/images_small/Garland_sleepingbag-80x120.png,https://www.blushandbloom.com/shop/images/images_small/Garland_sleepingbag-80x120.png,https://www.blushandbloom.com/shop/images/images_small/Garland_sleepingbag-80x120.png,https://www.blushandbloom.com/shop/images/images_small/Sleepingbag_garland-80x120.png,https://www.blushandbloom.com/shop/images/images_small/Garland_BTS_PACK__2400x2400-80x120.jpg,,0.205,1,Taxable Goods,"Catalog, Search",190,,,,garland-muslin-and-bebe-sleeper-6-12-months,Garland Muslin Bebe Sleeper 6-12 months,,,,,,,,,,,,,,,,,,Use config,,"has_options=1,quantity_and_stock_status=In Stock,required_options=0",20,0,1,0,0,1,1,0,0,1,1,,1,0,1,1,0,1,0,0,1,0,1,,,,,,,,,,,,
BAL-BS-MBY,,Default,simple,Baby/Bedding & Accessories,base,Moby Muslin Bebe Bedtime Sleeper,,,,https://www.blushandbloom.com/shop/images/images_small/Moby_sleepingbag-80x120.png,https://www.blushandbloom.com/shop/images/images_small/Moby_sleepingbag-80x120.png,https://www.blushandbloom.com/shop/images/images_small/Moby_sleepingbag-80x120.png,https://www.blushandbloom.com/shop/images/images_small/Highseas_sleepingbag_bebeaulait-80x120.png,https://www.blushandbloom.com/shop/images/images_small/Moby_BTS_Pack__2400x2400-80x120.jpg,,0.205,1,Taxable Goods,"Catalog, Search",160,,,,Moby-Muslin-Bebe-Bedtime-Sleeper,Moby Muslin Bebe Bedtime Sleeper,,,,,,,,,,,,,,,,,,Use config,,"has_options=1,quantity_and_stock_status=In Stock,required_options=0",20,0,1,0,0,1,1,0,0,1,1,,1,0,1,1,0,1,0,0,1,0,1,,,,,,,,,,,,
BAL-BS-LOVE,,Default,simple,Baby/Bedding & Accessories,base,Muslin Love Bebe Bedtime Sleeper 6-12 months,,,,https://www.blushandbloom.com/shop/images/images_small/Love_sleeper-80x120.png,https://www.blushandbloom.com/shop/images/images_small/Love_sleeper-80x120.png,https://www.blushandbloom.com/shop/images/images_small/Love_sleeper-80x120.png,https://www.blushandbloom.com/shop/images/images_small/LOVE_SLEEPINGBAG-80x120.png,https://www.blushandbloom.com/shop/images/images_small/love-sleeper-large-pack-1000px-80x120.jpg,https://www.blushandbloom.com/shop/images/images_small/Love-swatch-1000px-80x120.png,0.205,1,Taxable Goods,"Catalog, Search",160,,,,Muslin-Love-Bebe-Bedtime-Sleeper-6-12-months,Muslin Love Bebe Bedtime Sleeper 6-12 months,,,,,,,,,,,,,,,,,,Use config,,"has_options=1,quantity_and_stock_status=In Stock,required_options=0",20,0,1,0,0,1,1,0,0,1,1,,1,1,1,1,0,1,0,0,1,0,1,,,,,,,,,,,,
BAL-BS-LNA,,Default,simple,Baby/Bedding & Accessories,base,Muslin Luna Bebe Bedtime Sleeper,,,,https://www.blushandbloom.com/shop/images/images_small/LUNA_SLEEPERBAG-80x120.png,https://www.blushandbloom.com/shop/images/images_small/LUNA_SLEEPERBAG-80x120.png,https://www.blushandbloom.com/shop/images/images_small/LUNA_SLEEPERBAG-80x120.png,https://www.blushandbloom.com/shop/images/images_small/SLEEPINGBAG_LUNA-80x120.png,https://www.blushandbloom.com/shop/images/images_small/love-sleeper-large-pack-1000px-80x120.jpg,https://www.blushandbloom.com/shop/images/images_small/Love-swatch-1000px-80x120.png,0.205,1,Taxable Goods,"Catalog, Search",160,,,,Muslin-Luna-Bebe-Bedtime-Sleeper,Muslin Luna Bebe Bedtime Sleeper,,,,,,,,,,,,,,,,,,Use config,,"has_options=1,quantity_and_stock_status=In Stock,required_options=0",20,0,1,0,0,1,1,0,0,1,1,,1,0,1,1,0,1,0,0,1,0,1,,,,,,,,,,,,
BAL-CSC-GLD,,Default,simple,Baby/Baby Safety,base,Premium Muslin Car Seat Cover - Garland,,,,https://www.blushandbloom.com/shop/images/images_small/Garland_CSC__2400x2400-80x120.jpg,https://www.blushandbloom.com/shop/images/images_small/Garland_CSC__2400x2400-80x120.jpg,https://www.blushandbloom.com/shop/images/images_small/Garland_CSC__2400x2400-80x120.jpg,https://www.blushandbloom.com/shop/images/images_small/Bebeaulait_garland-80x120.png,https://www.blushandbloom.com/shop/images/images_small/Garland_CSC_PK_2400x2400-80x120.jpg,,0.205,1,Taxable Goods,"Catalog, Search",160,,,,premium-muslin-car-seat-cover-garland,Premium Muslin Car Seat Cover - Garland,,,,,,,,,,,,,,,,,,Use config,,"has_options=1,quantity_and_stock_status=In Stock,required_options=0",20,0,1,0,0,1,1,0,0,1,1,,1,0,1,1,0,1,0,0,1,0,1,,,,,,,,,,,,
BAL-CSC-MBY,,Default,simple,Baby/Baby Safety,base,Premium Muslin Car Seat Cover - Moby,,,,https://www.blushandbloom.com/shop/images/images_small/Moby_CSC__2400x2400-80x120.jpg,https://www.blushandbloom.com/shop/images/images_small/Moby_CSC__2400x2400-80x120.jpg,https://www.blushandbloom.com/shop/images/images_small/Moby_CSC__2400x2400-80x120.jpg,https://www.blushandbloom.com/shop/images/images_small/bebeaulait_Moby-80x120.png,https://www.blushandbloom.com/shop/images/images_small/BAL-CSC-OWL-b-80x120.jpg,https://www.blushandbloom.com/shop/images/images_small/Moby_CSC_PK_2400x2400-80x120.jpg,0.205,1,Taxable Goods,"Catalog, Search",160,,,,premium-muslin-car-seat-cover-moby,Premium Muslin Car Seat Cover - Moby,,,,,,,,,,,,,,,,,,Use config,,"has_options=1,quantity_and_stock_status=In Stock,required_options=0",20,0,1,0,0,1,1,0,0,1,1,,1,0,1,1,0,1,0,0,1,0,1,,,,,,,,,,,,
BAL-CSC-LNA,,Default,simple,Baby/Baby Safety,base,Prenium Muslin Car Seat Cover - Luna,,,,https://www.blushandbloom.com/shop/images/images_small/Luna-carseat-back-1000px-80x120.jpg,https://www.blushandbloom.com/shop/images/images_small/Luna-carseat-back-1000px-80x120.jpg,https://www.blushandbloom.com/shop/images/images_small/Luna-carseat-back-1000px-80x120.jpg,https://www.blushandbloom.com/shop/images/images_small/bebeaulait_luna-80x120.png,,https://www.blushandbloom.com/shop/images/images_small/Luna-carseat-pack-1000px-80x120.jpg,0.205,1,Taxable Goods,"Catalog, Search",160,,,,premium-muslin-car-seat-cover-luna,Prenium Muslin Car Seat Cover - Luna,,,,,,,,,,,,,,,,,,Use config,,"has_options=1,quantity_and_stock_status=In Stock,required_options=0",20,0,1,0,0,1,1,0,0,1,1,,1,1,1,1,0,1,0,0,1,0,1,,,,,,,,,,,,
BAL-CSC-BTM,,Default,simple,Baby/Baby Safety,base,Bunny Tails Muslin Bebe Car Seat  Cover,,,,https://www.blushandbloom.com/shop/images/images_small/bunny-80x120.PNG,https://www.blushandbloom.com/shop/images/images_small/bunny-80x120.PNG,https://www.blushandbloom.com/shop/images/images_small/bunny-80x120.PNG,https://www.blushandbloom.com/shop/images/images_small/bunny3-80x120.PNG,https://www.blushandbloom.com/shop/images/images_small/bunny2-80x120.PNG,,0.205,1,Taxable Goods,"Catalog, Search",160,,,,bunny-tails-muslin-and-bebe-car-seat-cover,Bunny Tails Muslin Bebe Car Seat  Cover,,,,,,,,,,,,,,,,,,Use config,,"has_options=1,quantity_and_stock_status=In Stock,required_options=0",20,0,1,0,0,1,1,0,0,1,1,,1,0,1,1,0,1,0,0,1,0,1,,,,,,,,,,,,
ILD-COMFORTER,,Default,simple,Baby/Baby Accessories,base,Ilado Paris Angel Caller Comforter,,,,https://www.blushandbloom.com/shop/images/images_small/ILADO_COMFORTER_BLUSHANDBLOOM-80x120.png,https://www.blushandbloom.com/shop/images/images_small/ILADO_COMFORTER_BLUSHANDBLOOM-80x120.png,https://www.blushandbloom.com/shop/images/images_small/ILADO_COMFORTER_BLUSHANDBLOOM-80x120.png,https://www.blushandbloom.com/shop/images/images_small/Capture-80x120.PNG,,,1,1,Taxable Goods,"Catalog, Search",165,,,,ilado-paris-and-angel-caller-comforter,Ilado Paris Angel Caller Comforter,,,,,,,,,,,,,,,,,,Use config,,"has_options=1,quantity_and_stock_status=In Stock,required_options=0",20,0,1,0,0,1,1,0,0,1,1,,1,0,1,1,0,1,0,0,1,0,1,,,,,,,,,,,,
ALG-LILY-BLUS,,Default,simple,Baby/Baby Accessories,base,Lily in Blush,,,,https://www.blushandbloom.com/shop/images/images_small/ALG-LILY-BLUS-a-80x120.jpg,https://www.blushandbloom.com/shop/images/images_small/ALG-LILY-BLUS-a-80x120.jpg,https://www.blushandbloom.com/shop/images/images_small/ALG-LILY-BLUS-a-80x120.jpg,https://www.blushandbloom.com/shop/images/images_small/ALG-LILY-BLUS-b-80x120.jpg,https://www.blushandbloom.com/shop/images/images_small/ALG-LILY-BLUS-c-80x120.jpg,https://www.blushandbloom.com/shop/images/images_small/ALG-LILY-BLUS-d-80x120.jpg,1,1,Taxable Goods,"Catalog, Search",180,,,,lily-in-blush-allegaro,Lily in Blush,,,,,,,,,,,,,,,,,,Use config,,"has_options=1,quantity_and_stock_status=In Stock,required_options=0",20,0,1,0,0,1,1,0,0,1,1,,1,0,1,1,0,1,0,0,1,0,1,,,,,,,,,,,,
ALG-LILY-PNK,,Default,simple,Baby/Baby Accessories,base,Lily in Pink,,,,https://www.blushandbloom.com/shop/images/images_small/ALG-LILY-PNK-aa-80x120.jpg,https://www.blushandbloom.com/shop/images/images_small/ALG-LILY-PNK-aa-80x120.jpg,https://www.blushandbloom.com/shop/images/images_small/ALG-LILY-PNK-aa-80x120.jpg,https://www.blushandbloom.com/shop/images/images_small/ALG-LILY-PNK-b-80x120.jpg,https://www.blushandbloom.com/shop/images/images_small/ALG-LILY-PNK-c-80x120.jpg,https://www.blushandbloom.com/shop/images/images_small/ALG-LILY-PNK-d-80x120.jpg,1,1,Taxable Goods,"Catalog, Search",260,,,,lily-in-pink-allegaro,Lily in Pink,,,,,,,,,,,,,,,,,,Use config,,"has_options=1,quantity_and_stock_status=In Stock,required_options=0",20,0,1,0,0,1,1,0,0,1,1,,1,0,1,1,0,1,0,0,1,0,1,,,,,,,,,,,,
ALG-LILY-GOLD,,Default,simple,Baby/Baby Accessories,base,Lily in Gold,,,,https://www.blushandbloom.com/shop/images/images_small/ALG-LILY-GOLD-a-80x120.jpg,https://www.blushandbloom.com/shop/images/images_small/ALG-LILY-GOLD-a-80x120.jpg,https://www.blushandbloom.com/shop/images/images_small/ALG-LILY-GOLD-a-80x120.jpg,https://www.blushandbloom.com/shop/images/images_small/ALG-LILY-GOLD-b-80x120.jpg,,,1,1,Taxable Goods,"Catalog, Search",260,,,,lily-in-gold-allegaro,Lily in Gold,,,,,,,,,,,,,,,,,,Use config,,"has_options=1,quantity_and_stock_status=In Stock,required_options=0",20,0,1,0,0,1,1,0,0,1,1,,1,1,1,1,0,1,0,0,1,0,1,,,,,,,,,,,,
ALG-LILY-SILV,,Default,simple,Baby/Baby Accessories,base,Lily in Silver,,,,https://www.blushandbloom.com/shop/images/images_small/ALG-LILY-SILV-a-80x120.jpg,https://www.blushandbloom.com/shop/images/images_small/ALG-LILY-SILV-a-80x120.jpg,https://www.blushandbloom.com/shop/images/images_small/ALG-LILY-SILV-a-80x120.jpg,https://www.blushandbloom.com/shop/images/images_small/ALG-LILY-SILV-b-80x120.jpg,https://www.blushandbloom.com/shop/images/images_small/ALG-LILY-SILV-c-80x120.jpg,https://www.blushandbloom.com/shop/images/images_small/ALG-LILY-PNK-d-80x120.jpg,1,1,Taxable Goods,"Catalog, Search",260,,,,lily-in-silver-allegaro,Lily in Silver,,,,,,,,,,,,,,,,,,Use config,,"has_options=1,quantity_and_stock_status=In Stock,required_options=0",20,0,1,0,0,1,1,0,0,1,1,,1,0,1,1,0,1,0,0,1,0,1,,,,,,,,,,,,
ALG-JAS-PNK,,Default,simple,Baby/Baby Accessories,base,Jasmine in Pink,,,,https://www.blushandbloom.com/shop/images/images_small/ALG-JAS-PNK-aa-80x120.jpg,https://www.blushandbloom.com/shop/images/images_small/ALG-JAS-PNK-aa-80x120.jpg,https://www.blushandbloom.com/shop/images/images_small/ALG-JAS-PNK-aa-80x120.jpg,https://www.blushandbloom.com/shop/images/images_small/ALG-JAS-PNK-b-80x120.jpg,https://www.blushandbloom.com/shop/images/images_small/ALG-JAS-PNK-c-80x120.jpg,,1,1,Taxable Goods,"Catalog, Search",260,,,,jasmine-in-a-pink,Jasmine in Pink,,,,,,,,,,,,,,,,,,Use config,,"has_options=1,quantity_and_stock_status=In Stock,required_options=0",20,0,1,0,0,1,1,0,0,1,1,,1,1,1,1,0,1,0,0,1,0,1,,,,,,,,,,,,
ALG-POP-SILV,,Default,simple,Baby/Baby Accessories,base,Poppy in Silver,,,,https://www.blushandbloom.com/shop/images/images_small/ALG-POP-SILV-a-80x120.jpg,https://www.blushandbloom.com/shop/images/images_small/ALG-POP-SILV-a-80x120.jpg,https://www.blushandbloom.com/shop/images/images_small/ALG-POP-SILV-a-80x120.jpg,https://www.blushandbloom.com/shop/images/images_small/ALG-POP-SILV-b-80x120.jpg,https://www.blushandbloom.com/shop/images/images_small/ALG-POP-SILV-c-80x120.jpg,,1,1,Taxable Goods,"Catalog, Search",180,,,,poppy-in-silver,Poppy in Silver,,,,,,,,,,,,,,,,,,Use config,,"has_options=1,quantity_and_stock_status=In Stock,required_options=0",20,0,1,0,0,1,1,0,0,1,1,,1,0,1,1,0,1,0,0,1,0,1,,,,,,,,,,,,
MNLM-BBIB-WSAN,,Default,simple,Baby/Baby Accessories,base,Bunny Bib White & Sand,,,,https://www.blushandbloom.com/shop/images/images_small/MNLM-BBIB-WSAN-a-80x120.jpg,https://www.blushandbloom.com/shop/images/images_small/MNLM-BBIB-WSAN-a-80x120.jpg,https://www.blushandbloom.com/shop/images/images_small/MNLM-BBIB-WSAN-a-80x120.jpg,,,,1,1,Taxable Goods,"Catalog, Search",46,,,,Bunny-Bib-White-&-Sand,Bunny Bib White & Sand,,,,,,,,,,,,,,,,,,Use config,,"has_options=1,quantity_and_stock_status=In Stock,required_options=1",20,0,1,0,0,1,1,0,0,1,1,,1,0,1,1,0,1,0,0,1,0,1,,,,,,,,,,,,
