sku,name,description,short_description,price,weight,qty,base_image,small_image,thumbnail_image,store_view_code,attribute_set_code,product_type,categories,product_websites,product_online,tax_class_name,visibility,special_price,special_price_from_date,special_price_to_date,url_key,meta_title,meta_keywords,meta_description,created_at,updated_at,new_from_date,new_to_date,display_product_options_in,map_price,msrp_price,map_enabled,gift_message_available,custom_design,custom_design_from,custom_design_to,custom_layout_update,page_layout,product_options_container,msrp_display_actual_price_type,country_of_manufacture,additional_attributes,out_of_stock_qty,use_config_min_qty,is_qty_decimal,allow_backorders,use_config_backorders,min_cart_qty,use_config_min_sale_qty,max_cart_qty,use_config_max_sale_qty,is_in_stock,notify_on_stock_below,use_config_notify_stock_qty,manage_stock,use_config_manage_stock,use_config_qty_increments,qty_increments,use_config_enable_qty_inc,enable_qty_increments,is_decimal_divided,website_id,deferred_stock_update,use_config_deferred_stock_update,related_skus,crosssell_skus,upsell_skus,hide_from_product_page,custom_options,bundle_price_type,bundle_sku_type,bundle_price_view,bundle_weight_type,bundle_values,associated_skus,errors
MAM-0018,"Anais Ruffled Maternity Day Dress ","<p>Looking for a feminine maternity and nursing piece you can wear now and later? Made from two layers of smooth stretch-cotton, this flouncy ruffle-trimmed dress has a shirred bust and delicately ruffled, elasticised shoulder straps that can be detached easily for nursing access. Keep styling simple with sandals and your favourite tote.<br /> <br /> <br /> Features:<br /> <br /> Pure white&nbsp; <br /> Ruffled, double-layered stretch cotton day dress <br /> Hidden hook fastener at the front that detaches to allow for easy nursing access<br /> Tight ruffles along length of shoulder strap<br /> Soft shirring across bust section with elasticised hem to prevent dress slipping down <br /> Ruffled, flounce-style hem <br /> Fully lined<br /> &nbsp;<br /> Composition: <br /> 95% Cotton | 5% Spandex<br /> Two layers of premium quality, slightly stretchy cotton<br /> <br /> Washing Instruction:<br /> Warm machine wash with similar colours</p>",,475,1,6,https://www.blushandbloom.com/shop/images/images_big/MAM-0018.jpg,https://www.blushandbloom.com/shop/images/images_big/MAM-0018_(4).jpg,https://www.blushandbloom.com/shop/images/images_big/MAM-0018_(3).jpg,,Default,simple,,base,,1,"Taxable Goods","Catalog, Search",,,,,,,,,,,,"Block after Info Column",,,,,,,,,,,"Use config",,"has_options=1,quantity_and_stock_status=In Stock,required_options=157",0,1,0,0,1,1,0,0,1,1,,1,0,1,1,0,1,0,0,1,0,1,,,,,,,,,,,"Value for 'visibility' attribute contains incorrect value, see acceptable values on settings specified for Admin,Value for 'visibility' attribute contains incorrect value, see acceptable values on settings specified for Admin,Value for 'country_of_manufacture' attribute contains incorrect value, see acceptable values on settings specified for Admin,Value for 'visibility' attribute contains incorrect value, see acceptable values on settings specified for Admin,Value for 'country_of_manufacture' attribute contains incorrect value, see acceptable values on settings specified for Admin,Value for 'special_price' attribute contains incorrect value"
MAM-0008A,"Lily Terry-Lined Nursing Compression Cami","<p>The ultimate nursing cami has arrived! This everyday maternity essential has a fully supportive inner shelf bra which is lined with soft, seamless terry fleece to absorb moisture and conceal minor leakage. The stretch-mesh lining throughout the bodice offers light to medium compression to smooth the silhouette and encourage skin retraction postpartum. A simple snap-down bust panel with the perfect amount of coverage offers easy, discreet nursing. <br /> <br /> <br /> Features:<br /> <br /> Available in black and white <br /> Triple layer bust panel with empire line stitching <br /> Adjustable elastic straps allows you to achieve the perfect scoop neckline<br /> Ultra comfortable under bust elastic that won't cut in <br /> Ruched sides both front and back to flatter a soft post-baby belly <br /> Supportive mesh lining throughout bodice<br /> Flattering low scoop at the back<br /> &nbsp;<br /> Composition: <br /> 94% Modal | 6% Elastane (outer layer)<br /> 80% Cotton | 20% Polyester (bust inner lining)<br /> 80% Nylon | 20% Elastane (mesh Lining)<br /> Excellent fabric stretch and return <br /> Not sheer<br /> <br /> Washing Instruction:<br /> Warm machine wash with similar colours</p>",,220,1,9,https://www.blushandbloom.com/shop/images/images_big/MAM-0008A_WHITE.jpg,https://www.blushandbloom.com/shop/images/images_big/MAM-0008A_WHITE_(2).jpg,https://www.blushandbloom.com/shop/images/images_big/MAM-0008A_WHITE_(4).jpg,,Default,simple,,base,,1,"Taxable Goods","Catalog, Search",,,,,,,,,,,,"Block after Info Column",,,,,,,,,,,"Use config",,"has_options=1,quantity_and_stock_status=In Stock,required_options=161",0,1,0,0,1,1,0,0,1,1,,1,0,1,1,0,1,0,0,1,0,1,,,,,,,,,,,"Value for 'visibility' attribute contains incorrect value, see acceptable values on settings specified for Admin,Value for 'visibility' attribute contains incorrect value, see acceptable values on settings specified for Admin,Value for 'country_of_manufacture' attribute contains incorrect value, see acceptable values on settings specified for Admin,Value for 'visibility' attribute contains incorrect value, see acceptable values on settings specified for Admin,Value for 'country_of_manufacture' attribute contains incorrect value, see acceptable values on settings specified for Admin,Value for 'special_price' attribute contains incorrect value"
MAM-0008B,"Lily Terry-Lined Nursing Compression Cami","<p>The ultimate nursing cami has arrived! This everyday maternity essential has a fully supportive inner shelf bra which is lined with soft, seamless terry fleece to absorb moisture and conceal minor leakage. The stretch-mesh lining throughout the bodice offers light to medium compression to smooth the silhouette and encourage skin retraction postpartum. A simple snap-down bust panel with the perfect amount of coverage offers easy, discreet nursing. <br /> <br /> <br /> Features:<br /> <br /> Available in black and white <br /> Triple layer bust panel with empire line stitching <br /> Adjustable elastic straps allows you to achieve the perfect scoop neckline<br /> Ultra comfortable under bust elastic that won't cut in <br /> Ruched sides both front and back to flatter a soft post-baby belly <br /> Supportive mesh lining throughout bodice<br /> Flattering low scoop at the back<br /> &nbsp;<br /> Composition: <br /> 94% Modal | 6% Elastane (outer layer)<br /> 80% Cotton | 20% Polyester (bust inner lining)<br /> 80% Nylon | 20% Elastane (mesh Lining)<br /> Excellent fabric stretch and return <br /> Not sheer<br /> <br /> Washing Instruction:<br /> Warm machine wash with similar colours</p>",,220,1,4,https://www.blushandbloom.com/shop/images/images_big/MAM-0008B_BLACK.jpg,https://www.blushandbloom.com/shop/images/images_big/MAM-0008B_BLACK_(3).jpg,https://www.blushandbloom.com/shop/images/images_big/MAM-0008B_BLACK_(2).jpg,,Default,simple,,base,,1,"Taxable Goods","Catalog, Search",,,,,,,,,,,,"Block after Info Column",,,,,,,,,,,"Use config",,"has_options=1,quantity_and_stock_status=In Stock,required_options=165",0,1,0,0,1,1,0,0,1,1,,1,0,1,1,0,1,0,0,1,0,1,,,,,,,,,,,"Value for 'visibility' attribute contains incorrect value, see acceptable values on settings specified for Admin,Value for 'visibility' attribute contains incorrect value, see acceptable values on settings specified for Admin,Value for 'country_of_manufacture' attribute contains incorrect value, see acceptable values on settings specified for Admin,Value for 'visibility' attribute contains incorrect value, see acceptable values on settings specified for Admin,Value for 'country_of_manufacture' attribute contains incorrect value, see acceptable values on settings specified for Admin,Value for 'special_price' attribute contains incorrect value,Url key: 'lily-terry-lined-nursing-compression-cami' was already generated for an item with the SKU: 'MAM-0008A'. You need to specify the unique URL key manually"
MAM-0009A,"Ines Double-Layer Ruched Nursing Tank","<p>This elevated maternity essential is the go-to staple for pregnant and nursing mothers. The double-layer, longline design smoothes the silouette and gives gentle support at all stages of pregnancy and beyond. This piece has been thoughtfully designed with flattering sleek shoulder straps, a wide scoop neckline and delicate side ruching that extends both front and back. The clever split inner layer allows for discreet nursing access if desired.<br /> <br /> <br /> Features:<br /> <br /> Available in grey-on-black and white-on-grey<br /> Double-layered premium jersey maternity and nursing tank <br /> Simply pull down the top layer and lift the inner bust layer above split for easy, discreet nursing access<br /> Low scoop neckline<br /> Longer inner bodice layer stays in place with thin elastic edge<br /> Ruched sides both front and back to flatter a soft post-baby belly <br /> Low scoop at the back<br /> &nbsp;<br /> Composition: <br /> Double-layered premium jersey blend <br /> 47.5% Modal | 47.5% Cotton | 5% Spandex<br /> Smooth, high-quality feel with excellent fabric stretch and return <br /> Not sheer<br /> <br /> Washing Instruction:<br /> Cold machine wash with similar colours</p>",,195,1,6,https://www.blushandbloom.com/shop/images/images_big/MAM-0009A__White(5).jpg,https://www.blushandbloom.com/shop/images/images_big/MAM-0009A_White.jpg,https://www.blushandbloom.com/shop/images/images_big/MAM-0009A_White_(4).jpg,,Default,simple,,base,,1,"Taxable Goods","Catalog, Search",,,,,,,,,,,,"Block after Info Column",,,,,,,,,,,"Use config",,"has_options=1,quantity_and_stock_status=In Stock,required_options=169",0,1,0,0,1,1,0,0,1,1,,1,0,1,1,0,1,0,0,1,0,1,,,,,,,,,,,"Value for 'visibility' attribute contains incorrect value, see acceptable values on settings specified for Admin,Value for 'visibility' attribute contains incorrect value, see acceptable values on settings specified for Admin,Value for 'country_of_manufacture' attribute contains incorrect value, see acceptable values on settings specified for Admin,Value for 'visibility' attribute contains incorrect value, see acceptable values on settings specified for Admin,Value for 'country_of_manufacture' attribute contains incorrect value, see acceptable values on settings specified for Admin,Value for 'special_price' attribute contains incorrect value"
MAM-0009B,"Ines Double-Layer Ruched Nursing Tank","<p>This elevated maternity essential is the go-to staple for pregnant and nursing mothers. The double-layer, longline design smoothes the silouette and gives gentle support at all stages of pregnancy and beyond. This piece has been thoughtfully designed with flattering sleek shoulder straps, a wide scoop neckline and delicate side ruching that extends both front and back. The clever split inner layer allows for discreet nursing access if desired.<br /> <br /> <br /> Features:<br /> <br /> Available in grey-on-black and white-on-grey<br /> Double-layered premium jersey maternity and nursing tank <br /> Simply pull down the top layer and lift the inner bust layer above split for easy, discreet nursing access<br /> Low scoop neckline<br /> Longer inner bodice layer stays in place with thin elastic edge<br /> Ruched sides both front and back to flatter a soft post-baby belly <br /> Low scoop at the back<br /> &nbsp;<br /> Composition: <br /> Double-layered premium jersey blend <br /> 47.5% Modal | 47.5% Cotton | 5% Spandex<br /> Smooth, high-quality feel with excellent fabric stretch and return <br /> Not sheer<br /> <br /> Washing Instruction:<br /> Cold machine wash with similar colours</p>",,195,1,6,https://www.blushandbloom.com/shop/images/images_big/MAM-0009B_GREY_(4).jpg,https://www.blushandbloom.com/shop/images/images_big/MAM-0009B_GREY.jpg,https://www.blushandbloom.com/shop/images/images_big/MAM-0009B_GREY_(3).jpg,,Default,simple,,base,,1,"Taxable Goods","Catalog, Search",,,,,,,,,,,,"Block after Info Column",,,,,,,,,,,"Use config",,"has_options=1,quantity_and_stock_status=In Stock,required_options=173",0,1,0,0,1,1,0,0,1,1,,1,0,1,1,0,1,0,0,1,0,1,,,,,,,,,,,"Value for 'visibility' attribute contains incorrect value, see acceptable values on settings specified for Admin,Value for 'visibility' attribute contains incorrect value, see acceptable values on settings specified for Admin,Value for 'country_of_manufacture' attribute contains incorrect value, see acceptable values on settings specified for Admin,Value for 'visibility' attribute contains incorrect value, see acceptable values on settings specified for Admin,Value for 'country_of_manufacture' attribute contains incorrect value, see acceptable values on settings specified for Admin,Value for 'special_price' attribute contains incorrect value,Url key: 'ines-double-layer-ruched-nursing-tank' was already generated for an item with the SKU: 'MAM-0009A'. You need to specify the unique URL key manually"
MAM-0017,"Liberty Deep V Maternity Tee","<p>Our ultra flattering, deep v-neck style maternity t-shirt is made from smooth, super stretchy jersey with a high quality feel and finish. With a 'boyfriend' style cut, this wardrobe essential has no side ruching and the perfect relaxed drape so it will work well beyond your baby's arrival. The length of the short sleeves is especially flattering. Wear it with everything - jeans, joggers, skirts, shorts, leggings..<br /> <br /> Features:<br /> <br /> Dark marl grey<br /> Relaxed cut stretch jersey maternity t-shirt<br /> Deep v-style ribbed neckline <br /> Straight hem<br /> Vertical contrast topstitched seam runs length of back<br /> Unlined<br /> &nbsp;<br /> Composition: <br /> 95% Cotton | 5% Spandex<br /> Trim: 95% Polyester | 5% Spandex<br /> Mid-weight, premium stretch jersey<br /> Excellent fabric stretch and return <br /> Not sheer<br /> <br /> Washing Instruction:<br /> Warm machine wash with similar colours</p>",,195,1,6,https://www.blushandbloom.com/shop/images/images_big/MAM-0017_(2).jpg,https://www.blushandbloom.com/shop/images/images_big/MAM-0017_(3).jpg,https://www.blushandbloom.com/shop/images/images_big/MAM-0017_(4).jpg,,Default,simple,,base,,1,"Taxable Goods","Catalog, Search",,,,,,,,,,,,"Block after Info Column",,,,,,,,,,,"Use config",,"has_options=1,quantity_and_stock_status=In Stock,required_options=177",0,1,0,0,1,1,0,0,1,1,,1,0,1,1,0,1,0,0,1,0,1,,,,,,,,,,,"Value for 'visibility' attribute contains incorrect value, see acceptable values on settings specified for Admin,Value for 'visibility' attribute contains incorrect value, see acceptable values on settings specified for Admin,Value for 'country_of_manufacture' attribute contains incorrect value, see acceptable values on settings specified for Admin,Value for 'visibility' attribute contains incorrect value, see acceptable values on settings specified for Admin,Value for 'country_of_manufacture' attribute contains incorrect value, see acceptable values on settings specified for Admin,Value for 'special_price' attribute contains incorrect value"
MAM-0015,"Baby on Board Graphic Maternity Tee","<p>Every maternity wardrobe needs a cool, graphic t-shirt. Sure to get you noticed, this version is a playful take on the universal 'Baby on Board' sign. Cut from a beautifully smooth, stretchy cotton blend, it has a crew neck, slightly over-sized, boyfriend-style fit and rolled sleeves. Wear it with our 'Allegra' leggings and your favourite sneakers for the perfect weekend outfit. <br /> <br /> Features:<br /> <br /> Pure white with black script<br /> Relaxed, slightly over-sized cut, stretch jersey maternity t-shirt<br /> Banded neckline<br /> Longline design <br /> Straight hem<br /> Unlined<br /> &nbsp;<br /> Composition: <br /> 92.5% Cotton | 7.5% Spandex<br /> Mid-weight, premium stretch jersey<br /> Excellent fabric stretch and return <br /> Not sheer<br /> <br /> Washing Instruction:<br /> Warm machine wash with similar colours</p>",,195,1,6,https://www.blushandbloom.com/shop/images/images_big/MAM-0015.jpg,https://www.blushandbloom.com/shop/images/images_big/MAM-0015_(2).jpg,https://www.blushandbloom.com/shop/images/images_big/MAM-0015_(4).jpg,,Default,simple,,base,,1,"Taxable Goods","Catalog, Search",,,,,,,,,,,,"Block after Info Column",,,,,,,,,,,"Use config",,"has_options=1,quantity_and_stock_status=In Stock,required_options=181",0,1,0,0,1,1,0,0,1,1,,1,0,1,1,0,1,0,0,1,0,1,,,,,,,,,,,"Value for 'visibility' attribute contains incorrect value, see acceptable values on settings specified for Admin,Value for 'visibility' attribute contains incorrect value, see acceptable values on settings specified for Admin,Value for 'country_of_manufacture' attribute contains incorrect value, see acceptable values on settings specified for Admin,Value for 'visibility' attribute contains incorrect value, see acceptable values on settings specified for Admin,Value for 'country_of_manufacture' attribute contains incorrect value, see acceptable values on settings specified for Admin,Value for 'special_price' attribute contains incorrect value"
MAM-0011,"Cameron Long Sleeved Striped Nursing Top","<p>The seasonless staple: you'll wear this effortless, breton-style maternity top for way beyond your pregnancy. Cut from soft blended modal, this wardrobe essential has feminine shirring along the sides and back for an all-over ruched, expansive fit. The double-layered, deep scoop neckline pulls down for easy and discreet nursing while elongated sleeves and a longer, curved front give a balanced look. Wear yours with jeans or leggings and an edgy jacket for pulled-together comfort.<br /> <br /> Features:<br /> <br /> Black | white stripe<br /> Breton-style maternity and nursing top<br /> Longline design with elongated sleeves<br /> Side and centre-back shirring flatters any size bump and disguises a soft post-baby belly<br /> Solid black banding edges the centre back and scoop neckline<br /> Allows for fast, discreet nursing access<br /> Partially lined<br /> &nbsp;<br /> Composition: <br /> 96% Modal | 4% Spandex<br /> Soft, light-medium weight modal blend<br /> Excellent fabric stretch and return <br /> Not sheer<br /> <br /> Washing Instruction:<br /> Cool machine wash with similar colours</p>",,250,1,6,https://www.blushandbloom.com/shop/images/images_big/MAM-0011_(2).jpg,https://www.blushandbloom.com/shop/images/images_big/MAM-0011_(3).jpg,https://www.blushandbloom.com/shop/images/images_big/MAM-0011_(6).jpg,,Default,simple,,base,,1,"Taxable Goods","Catalog, Search",,,,,,,,,,,,"Block after Info Column",,,,,,,,,,,"Use config",,"has_options=1,quantity_and_stock_status=In Stock,required_options=185",0,1,0,0,1,1,0,0,1,1,,1,0,1,1,0,1,0,0,1,0,1,,,,,,,,,,,"Value for 'visibility' attribute contains incorrect value, see acceptable values on settings specified for Admin,Value for 'visibility' attribute contains incorrect value, see acceptable values on settings specified for Admin,Value for 'country_of_manufacture' attribute contains incorrect value, see acceptable values on settings specified for Admin,Value for 'visibility' attribute contains incorrect value, see acceptable values on settings specified for Admin,Value for 'country_of_manufacture' attribute contains incorrect value, see acceptable values on settings specified for Admin,Value for 'special_price' attribute contains incorrect value"
MAM-0012,"Allegra Brushed Premium Jersey Maternity Leggings ","<p>Designed to smooth the silhouette and maximise comfort, these luxurious, brushed premium jersey maternity leggings offer light compression with the flexibility to be worn either over or under your bump. The foundation of every maternity wardrobe, this classic black pair with its cool, contrasting waistband will work with everything, from shirts and tailoring to graphic tees and oversized sweaters.<br /> <br /> Features:<br /> <br /> True black with a dark grey foldover waistband&nbsp; <br /> Supportive, stretchy fabric with butter-soft outer texture<br /> Cut from dense premium jersey with four-way stretch<br /> Butter-soft, oversized waistband lies flat against your bump, won't dig in and can be worn under or over the bump <br /> Hits at the ankle for a flattering finish<br /> Pull-on style<br /> &nbsp;<br /> Composition: <br /> 80% Nylon | 20% Spandex<br /> Dense, mid-weight brushed premium jersey<br /> Soft, textured exterior | Smooth, sleek interior<br /> Double-layered foldover waistband<br /> Unlined<br /> <br /> Washing Instruction:<br /> Cool machine wash with similar colours</p>",,305,1,6,https://www.blushandbloom.com/shop/images/images_big/MAM-0009A__White(5).jpg,https://www.blushandbloom.com/shop/images/images_big/MAM-0012.jpg,https://www.blushandbloom.com/shop/images/images_big/MAM-0012_(2).jpg,,Default,simple,,base,,1,"Taxable Goods","Catalog, Search",,,,,,,,,,,,"Block after Info Column",,,,,,,,,,,"Use config",,"has_options=1,quantity_and_stock_status=In Stock,required_options=189",0,1,0,0,1,1,0,0,1,1,,1,0,1,1,0,1,0,0,1,0,1,,,,,,,,,,,"Value for 'visibility' attribute contains incorrect value, see acceptable values on settings specified for Admin,Value for 'visibility' attribute contains incorrect value, see acceptable values on settings specified for Admin,Value for 'country_of_manufacture' attribute contains incorrect value, see acceptable values on settings specified for Admin,Value for 'visibility' attribute contains incorrect value, see acceptable values on settings specified for Admin,Value for 'country_of_manufacture' attribute contains incorrect value, see acceptable values on settings specified for Admin,Value for 'special_price' attribute contains incorrect value"
MAM-0014,"Georgia Ruched Maternity Swimsuit","<p>The ultimate maternity swimsuit cut from super soft, four-way stretch fabric. With feminine shirring front and back for an all-over ruched, flattering and expansive fit. The wide, supportive shoulder straps taper to a detachable clip for easy nursing access. The bandeau-style neckline is discreetly detailed with supportive boning and padded flexi-wire to lift and shape the bust. The only swimsuit you'll need before, during and after pregnancy.&nbsp; <br /> <br /> <br /> Features:<br /> <br /> Deep navy<br /> One piece, fully ruched maternity swimsuit with bandeau neckline <br /> Flattering two-inch shoulder straps that detach for fuss-free nursing access<br /> Silicone elastic edges the neckline for support and comfort<br /> Full rear coverage<br /> Pull-on design <br /> Fully lined<br /> &nbsp;<br /> Composition: <br /> 82% Nylon | 18% Spandex<br /> Lining: 88% Nylon | 12% Spandex<br /> Smooth, sleek four-way stretch fabric with very light compression <br /> Excellent fabric stretch and return <br /> Fully lined <br /> <br /> Washing Instruction:<br /> Cool machine wash with similar colours. However, to prolong the longevity of this timeless piece we recommend a cold hand wash immediately after swimming in chlorinated or salt water&nbsp;</p>",,375,1,6,https://www.blushandbloom.com/shop/images/images_big/MAM-0014_(2).jpg,https://www.blushandbloom.com/shop/images/images_big/MAM-0014_(3).jpg,https://www.blushandbloom.com/shop/images/images_big/MAM-0014_(4).jpg,,Default,simple,,base,,1,"Taxable Goods","Catalog, Search",,,,,,,,,,,,"Block after Info Column",,,,,,,,,,,"Use config",,"has_options=1,quantity_and_stock_status=In Stock,required_options=193",0,1,0,0,1,1,0,0,1,1,,1,0,1,1,0,1,0,0,1,0,1,,,,,,,,,,,"Value for 'visibility' attribute contains incorrect value, see acceptable values on settings specified for Admin,Value for 'visibility' attribute contains incorrect value, see acceptable values on settings specified for Admin,Value for 'country_of_manufacture' attribute contains incorrect value, see acceptable values on settings specified for Admin,Value for 'visibility' attribute contains incorrect value, see acceptable values on settings specified for Admin,Value for 'country_of_manufacture' attribute contains incorrect value, see acceptable values on settings specified for Admin,Value for 'special_price' attribute contains incorrect value"
