sku,name,price,description,weight,qty,store_view_code,attribute_set_code,product_type,categories,product_websites,short_description,product_online,tax_class_name,visibility,special_price,special_price_from_date,special_price_to_date,url_key,meta_title,meta_keywords,meta_description,created_at,updated_at,new_from_date,new_to_date,display_product_options_in,map_price,msrp_price,map_enabled,gift_message_available,custom_design,custom_design_from,custom_design_to,custom_layout_update,page_layout,product_options_container,msrp_display_actual_price_type,country_of_manufacture,additional_attributes,out_of_stock_qty,use_config_min_qty,is_qty_decimal,allow_backorders,use_config_backorders,min_cart_qty,use_config_min_sale_qty,max_cart_qty,use_config_max_sale_qty,is_in_stock,notify_on_stock_below,use_config_notify_stock_qty,manage_stock,use_config_manage_stock,use_config_qty_increments,qty_increments,use_config_enable_qty_inc,enable_qty_increments,is_decimal_divided,website_id,deferred_stock_update,use_config_deferred_stock_update,related_skus,crosssell_skus,upsell_skus,hide_from_product_page,custom_options,bundle_price_type,bundle_sku_type,bundle_price_view,bundle_weight_type,bundle_values
3760084535887,Lytess Excel Slim Flash Flat Tummy Panty  Black S/M,420,"<p>Innovative Slimming clothes from France with new technology,&nbsp; comfortable clothes, like normal underwear, just wear and get slim, without effort, without restrictions<br /><strong><br />Product Features:<br /></strong>Use it 8 hours daily for 5 Days and you will lose approximately -3.8 cm from the hips, -2.6 cm from thighs.<br /><br /><strong>How to Wash:<br /></strong>Wash it in the washing machine at 30-degree temperature and don&rsquo;t use chlorine</p>",1,10,,Default,simple,,base,,1,Taxable Goods,"Catalog, Search",,,,,,,,,,,,Block after Info Column,,,,,,,,,,,Use config,,"has_options=1,quantity_and_stock_status=In Stock,required_options=100",0,1,0,0,1,1,0,0,1,1,,1,0,1,1,0,1,0,0,1,0,1,,,,,,,,,,
3760084535894,Lytess Excel Slim Flash Flat Tummy Panty  Black L/XL,420,"<p>Innovative Slimming clothes from France with new technology,&nbsp; comfortable clothes, like normal underwear, just wear and get slim, without effort, without restrictions<br /><strong><br />Product Features:<br /></strong>Use it 8 hours daily for 5 Days and you will lose approximately -3.8 cm from the hips, -2.6 cm from thighs.<br /><br /><strong>How to Wash:<br /></strong>Wash it in the washing machine at 30-degree temperature</p>",1,10,,Default,simple,,base,,1,Taxable Goods,"Catalog, Search",,,,,,,,,,,,Block after Info Column,,,,,,,,,,,Use config,,"has_options=1,quantity_and_stock_status=In Stock,required_options=101",0,1,0,0,1,1,0,0,1,1,,1,0,1,1,0,1,0,0,1,0,1,,,,,,,,,,
3760084535900,Lytess EXCEL SLIM FLASH Flat Tummy Capris Black S/M,420,"<p>Innovative Slimming clothes from France with new technology,&nbsp; comfortable clothes, like normal underwear, just wear and get slim, without effort, without restrictions<br /><strong><br />Product Features:<br /></strong>Use it 8 hours daily for 5 Days and you will lose approximately -3.8 cm from the hips, -2.6 cm from thighs.<br /><br /><strong>How to Wash:<br /></strong>Wash it in the washing machine at 30-degree temperature&nbsp;</p>",1,10,,Default,simple,,base,,1,Taxable Goods,"Catalog, Search",,,,,,,,,,,,Block after Info Column,,,,,,,,,,,Use config,,"has_options=1,quantity_and_stock_status=In Stock,required_options=102",0,1,0,0,1,1,0,0,1,1,,1,0,1,1,0,1,0,0,1,0,1,,,,,,,,,,
3760084535917,Lytess EXCEL SLIM FLASH Flat Tummy Capris Black X/L,420,"<p>Innovative Slimming clothes from France with new technology,&nbsp; comfortable clothes, like normal underwear, just wear and get slim, without effort, without restrictions<br /><strong><br />Product Features:<br /></strong>Use it 8 hours daily for 5 Days and you will lose approximately -3.8 cm from the hips, -2.6 cm from thighs.<br /><br /><strong>How to Wash:<br /></strong>Wash it in the washing machine at 30-degree temperature&nbsp;</p>",1,10,,Default,simple,,base,,1,Taxable Goods,"Catalog, Search",,,,,,,,,,,,Block after Info Column,,,,,,,,,,,Use config,,"has_options=1,quantity_and_stock_status=In Stock,required_options=103",0,1,0,0,1,1,0,0,1,1,,1,0,1,1,0,1,0,0,1,0,1,,,,,,,,,,
3760084535924,Lytess EXCEL SLIM FLASH Flat Tummy Leggings Black S/M,420,"<p>Innovative Slimming clothes from France with new technology,&nbsp; comfortable clothes, like normal underwear, just wear and get slim, without effort, without restrictions<br /><strong><br />Product Features:<br /></strong>Use it 8 hours daily for 5 Days and you will lose approximately -3.8 cm from the hips, -2.6 cm from thighs.<br /><br /><strong>How to Wash:<br /></strong>Wash it in the washing machine at 30-degree temperature&nbsp;</p>",1,10,,Default,simple,,base,,1,Taxable Goods,"Catalog, Search",,,,,,,,,,,,Block after Info Column,,,,,,,,,,,Use config,,"has_options=1,quantity_and_stock_status=In Stock,required_options=104",0,1,0,0,1,1,0,0,1,1,,1,0,1,1,0,1,0,0,1,0,1,,,,,,,,,,
3760084535931,Lytess EXCEL SLIM FLASH Flat Tummy Leggings Black L/XL,420,"<p>Innovative Slimming clothes from France with new technology,&nbsp; comfortable clothes, like normal underwear, just wear and get slim, without effort, without restrictions<br /><strong><br />Product Features:<br /></strong>Use it 8 hours daily for 5 Days and you will lose approximately -3.8 cm from the hips, -2.6 cm from thighs.<br /><br /><strong>How to Wash:<br /></strong>Wash it in the washing machine at 30-degree temperature&nbsp;</p>",1,10,,Default,simple,,base,,1,Taxable Goods,"Catalog, Search",,,,,,,,,,,,Block after Info Column,,,,,,,,,,,Use config,,"has_options=1,quantity_and_stock_status=In Stock,required_options=105",0,1,0,0,1,1,0,0,1,1,,1,0,1,1,0,1,0,0,1,0,1,,,,,,,,,,
3760084536785,  Lytess Anti-Cellulite Micro - Massaging Shorts Black S/M,420,"<p>Innovative clothes from France with new technology to remove cellulite, change your skin appearance from orange skin,(rough and hard) to Apple skin, (smooth and soft), without effort, without restrictions.<br /><br /><strong>Product Feature:<br /></strong>Use is 8 hours daily for 20 Days you get: 85% Toned Buttocks &amp; 65% Smoother thighs, change your skin appearance without effort<br /> <br /><span class=""font6""><strong>How to Wash:</strong><br /></span><span class=""font5"">Wash it in the washing machine at 30-degree temperature and don&rsquo;t use chlorine.<br /> </span></p>",1,10,,Default,simple,,base,,1,Taxable Goods,"Catalog, Search",,,,,,,,,,,,Block after Info Column,,,,,,,,,,,Use config,,"has_options=1,quantity_and_stock_status=In Stock,required_options=106",0,1,0,0,1,1,0,0,1,1,,1,0,1,1,0,1,0,0,1,0,1,,,,,,,,,,
3760084536792,  Lytess Anti-Cellulite Micro - Massaging Shorts Black L/XL,420,"<p><span class=""font5"">Innovative clothes from France with new technology to remove cellulite, change your skin appearance from orange skin,(rough and hard) to Apple skin, (smooth and soft), without effort, without restrictions.<br /><br /><strong>Product Feature:<br /></strong>Use is 8 hours daily for 20 Days you get: 85% Toned Buttocks &amp; 65% Smoother thighs, change your skin appearance without effort<br /><br /><span class=""font6""><strong>How to Wash:</strong><br /></span><span class=""font5"">Wash it in the washing machine at 30-degree temperature and don&rsquo;t use chlorine.</span></span></p>",1,10,,Default,simple,,base,,1,Taxable Goods,"Catalog, Search",,,,,,,,,,,,Block after Info Column,,,,,,,,,,,Use config,,"has_options=1,quantity_and_stock_status=In Stock,required_options=107",0,1,0,0,1,1,0,0,1,1,,1,0,1,1,0,1,0,0,1,0,1,,,,,,,,,,
3760084531087, Lytess Anti-Cellulite Micro -Massaging Capris Black S/M,420,"<p><span class=""font5""><span class=""font5"">Innovative clothes from France with new technology to remove cellulite, change your skin appearance from orange skin,(rough and hard) to Apple skin, (smooth and soft), without effort, without restrictions.<br /><br /><strong>Product Feature:<br /></strong>Use is 8 hours daily for 20 Days you get: 85% Toned Buttocks &amp; 65% Smoother thighs, change your skin appearance without effort<br /><br /><span class=""font6""><strong>How to Wash:</strong><br /></span><span class=""font5"">Wash it in the washing machine at 30-degree temperature and don&rsquo;t use chlorine.</span></span></span></p>",1,10,,Default,simple,,base,,1,Taxable Goods,"Catalog, Search",,,,,,,,,,,,Block after Info Column,,,,,,,,,,,Use config,,"has_options=1,quantity_and_stock_status=In Stock,required_options=108",0,1,0,0,1,1,0,0,1,1,,1,0,1,1,0,1,0,0,1,0,1,,,,,,,,,,
3760084531094,Lytess Anti-Cellulite Micro -Massaging Capris Black L/XL,498.75,"<p><span class=""font5""><span class=""font5""><span class=""font5"">Innovative clothes from France with new technology to remove cellulite, change your skin appearance from orange skin,(rough and hard) to Apple skin, (smooth and soft), without effort, without restrictions.<br /><br /><strong>Product Feature:<br /></strong>Use is 8 hours daily for 20 Days you get: 85% Toned Buttocks &amp; 65% Smoother thighs, change your skin appearance without effort<br /><br /><span class=""font6""><strong>How to Wash:</strong><br /></span><span class=""font5"">Wash it in the washing machine at 30-degree temperature and don&rsquo;t use chlorine.</span></span></span></span></p>",1,10,,Default,simple,,base,,1,Taxable Goods,"Catalog, Search",,,,,,,,,,,,Block after Info Column,,,,,,,,,,,Use config,,"has_options=1,quantity_and_stock_status=In Stock,required_options=109",0,1,0,0,1,1,0,0,1,1,,1,0,1,1,0,1,0,0,1,0,1,,,,,,,,,,
3760084531124,  Lytess Anti-Cellulite Micro-Massaging Sleeves Black ,194.25,"<p><span class=""font5""><span class=""font5""><span class=""font5""><span class=""font5"">Innovative clothes from France with new technology to remove cellulite, change your skin appearance from orange skin,(rough and hard) to Apple skin, (smooth and soft), without effort, without restrictions.<br /><br /><strong>Product Feature:<br /></strong>Use is 8 hours daily for 20 Days you get: 85% Toned Buttocks &amp; 65% Smoother thighs, change your skin appearance without effort<br /><br /><span class=""font6""><strong>How to Wash:</strong><br /></span><span class=""font5"">Wash it in the washing machine at 30-degree temperature and don&rsquo;t use chlorine.</span></span></span></span></span></p>",1,10,,Default,simple,,base,,1,Taxable Goods,"Catalog, Search",,,,,,,,,,,,Block after Info Column,,,,,,,,,,,Use config,,"has_options=1,quantity_and_stock_status=In Stock,required_options=110",0,1,0,0,1,1,0,0,1,1,,1,0,1,1,0,1,0,0,1,0,1,,,,,,,,,,
3760084536693, Lytess Anti-Cellulite Micro-Massaging Sleeves White,194.25,"<p><span class=""font5""><span class=""font5""><span class=""font5""><span class=""font5""><span class=""font5"">Innovative clothes from France with new technology to remove cellulite, change your skin appearance from orange skin,(rough and hard) to Apple skin, (smooth and soft), without effort, without restrictions.<br /><br /><strong>Product Feature:<br /></strong>Use is 8 hours daily for 20 Days you get: 85% Toned Buttocks &amp; 65% Smoother thighs, change your skin appearance without effort<br /><br /><span class=""font6""><strong>How to Wash:</strong><br /></span><span class=""font5"">Wash it in the washing machine at 30-degree temperature and don&rsquo;t use chlorine.</span></span></span></span></span></span></p>",1,10,,Default,simple,,base,,1,Taxable Goods,"Catalog, Search",,,,,,,,,,,,Block after Info Column,,,,,,,,,,,Use config,,"has_options=1,quantity_and_stock_status=In Stock,required_options=111",0,1,0,0,1,1,0,0,1,1,,1,0,1,1,0,1,0,0,1,0,1,,,,,,,,,,
3760084531537,Lytess Corrective Slimming Belt Flesh S/M,315,"<p>Innovative Slimming clothes from France with new technology, with double action, scalp, and slim your body without effort, the first action you will get 2 sizes less immediately as correcting, and second action from the microcapsules technology after 18 days. Just wear feel light, elegant and get the perfect body shape <br /><br /><strong>PRODUCT FEATURE:<br /></strong><span class=""font5""><br /> Get two sizes less immediately and use it 8 hours daily for 18 days and get more results -3.7cm from the technology, just wear and get slim.<br /><br /><strong><span class=""font6"">HOW TO WASH:<br /></span></strong><span class=""font5""><br />Wash it in the washing machine at 30-degree temperature and don&rsquo;t use chlorine.<br /></span><br /></span></p>",1,10,,Default,simple,,base,,1,Taxable Goods,"Catalog, Search",,,,,,,,,,,,Block after Info Column,,,,,,,,,,,Use config,,"has_options=1,quantity_and_stock_status=In Stock,required_options=112",0,1,0,0,1,1,0,0,1,1,,1,0,1,1,0,1,0,0,1,0,1,,,,,,,,,,
3760084531544,Lytess Corrective Slimming Belt Flesh L/XL,315,"<p><span class=""font5""><span class=""font5"">Innovative Slimming clothes from France with new technology, with double action, scalp, and slim your body without effort, the first action you will get 2 sizes less immediately as correcting, and second action from the microcapsules technology after 18 days. Just wear feel light, elegant and get the perfect body shape&nbsp;<br /><br /><strong>PRODUCT FEATURE:<br /></strong><span class=""font5""><br />Get two sizes less immediately and use it 8 hours daily for 18 days and get more results -3.7cm from the technology, just wear and get slim.<br /><br /><strong><span class=""font6"">HOW TO WASH:<br /></span></strong><span class=""font5""><br />Wash it in the washing machine at 30-degree temperature and don&rsquo;t use chlorine.<br /></span></span></span></span></p>",1,10,,Default,simple,,base,,1,Taxable Goods,"Catalog, Search",,,,,,,,,,,,Block after Info Column,,,,,,,,,,,Use config,,"has_options=1,quantity_and_stock_status=In Stock,required_options=113",0,1,0,0,1,1,0,0,1,1,,1,0,1,1,0,1,0,0,1,0,1,,,,,,,,,,
3760084534491,Lytess Corrective Slimming Belt Flesh XXL,315,"<p><span class=""font5""><span class=""font5""><span class=""font5"">Innovative Slimming clothes from France with new technology, with double action, scalp, and slim your body without effort, the first action you will get 2 sizes less immediately as correcting, and second action from the microcapsules technology after 18 days. Just wear feel light, elegant and get the perfect body shape&nbsp;<br /><br /><strong>PRODUCT FEATURE:<br /></strong><span class=""font5""><br />Get two sizes less immediately and use it 8 hours daily for 18 days and get more results -3.7cm from the technology, just wear and get slim.<br /><br /><strong><span class=""font6"">HOW TO WASH:<br /></span></strong><span class=""font5""><br />Wash it in the washing machine at 30-degree temperature and don&rsquo;t use chlorine.<br /></span></span></span></span></span></p>",1,10,,Default,simple,,base,,1,Taxable Goods,"Catalog, Search",,,,,,,,,,,,Block after Info Column,,,,,,,,,,,Use config,,"has_options=1,quantity_and_stock_status=In Stock,required_options=114",0,1,0,0,1,1,0,0,1,1,,1,0,1,1,0,1,0,0,1,0,1,,,,,,,,,,
3760084535573,Lytess Corrective Slimming Belt Flesh XXXL,315,"<p><span class=""font5""><span class=""font5""><span class=""font5""><span class=""font5""><span class=""font5"">Innovative Slimming clothes from France with new technology, with double action, scalp, and slim your body without effort, the first action you will get 2 sizes less immediately as correcting, and second action from the microcapsules technology after 18 days. Just wear feel light, elegant and get the perfect body shape&nbsp;<br /><br /><strong>PRODUCT FEATURE:<br /></strong><span class=""font5""><br />Get two sizes less immediately and use it 8 hours daily for 18 days and get more results -3.7cm from the technology, just wear and get slim.<br /><br /><strong><span class=""font6"">HOW TO WASH:<br /></span></strong><span class=""font5""><br />Wash it in the washing machine at 30-degree temperature and don&rsquo;t use chlorine.<br /></span></span></span></span></span></span></span></p>",1,10,,Default,simple,,base,,1,Taxable Goods,"Catalog, Search",,,,,,,,,,,,Block after Info Column,,,,,,,,,,,Use config,,"has_options=1,quantity_and_stock_status=In Stock,required_options=115",0,1,0,0,1,1,0,0,1,1,,1,0,1,1,0,1,0,0,1,0,1,,,,,,,,,,
3760084535580,Lytess Corrective Slimming Belt Black S/M,315,"<p><span class=""font5""><span class=""font5""><span class=""font5""><span class=""font5""><span class=""font5""><span class=""font5"">Innovative Slimming clothes from France with new technology, with double action, scalp, and slim your body without effort, the first action you will get 2 sizes less immediately as correcting, and second action from the microcapsules technology after 18 days. Just wear feel light, elegant and get the perfect body shape&nbsp;<br /><br /><strong>PRODUCT FEATURE:<br /></strong><span class=""font5""><br />Get two sizes less immediately and use it 8 hours daily for 18 days and get more results -3.7cm from the technology, just wear and get slim.<br /><br /><strong><span class=""font6"">HOW TO WASH:<br /></span></strong><span class=""font5""><br />Wash it in the washing machine at 30-degree temperature and don&rsquo;t use chlorine.<br /></span></span></span></span></span></span></span></span></p>",1,10,,Default,simple,,base,,1,Taxable Goods,"Catalog, Search",,,,,,,,,,,,Block after Info Column,,,,,,,,,,,Use config,,"has_options=1,quantity_and_stock_status=In Stock,required_options=116",0,1,0,0,1,1,0,0,1,1,,1,0,1,1,0,1,0,0,1,0,1,,,,,,,,,,
3760084535597,Lytess Corrective Slimming Belt Black L/XL,315,"<p><span class=""font5""><span class=""font5""><span class=""font5""><span class=""font5""><span class=""font5""><span class=""font5""><span class=""font5"">Innovative Slimming clothes from France with new technology, with double action, scalp, and slim your body without effort, the first action you will get 2 sizes less immediately as correcting, and second action from the microcapsules technology after 18 days. Just wear feel light, elegant and get the perfect body shape&nbsp;<br /><br /><strong>PRODUCT FEATURE:<br /></strong><span class=""font5""><br />Get two sizes less immediately and use it 8 hours daily for 18 days and get more results -3.7cm from the technology, just wear and get slim.<br /><br /><strong><span class=""font6"">HOW TO WASH:<br /></span></strong><span class=""font5""><br />Wash it in the washing machine at 30-degree temperature and don&rsquo;t use chlorine.<br /></span></span></span></span></span></span></span></span></span></p>",1,10,,Default,simple,,base,,1,Taxable Goods,"Catalog, Search",,,,,,,,,,,,Block after Info Column,,,,,,,,,,,Use config,,"has_options=1,quantity_and_stock_status=In Stock,required_options=117",0,1,0,0,1,1,0,0,1,1,,1,0,1,1,0,1,0,0,1,0,1,,,,,,,,,,
3760084535603,Lytess Corrective Slimming Belt Black XXL,315,"<p><span class=""font5""><span class=""font5""><span class=""font5""><span class=""font5""><span class=""font5""><span class=""font5""><span class=""font5""><span class=""font5"">Innovative Slimming clothes from France with new technology, with double action, scalp, and slim your body without effort, the first action you will get 2 sizes less immediately as correcting, and second action from the microcapsules technology after 18 days. Just wear feel light, elegant and get the perfect body shape&nbsp;<br /><br /><strong>PRODUCT FEATURE:<br /></strong><span class=""font5""><br />Get two sizes less immediately and use it 8 hours daily for 18 days and get more results -3.7cm from the technology, just wear and get slim.<br /><br /><strong><span class=""font6"">HOW TO WASH:<br /></span></strong><span class=""font5""><br />Wash it in the washing machine at 30-degree temperature and don&rsquo;t use chlorine.<br /></span></span></span></span></span></span></span></span></span></span></p>",1,10,,Default,simple,,base,,1,Taxable Goods,"Catalog, Search",,,,,,,,,,,,Block after Info Column,,,,,,,,,,,Use config,,"has_options=1,quantity_and_stock_status=In Stock,required_options=118",0,1,0,0,1,1,0,0,1,1,,1,0,1,1,0,1,0,0,1,0,1,,,,,,,,,,
3760084535610,Lytess Corrective Slimming Belt Black XXXL,315,"<p><span class=""font5""><span class=""font5""><span class=""font5""><span class=""font5""><span class=""font5""><span class=""font5""><span class=""font5""><span class=""font5""><span class=""font5"">Innovative Slimming clothes from France with new technology, with double action, scalp, and slim your body without effort, the first action you will get 2 sizes less immediately as correcting, and second action from the microcapsules technology after 18 days. Just wear feel light, elegant and get the perfect body shape&nbsp;<br /><br /><strong>PRODUCT FEATURE:<br /></strong><span class=""font5""><br />Get two sizes less immediately and use it 8 hours daily for 18 days and get more results -3.7cm from the technology, just wear and get slim.<br /><br /><strong><span class=""font6"">HOW TO WASH:<br /></span></strong><span class=""font5""><br />Wash it in the washing machine at 30-degree temperature and don&rsquo;t use chlorine.<br /></span></span></span></span></span></span></span></span></span></span></span></p>",1,10,,Default,simple,,base,,1,Taxable Goods,"Catalog, Search",,,,,,,,,,,,Block after Info Column,,,,,,,,,,,Use config,,"has_options=1,quantity_and_stock_status=In Stock,required_options=119",0,1,0,0,1,1,0,0,1,1,,1,0,1,1,0,1,0,0,1,0,1,,,,,,,,,,
3760084536020,Lytess Corrective Slimming Belt Panties Black S/M,399,"<p><span class=""font5""><span class=""font5""><span class=""font5""><span class=""font5""><span class=""font5""><span class=""font5""><span class=""font5""><span class=""font5""><span class=""font5""><span class=""font5"">Innovative Slimming clothes from France with new technology, with double action, scalp, and slim your body without effort, the first action you will get 2 sizes less immediately as correcting, and second action from the microcapsules technology after 18 days. Just wear feel light, elegant and get the perfect body shape&nbsp;<br /><br /><strong>PRODUCT FEATURE:<br /></strong><span class=""font5""><br />Get two sizes less immediately and use it 8 hours daily for 18 days and get more results -3.7cm from the technology, just wear and get slim.<br /><br /><strong><span class=""font6"">HOW TO WASH:<br /></span></strong><span class=""font5""><br />Wash it in the washing machine at 30-degree temperature and don&rsquo;t use chlorine.<br /></span></span></span></span></span></span></span></span></span></span></span></span></p>",1,10,,Default,simple,,base,,1,Taxable Goods,"Catalog, Search",,,,,,,,,,,,Block after Info Column,,,,,,,,,,,Use config,,"has_options=1,quantity_and_stock_status=In Stock,required_options=120",0,1,0,0,1,1,0,0,1,1,,1,0,1,1,0,1,0,0,1,0,1,,,,,,,,,,
3760084536037,Lytess Corrective Slimming Belt Panties Black  L/XL,399,"<p><span class=""font5""><span class=""font5""><span class=""font5""><span class=""font5""><span class=""font5""><span class=""font5""><span class=""font5""><span class=""font5""><span class=""font5""><span class=""font5""><span class=""font5"">Innovative Slimming clothes from France with new technology, with double action, scalp, and slim your body without effort, the first action you will get 2 sizes less immediately as correcting, and second action from the microcapsules technology after 18 days. Just wear feel light, elegant and get the perfect body shape&nbsp;<br /><br /><strong>PRODUCT FEATURE:<br /></strong><span class=""font5""><br />Get two sizes less immediately and use it 8 hours daily for 18 days and get more results -3.7cm from the technology, just wear and get slim.<br /><br /><strong><span class=""font6"">HOW TO WASH:<br /></span></strong><span class=""font5""><br />Wash it in the washing machine at 30-degree temperature and don&rsquo;t use chlorine.<br /></span></span></span></span></span></span></span></span></span></span></span></span></span></p>",1,10,,Default,simple,,base,,1,Taxable Goods,"Catalog, Search",,,,,,,,,,,,Block after Info Column,,,,,,,,,,,Use config,,"has_options=1,quantity_and_stock_status=In Stock,required_options=121",0,1,0,0,1,1,0,0,1,1,,1,0,1,1,0,1,0,0,1,0,1,,,,,,,,,,
3760084536044,Lytess Corrective Slimming Belt Panties Black XXL,399,"<p><span class=""font5""><span class=""font5""><span class=""font5""><span class=""font5""><span class=""font5""><span class=""font5""><span class=""font5""><span class=""font5""><span class=""font5""><span class=""font5""><span class=""font5""><span class=""font5"">Innovative Slimming clothes from France with new technology, with double action, scalp, and slim your body without effort, the first action you will get 2 sizes less immediately as correcting, and second action from the microcapsules technology after 18 days. Just wear feel light, elegant and get the perfect body shape&nbsp;<br /><br /><strong>PRODUCT FEATURE:<br /></strong><span class=""font5""><br />Get two sizes less immediately and use it 8 hours daily for 18 days and get more results -3.7cm from the technology, just wear and get slim.<br /><br /><strong><span class=""font6"">HOW TO WASH:<br /></span></strong><span class=""font5""><br />Wash it in the washing machine at 30-degree temperature and don&rsquo;t use chlorine.<br /></span></span></span></span></span></span></span></span></span></span></span></span></span></span></p>",1,10,,Default,simple,,base,,1,Taxable Goods,"Catalog, Search",,,,,,,,,,,,Block after Info Column,,,,,,,,,,,Use config,,"has_options=1,quantity_and_stock_status=In Stock,required_options=122",0,1,0,0,1,1,0,0,1,1,,1,0,1,1,0,1,0,0,1,0,1,,,,,,,,,,
3760084536051,Lytess Corrective Slimming Belt Panties Flesh S/M,399,"<p><span class=""font5""><span class=""font5""><span class=""font5""><span class=""font5""><span class=""font5""><span class=""font5""><span class=""font5""><span class=""font5""><span class=""font5""><span class=""font5""><span class=""font5""><span class=""font5""><span class=""font5"">Innovative Slimming clothes from France with new technology, with double action, scalp, and slim your body without effort, the first action you will get 2 sizes less immediately as correcting, and second action from the microcapsules technology after 18 days. Just wear feel light, elegant and get the perfect body shape&nbsp;<br /><br /><strong>PRODUCT FEATURE:<br /></strong><span class=""font5""><br />Get two sizes less immediately and use it 8 hours daily for 18 days and get more results -3.7cm from the technology, just wear and get slim.<br /><br /><strong><span class=""font6"">HOW TO WASH:<br /></span></strong><span class=""font5""><br />Wash it in the washing machine at 30-degree temperature and don&rsquo;t use chlorine.<br /></span></span></span></span></span></span></span></span></span></span></span></span></span></span></span></p>",1,10,,Default,simple,,base,,1,Taxable Goods,"Catalog, Search",,,,,,,,,,,,Block after Info Column,,,,,,,,,,,Use config,,"has_options=1,quantity_and_stock_status=In Stock,required_options=123",0,1,0,0,1,1,0,0,1,1,,1,0,1,1,0,1,0,0,1,0,1,,,,,,,,,,
3760084536068,Lytess Corrective Slimming Belt Panties Flesh L/XL,399,"<p><span class=""font5""><span class=""font5""><span class=""font5""><span class=""font5""><span class=""font5""><span class=""font5""><span class=""font5""><span class=""font5""><span class=""font5""><span class=""font5""><span class=""font5""><span class=""font5""><span class=""font5""><span class=""font5"">Innovative Slimming clothes from France with new technology, with double action, scalp, and slim your body without effort, the first action you will get 2 sizes less immediately as correcting, and second action from the microcapsules technology after 18 days. Just wear feel light, elegant and get the perfect body shape&nbsp;<br /><br /><strong>PRODUCT FEATURE:<br /></strong><span class=""font5""><br />Get two sizes less immediately and use it 8 hours daily for 18 days and get more results -3.7cm from the technology, just wear and get slim.<br /><br /><strong><span class=""font6"">HOW TO WASH:<br /></span></strong><span class=""font5""><br />Wash it in the washing machine at 30-degree temperature and don&rsquo;t use chlorine.<br /></span></span></span></span></span></span></span></span></span></span></span></span></span></span></span></span></p>",1,10,,Default,simple,,base,,1,Taxable Goods,"Catalog, Search",,,,,,,,,,,,Block after Info Column,,,,,,,,,,,Use config,,"has_options=1,quantity_and_stock_status=In Stock,required_options=124",0,1,0,0,1,1,0,0,1,1,,1,0,1,1,0,1,0,0,1,0,1,,,,,,,,,,
3760084536075,Lytess Corrective Slimming Belt Panties Flesh XXL,399,"<p><span class=""font5""><span class=""font5""><span class=""font5""><span class=""font5""><span class=""font5""><span class=""font5""><span class=""font5""><span class=""font5""><span class=""font5""><span class=""font5""><span class=""font5""><span class=""font5""><span class=""font5""><span class=""font5""><span class=""font5"">Innovative Slimming clothes from France with new technology, with double action, scalp, and slim your body without effort, the first action you will get 2 sizes less immediately as correcting, and second action from the microcapsules technology after 18 days. Just wear feel light, elegant and get the perfect body shape&nbsp;<br /><br /><strong>PRODUCT FEATURE:<br /></strong><span class=""font5""><br />Get two sizes less immediately and use it 8 hours daily for 18 days and get more results -3.7cm from the technology, just wear and get slim.<br /><br /><strong><span class=""font6"">HOW TO WASH:<br /></span></strong><span class=""font5""><br />Wash it in the washing machine at 30-degree temperature and don&rsquo;t use chlorine.<br /></span></span></span></span></span></span></span></span></span></span></span></span></span></span></span></span></span></p>",1,10,,Default,simple,,base,,1,Taxable Goods,"Catalog, Search",,,,,,,,,,,,Block after Info Column,,,,,,,,,,,Use config,,"has_options=1,quantity_and_stock_status=In Stock,required_options=125",0,1,0,0,1,1,0,0,1,1,,1,0,1,1,0,1,0,0,1,0,1,,,,,,,,,,
3760084535023, Lytess Corrective Slimming High Waist Push UP Panty Beige S/M,420,"<p><span class=""font5""><span class=""font5""><span class=""font5""><span class=""font5""><span class=""font5""><span class=""font5""><span class=""font5""><span class=""font5""><span class=""font5""><span class=""font5""><span class=""font5""><span class=""font5""><span class=""font5""><span class=""font5""><span class=""font5""><span class=""font5"">Innovative Slimming clothes from France with new technology, with double action, scalp, and slim your body without effort, the first action you will get 2 sizes less immediately as correcting, and second action from the microcapsules technology after 18 days. Just wear feel light, elegant and get the perfect body shape&nbsp;<br /><br /><strong>PRODUCT FEATURE:<br /></strong><span class=""font5""><br />Get two sizes less immediately and use it 8 hours daily for 18 days and get more results -3.7cm from the technology, just wear and get slim.<br /><br /><strong><span class=""font6"">HOW TO WASH:<br /></span></strong><span class=""font5""><br />Wash it in the washing machine at 30-degree temperature and don&rsquo;t use chlorine.<br /></span></span></span></span></span></span></span></span></span></span></span></span></span></span></span></span></span></span></p>",1,10,,Default,simple,,base,,1,Taxable Goods,"Catalog, Search",,,,,,,,,,,,Block after Info Column,,,,,,,,,,,Use config,,"has_options=1,quantity_and_stock_status=In Stock,required_options=126",0,1,0,0,1,1,0,0,1,1,,1,0,1,1,0,1,0,0,1,0,1,,,,,,,,,,
3760084535030, Lytess Corrective Slimming High Waist Push UP Panty Beige L/XL,420,"<p><span class=""font5""><span class=""font5""><span class=""font5""><span class=""font5""><span class=""font5""><span class=""font5""><span class=""font5""><span class=""font5""><span class=""font5""><span class=""font5""><span class=""font5""><span class=""font5""><span class=""font5""><span class=""font5""><span class=""font5""><span class=""font5""><span class=""font5"">Innovative Slimming clothes from France with new technology, with double action, scalp, and slim your body without effort, the first action you will get 2 sizes less immediately as correcting, and second action from the microcapsules technology after 18 days. Just wear feel light, elegant and get the perfect body shape&nbsp;<br /><br /><strong>PRODUCT FEATURE:<br /></strong><span class=""font5""><br />Get two sizes less immediately and use it 8 hours daily for 18 days and get more results -3.7cm from the technology, just wear and get slim.<br /><br /><strong><span class=""font6"">HOW TO WASH:<br /></span></strong><span class=""font5""><br />Wash it in the washing machine at 30-degree temperature and don&rsquo;t use chlorine.<br /></span></span></span></span></span></span></span></span></span></span></span></span></span></span></span></span></span></span></span></p>",1,10,,Default,simple,,base,,1,Taxable Goods,"Catalog, Search",,,,,,,,,,,,Block after Info Column,,,,,,,,,,,Use config,,"has_options=1,quantity_and_stock_status=In Stock,required_options=127",0,1,0,0,1,1,0,0,1,1,,1,0,1,1,0,1,0,0,1,0,1,,,,,,,,,,
3760084535047, Lytess Corrective Slimming High Waist Push UP Panty Beige XXL,420,"<p><span class=""font5""><span class=""font5""><span class=""font5""><span class=""font5""><span class=""font5""><span class=""font5""><span class=""font5""><span class=""font5""><span class=""font5""><span class=""font5""><span class=""font5""><span class=""font5""><span class=""font5""><span class=""font5""><span class=""font5""><span class=""font5""><span class=""font5""><span class=""font5"">Innovative Slimming clothes from France with new technology, with double action, scalp, and slim your body without effort, the first action you will get 2 sizes less immediately as correcting, and second action from the microcapsules technology after 18 days. Just wear feel light, elegant and get the perfect body shape&nbsp;<br /><br /><strong>PRODUCT FEATURE:<br /></strong><span class=""font5""><br />Get two sizes less immediately and use it 8 hours daily for 18 days and get more results -3.7cm from the technology, just wear and get slim.<br /><br /><strong><span class=""font6"">HOW TO WASH:<br /></span></strong><span class=""font5""><br />Wash it in the washing machine at 30-degree temperature and don&rsquo;t use chlorine.<br /></span></span></span></span></span></span></span></span></span></span></span></span></span></span></span></span></span></span></span></span></p>",1,10,,Default,simple,,base,,1,Taxable Goods,"Catalog, Search",,,,,,,,,,,,Block after Info Column,,,,,,,,,,,Use config,,"has_options=1,quantity_and_stock_status=In Stock,required_options=128",0,1,0,0,1,1,0,0,1,1,,1,0,1,1,0,1,0,0,1,0,1,,,,,,,,,,
3760084534996, Lytess Corrective Slimming High Waist Push UP Panty Black S/M,420,"<p><span class=""font5""><span class=""font5""><span class=""font5""><span class=""font5""><span class=""font5""><span class=""font5""><span class=""font5""><span class=""font5""><span class=""font5""><span class=""font5""><span class=""font5""><span class=""font5""><span class=""font5""><span class=""font5""><span class=""font5""><span class=""font5""><span class=""font5""><span class=""font5""><span class=""font5"">Innovative Slimming clothes from France with new technology, with double action, scalp, and slim your body without effort, the first action you will get 2 sizes less immediately as correcting, and second action from the microcapsules technology after 18 days. Just wear feel light, elegant and get the perfect body shape&nbsp;<br /><br /><strong>PRODUCT FEATURE:<br /></strong><span class=""font5""><br />Get two sizes less immediately and use it 8 hours daily for 18 days and get more results -3.7cm from the technology, just wear and get slim.<br /><br /><strong><span class=""font6"">HOW TO WASH:<br /></span></strong><span class=""font5""><br />Wash it in the washing machine at 30-degree temperature and don&rsquo;t use chlorine.<br /></span></span></span></span></span></span></span></span></span></span></span></span></span></span></span></span></span></span></span></span></span></p>",1,10,,Default,simple,,base,,1,Taxable Goods,"Catalog, Search",,,,,,,,,,,,Block after Info Column,,,,,,,,,,,Use config,,"has_options=1,quantity_and_stock_status=In Stock,required_options=129",0,1,0,0,1,1,0,0,1,1,,1,0,1,1,0,1,0,0,1,0,1,,,,,,,,,,
3760084535009, Lytess Corrective Slimming High Waist Push UP Panty Black L/XL,420,"<p><span class=""font5""><span class=""font5""><span class=""font5""><span class=""font5""><span class=""font5""><span class=""font5""><span class=""font5""><span class=""font5""><span class=""font5""><span class=""font5""><span class=""font5""><span class=""font5""><span class=""font5""><span class=""font5""><span class=""font5""><span class=""font5""><span class=""font5""><span class=""font5""><span class=""font5""><span class=""font5"">Innovative Slimming clothes from France with new technology, with double action, scalp, and slim your body without effort, the first action you will get 2 sizes less immediately as correcting, and second action from the microcapsules technology after 18 days. Just wear feel light, elegant and get the perfect body shape&nbsp;<br /><br /><strong>PRODUCT FEATURE:<br /></strong><span class=""font5""><br />Get two sizes less immediately and use it 8 hours daily for 18 days and get more results -3.7cm from the technology, just wear and get slim.<br /><br /><strong><span class=""font6"">HOW TO WASH:<br /></span></strong><span class=""font5""><br />Wash it in the washing machine at 30-degree temperature and don&rsquo;t use chlorine.<br /></span></span></span></span></span></span></span></span></span></span></span></span></span></span></span></span></span></span></span></span></span></span></p>",1,10,,Default,simple,,base,,1,Taxable Goods,"Catalog, Search",,,,,,,,,,,,Block after Info Column,,,,,,,,,,,Use config,,"has_options=1,quantity_and_stock_status=In Stock,required_options=130",0,1,0,0,1,1,0,0,1,1,,1,0,1,1,0,1,0,0,1,0,1,,,,,,,,,,
3760084535016, Lytess Corrective Slimming High Waist Push UP Panty Black XXL,420,"<p><span class=""font5""><span class=""font5""><span class=""font5""><span class=""font5""><span class=""font5""><span class=""font5""><span class=""font5""><span class=""font5""><span class=""font5""><span class=""font5""><span class=""font5""><span class=""font5""><span class=""font5""><span class=""font5""><span class=""font5""><span class=""font5""><span class=""font5""><span class=""font5""><span class=""font5""><span class=""font5""><span class=""font5"">Innovative Slimming clothes from France with new technology, with double action, scalp, and slim your body without effort, the first action you will get 2 sizes less immediately as correcting, and second action from the microcapsules technology after 18 days. Just wear feel light, elegant and get the perfect body shape&nbsp;<br /><br /><strong>PRODUCT FEATURE:<br /></strong><span class=""font5""><br />Get two sizes less immediately and use it 8 hours daily for 18 days and get more results -3.7cm from the technology, just wear and get slim.<br /><br /><strong><span class=""font6"">HOW TO WASH:<br /></span></strong><span class=""font5""><br />Wash it in the washing machine at 30-degree temperature and don&rsquo;t use chlorine.<br /></span></span></span></span></span></span></span></span></span></span></span></span></span></span></span></span></span></span></span></span></span></span></span></p>",1,10,,Default,simple,,base,,1,Taxable Goods,"Catalog, Search",,,,,,,,,,,,Block after Info Column,,,,,,,,,,,Use config,,"has_options=1,quantity_and_stock_status=In Stock,required_options=131",0,1,0,0,1,1,0,0,1,1,,1,0,1,1,0,1,0,0,1,0,1,,,,,,,,,,
3760084532640,Lytess Corrective Slimming Shorty  Black S/M,420,"<p><span class=""font5""><span class=""font5""><span class=""font5""><span class=""font5""><span class=""font5""><span class=""font5""><span class=""font5""><span class=""font5""><span class=""font5""><span class=""font5""><span class=""font5""><span class=""font5""><span class=""font5""><span class=""font5""><span class=""font5""><span class=""font5""><span class=""font5""><span class=""font5""><span class=""font5""><span class=""font5""><span class=""font5""><span class=""font5"">Innovative Slimming clothes from France with new technology, with double action, scalp, and slim your body without effort, the first action you will get 2 sizes less immediately as correcting, and second action from the microcapsules technology after 18 days. Just wear feel light, elegant and get the perfect body shape&nbsp;<br /><br /><strong>PRODUCT FEATURE:<br /></strong><span class=""font5""><br />Get two sizes less immediately and use it 8 hours daily for 18 days and get more results -3.7cm from the technology, just wear and get slim.<br /><br /><strong><span class=""font6"">HOW TO WASH:<br /></span></strong><span class=""font5""><br />Wash it in the washing machine at 30-degree temperature and don&rsquo;t use chlorine.<br /></span></span></span></span></span></span></span></span></span></span></span></span></span></span></span></span></span></span></span></span></span></span></span></span></p>",1,10,,Default,simple,,base,,1,Taxable Goods,"Catalog, Search",,,,,,,,,,,,Block after Info Column,,,,,,,,,,,Use config,,"has_options=1,quantity_and_stock_status=In Stock,required_options=132",0,1,0,0,1,1,0,0,1,1,,1,0,1,1,0,1,0,0,1,0,1,,,,,,,,,,
3760084532657,Lytess Corrective Slimming Shorty  Black L/XL,420,"<p><span class=""font5""><span class=""font5""><span class=""font5""><span class=""font5""><span class=""font5""><span class=""font5""><span class=""font5""><span class=""font5""><span class=""font5""><span class=""font5""><span class=""font5""><span class=""font5""><span class=""font5""><span class=""font5""><span class=""font5""><span class=""font5""><span class=""font5""><span class=""font5""><span class=""font5""><span class=""font5""><span class=""font5""><span class=""font5""><span class=""font5"">Innovative Slimming clothes from France with new technology, with double action, scalp, and slim your body without effort, the first action you will get 2 sizes less immediately as correcting, and second action from the microcapsules technology after 18 days. Just wear feel light, elegant and get the perfect body shape&nbsp;<br /><br /><strong>PRODUCT FEATURE:<br /></strong><span class=""font5""><br />Get two sizes less immediately and use it 8 hours daily for 18 days and get more results -3.7cm from the technology, just wear and get slim.<br /><br /><strong><span class=""font6"">HOW TO WASH:<br /></span></strong><span class=""font5""><br />Wash it in the washing machine at 30-degree temperature and don&rsquo;t use chlorine.<br /></span></span></span></span></span></span></span></span></span></span></span></span></span></span></span></span></span></span></span></span></span></span></span></span></span></p>",1,10,,Default,simple,,base,,1,Taxable Goods,"Catalog, Search",,,,,,,,,,,,Block after Info Column,,,,,,,,,,,Use config,,"has_options=1,quantity_and_stock_status=In Stock,required_options=133",0,1,0,0,1,1,0,0,1,1,,1,0,1,1,0,1,0,0,1,0,1,,,,,,,,,,
3760084532664,Lytess Corrective Slimming Shorty  Black XXL,420,"<p><span class=""font5""><span class=""font5""><span class=""font5""><span class=""font5""><span class=""font5""><span class=""font5""><span class=""font5""><span class=""font5""><span class=""font5""><span class=""font5""><span class=""font5""><span class=""font5""><span class=""font5""><span class=""font5""><span class=""font5""><span class=""font5""><span class=""font5""><span class=""font5""><span class=""font5""><span class=""font5""><span class=""font5""><span class=""font5""><span class=""font5""><span class=""font5"">Innovative Slimming clothes from France with new technology, with double action, scalp, and slim your body without effort, the first action you will get 2 sizes less immediately as correcting, and second action from the microcapsules technology after 18 days. Just wear feel light, elegant and get the perfect body shape&nbsp;<br /><br /><strong>PRODUCT FEATURE:<br /></strong><span class=""font5""><br />Get two sizes less immediately and use it 8 hours daily for 18 days and get more results -3.7cm from the technology, just wear and get slim.<br /><br /><strong><span class=""font6"">HOW TO WASH:<br /></span></strong><span class=""font5""><br />Wash it in the washing machine at 30-degree temperature and don&rsquo;t use chlorine.<br /></span></span></span></span></span></span></span></span></span></span></span></span></span></span></span></span></span></span></span></span></span></span></span></span></span></span></p>",1,10,,Default,simple,,base,,1,Taxable Goods,"Catalog, Search",,,,,,,,,,,,Block after Info Column,,,,,,,,,,,Use config,,"has_options=1,quantity_and_stock_status=In Stock,required_options=134",0,1,0,0,1,1,0,0,1,1,,1,0,1,1,0,1,0,0,1,0,1,,,,,,,,,,
3760084532893,Lytess Corrective Slimming Shorty Flesh S/M,420,"<p><span class=""font5""><span class=""font5""><span class=""font5""><span class=""font5""><span class=""font5""><span class=""font5""><span class=""font5""><span class=""font5""><span class=""font5""><span class=""font5""><span class=""font5""><span class=""font5""><span class=""font5""><span class=""font5""><span class=""font5""><span class=""font5""><span class=""font5""><span class=""font5""><span class=""font5""><span class=""font5""><span class=""font5""><span class=""font5""><span class=""font5""><span class=""font5""><span class=""font5"">Innovative Slimming clothes from France with new technology, with double action, scalp, and slim your body without effort, the first action you will get 2 sizes less immediately as correcting, and second action from the microcapsules technology after 18 days. Just wear feel light, elegant and get the perfect body shape&nbsp;<br /><br /><strong>PRODUCT FEATURE:<br /></strong><span class=""font5""><br />Get two sizes less immediately and use it 8 hours daily for 18 days and get more results -3.7cm from the technology, just wear and get slim.<br /><br /><strong><span class=""font6"">HOW TO WASH:<br /></span></strong><span class=""font5""><br />Wash it in the washing machine at 30-degree temperature and don&rsquo;t use chlorine.<br /></span></span></span></span></span></span></span></span></span></span></span></span></span></span></span></span></span></span></span></span></span></span></span></span></span></span></span></p>",1,10,,Default,simple,,base,,1,Taxable Goods,"Catalog, Search",,,,,,,,,,,,Block after Info Column,,,,,,,,,,,Use config,,"has_options=1,quantity_and_stock_status=In Stock,required_options=135",0,1,0,0,1,1,0,0,1,1,,1,0,1,1,0,1,0,0,1,0,1,,,,,,,,,,
3760084532855,Lytess Corrective Slimming Shorty Flesh L/XL,420,"<p><span class=""font5""><span class=""font5""><span class=""font5""><span class=""font5""><span class=""font5""><span class=""font5""><span class=""font5""><span class=""font5""><span class=""font5""><span class=""font5""><span class=""font5""><span class=""font5""><span class=""font5""><span class=""font5""><span class=""font5""><span class=""font5""><span class=""font5""><span class=""font5""><span class=""font5""><span class=""font5""><span class=""font5""><span class=""font5""><span class=""font5""><span class=""font5""><span class=""font5""><span class=""font5"">Innovative Slimming clothes from France with new technology, with double action, scalp, and slim your body without effort, the first action you will get 2 sizes less immediately as correcting, and second action from the microcapsules technology after 18 days. Just wear feel light, elegant and get the perfect body shape&nbsp;<br /><br /><strong>PRODUCT FEATURE:<br /></strong><span class=""font5""><br />Get two sizes less immediately and use it 8 hours daily for 18 days and get more results -3.7cm from the technology, just wear and get slim.<br /><br /><strong><span class=""font6"">HOW TO WASH:<br /></span></strong><span class=""font5""><br />Wash it in the washing machine at 30-degree temperature and don&rsquo;t use chlorine.<br /></span></span></span></span></span></span></span></span></span></span></span></span></span></span></span></span></span></span></span></span></span></span></span></span></span></span></span></span></p>",1,10,,Default,simple,,base,,1,Taxable Goods,"Catalog, Search",,,,,,,,,,,,Block after Info Column,,,,,,,,,,,Use config,,"has_options=1,quantity_and_stock_status=In Stock,required_options=136",0,1,0,0,1,1,0,0,1,1,,1,0,1,1,0,1,0,0,1,0,1,,,,,,,,,,
3760084532862,Lytess Corrective Slimming Shorty Flesh XXL,420,"<p><span class=""font5""><span class=""font5""><span class=""font5""><span class=""font5""><span class=""font5""><span class=""font5""><span class=""font5""><span class=""font5""><span class=""font5""><span class=""font5""><span class=""font5""><span class=""font5""><span class=""font5""><span class=""font5""><span class=""font5""><span class=""font5""><span class=""font5""><span class=""font5""><span class=""font5""><span class=""font5""><span class=""font5""><span class=""font5""><span class=""font5""><span class=""font5""><span class=""font5""><span class=""font5""><span class=""font5"">Innovative Slimming clothes from France with new technology, with double action, scalp, and slim your body without effort, the first action you will get 2 sizes less immediately as correcting, and second action from the microcapsules technology after 18 days. Just wear feel light, elegant and get the perfect body shape&nbsp;<br /><br /><strong>PRODUCT FEATURE:<br /></strong><span class=""font5""><br />Get two sizes less immediately and use it 8 hours daily for 18 days and get more results -3.7cm from the technology, just wear and get slim.<br /><br /><strong><span class=""font6"">HOW TO WASH:<br /></span></strong><span class=""font5""><br />Wash it in the washing machine at 30-degree temperature and don&rsquo;t use chlorine.<br /></span></span></span></span></span></span></span></span></span></span></span></span></span></span></span></span></span></span></span></span></span></span></span></span></span></span></span></span></span></p>",1,10,,Default,simple,,base,,1,Taxable Goods,"Catalog, Search",,,,,,,,,,,,Block after Info Column,,,,,,,,,,,Use config,,"has_options=1,quantity_and_stock_status=In Stock,required_options=137",0,1,0,0,1,1,0,0,1,1,,1,0,1,1,0,1,0,0,1,0,1,,,,,,,,,,
3760084535085,Lytess Corrective Slimming Body Flesh S/M,525,"<p><span class=""font5""><span class=""font5""><span class=""font5""><span class=""font5""><span class=""font5""><span class=""font5""><span class=""font5""><span class=""font5""><span class=""font5""><span class=""font5""><span class=""font5""><span class=""font5""><span class=""font5""><span class=""font5""><span class=""font5""><span class=""font5""><span class=""font5""><span class=""font5""><span class=""font5""><span class=""font5""><span class=""font5""><span class=""font5""><span class=""font5""><span class=""font5""><span class=""font5""><span class=""font5""><span class=""font5""><span class=""font5"">Innovative Slimming clothes from France with new technology, with double action, scalp, and slim your body without effort, the first action you will get 2 sizes less immediately as correcting, and second action from the microcapsules technology after 18 days. Just wear feel light, elegant and get the perfect body shape&nbsp;<br /><br /><strong>PRODUCT FEATURE:<br /></strong><span class=""font5""><br />Get two sizes less immediately and use it 8 hours daily for 18 days and get more results -3.7cm from the technology, just wear and get slim.<br /><br /><strong><span class=""font6"">HOW TO WASH:<br /></span></strong><span class=""font5""><br />Wash it in the washing machine at 30-degree temperature and don&rsquo;t use chlorine.<br /></span></span></span></span></span></span></span></span></span></span></span></span></span></span></span></span></span></span></span></span></span></span></span></span></span></span></span></span></span></span></p>",1,10,,Default,simple,,base,,1,Taxable Goods,"Catalog, Search",,,,,,,,,,,,Block after Info Column,,,,,,,,,,,Use config,,"has_options=1,quantity_and_stock_status=In Stock,required_options=138",0,1,0,0,1,1,0,0,1,1,,1,0,1,1,0,1,0,0,1,0,1,,,,,,,,,,
3760084535092,Lytess Corrective Slimming BodyFlesh L/XL,525,"<p><span class=""font5""><span class=""font5""><span class=""font5""><span class=""font5""><span class=""font5""><span class=""font5""><span class=""font5""><span class=""font5""><span class=""font5""><span class=""font5""><span class=""font5""><span class=""font5""><span class=""font5""><span class=""font5""><span class=""font5""><span class=""font5""><span class=""font5""><span class=""font5""><span class=""font5""><span class=""font5""><span class=""font5""><span class=""font5""><span class=""font5""><span class=""font5""><span class=""font5""><span class=""font5""><span class=""font5""><span class=""font5""><span class=""font5"">Innovative Slimming clothes from France with new technology, with double action, scalp, and slim your body without effort, the first action you will get 2 sizes less immediately as correcting, and second action from the microcapsules technology after 18 days. Just wear feel light, elegant and get the perfect body shape&nbsp;<br /><br /><strong>PRODUCT FEATURE:<br /></strong><span class=""font5""><br />Get two sizes less immediately and use it 8 hours daily for 18 days and get more results -3.7cm from the technology, just wear and get slim.<br /><br /><strong><span class=""font6"">HOW TO WASH:<br /></span></strong><span class=""font5""><br />Wash it in the washing machine at 30-degree temperature and don&rsquo;t use chlorine.<br /></span></span></span></span></span></span></span></span></span></span></span></span></span></span></span></span></span></span></span></span></span></span></span></span></span></span></span></span></span></span></span></p>",1,10,,Default,simple,,base,,1,Taxable Goods,"Catalog, Search",,,,,,,,,,,,Block after Info Column,,,,,,,,,,,Use config,,"has_options=1,quantity_and_stock_status=In Stock,required_options=139",0,1,0,0,1,1,0,0,1,1,,1,0,1,1,0,1,0,0,1,0,1,,,,,,,,,,
3760084535108,Lytess Corrective Slimming Body Flesh XXL,525,"<p><span class=""font5""><span class=""font5""><span class=""font5""><span class=""font5""><span class=""font5""><span class=""font5""><span class=""font5""><span class=""font5""><span class=""font5""><span class=""font5""><span class=""font5""><span class=""font5""><span class=""font5""><span class=""font5""><span class=""font5""><span class=""font5""><span class=""font5""><span class=""font5""><span class=""font5""><span class=""font5""><span class=""font5""><span class=""font5""><span class=""font5""><span class=""font5""><span class=""font5""><span class=""font5""><span class=""font5""><span class=""font5""><span class=""font5""><span class=""font5"">Innovative Slimming clothes from France with new technology, with double action, scalp, and slim your body without effort, the first action you will get 2 sizes less immediately as correcting, and second action from the microcapsules technology after 18 days. Just wear feel light, elegant and get the perfect body shape&nbsp;<br /><br /><strong>PRODUCT FEATURE:<br /></strong><span class=""font5""><br />Get two sizes less immediately and use it 8 hours daily for 18 days and get more results -3.7cm from the technology, just wear and get slim.<br /><br /><strong><span class=""font6"">HOW TO WASH:<br /></span></strong><span class=""font5""><br />Wash it in the washing machine at 30-degree temperature and don&rsquo;t use chlorine.<br /></span></span></span></span></span></span></span></span></span></span></span></span></span></span></span></span></span></span></span></span></span></span></span></span></span></span></span></span></span></span></span></span></p>",1,10,,Default,simple,,base,,1,Taxable Goods,"Catalog, Search",,,,,,,,,,,,Block after Info Column,,,,,,,,,,,Use config,,"has_options=1,quantity_and_stock_status=In Stock,required_options=140",0,1,0,0,1,1,0,0,1,1,,1,0,1,1,0,1,0,0,1,0,1,,,,,,,,,,
3760084535054,Lytess Corrective Slimming Body Black S/M,525,"<p><span class=""font5""><span class=""font5""><span class=""font5""><span class=""font5""><span class=""font5""><span class=""font5""><span class=""font5""><span class=""font5""><span class=""font5""><span class=""font5""><span class=""font5""><span class=""font5""><span class=""font5""><span class=""font5""><span class=""font5""><span class=""font5""><span class=""font5""><span class=""font5""><span class=""font5""><span class=""font5""><span class=""font5""><span class=""font5""><span class=""font5""><span class=""font5""><span class=""font5""><span class=""font5""><span class=""font5""><span class=""font5""><span class=""font5""><span class=""font5""><span class=""font5"">Innovative Slimming clothes from France with new technology, with double action, scalp, and slim your body without effort, the first action you will get 2 sizes less immediately as correcting, and second action from the microcapsules technology after 18 days. Just wear feel light, elegant and get the perfect body shape&nbsp;<br /><br /><strong>PRODUCT FEATURE:<br /></strong><span class=""font5""><br />Get two sizes less immediately and use it 8 hours daily for 18 days and get more results -3.7cm from the technology, just wear and get slim.<br /><br /><strong><span class=""font6"">HOW TO WASH:<br /></span></strong><span class=""font5""><br />Wash it in the washing machine at 30-degree temperature and don&rsquo;t use chlorine.<br /></span></span></span></span></span></span></span></span></span></span></span></span></span></span></span></span></span></span></span></span></span></span></span></span></span></span></span></span></span></span></span></span></span></p>",1,10,,Default,simple,,base,,1,Taxable Goods,"Catalog, Search",,,,,,,,,,,,Block after Info Column,,,,,,,,,,,Use config,,"has_options=1,quantity_and_stock_status=In Stock,required_options=141",0,1,0,0,1,1,0,0,1,1,,1,0,1,1,0,1,0,0,1,0,1,,,,,,,,,,
3760084535061,Lytess Corrective Slimming Body Black L/XL,525,"<p><span class=""font5""><span class=""font5""><span class=""font5""><span class=""font5""><span class=""font5""><span class=""font5""><span class=""font5""><span class=""font5""><span class=""font5""><span class=""font5""><span class=""font5""><span class=""font5""><span class=""font5""><span class=""font5""><span class=""font5""><span class=""font5""><span class=""font5""><span class=""font5""><span class=""font5""><span class=""font5""><span class=""font5""><span class=""font5""><span class=""font5""><span class=""font5""><span class=""font5""><span class=""font5""><span class=""font5""><span class=""font5""><span class=""font5""><span class=""font5""><span class=""font5""><span class=""font5"">Innovative Slimming clothes from France with new technology, with double action, scalp, and slim your body without effort, the first action you will get 2 sizes less immediately as correcting, and second action from the microcapsules technology after 18 days. Just wear feel light, elegant and get the perfect body shape&nbsp;<br /><br /><strong>PRODUCT FEATURE:<br /></strong><span class=""font5""><br />Get two sizes less immediately and use it 8 hours daily for 18 days and get more results -3.7cm from the technology, just wear and get slim.<br /><br /><strong><span class=""font6"">HOW TO WASH:<br /></span></strong><span class=""font5""><br />Wash it in the washing machine at 30-degree temperature and don&rsquo;t use chlorine.<br /></span></span></span></span></span></span></span></span></span></span></span></span></span></span></span></span></span></span></span></span></span></span></span></span></span></span></span></span></span></span></span></span></span></span></p>",1,10,,Default,simple,,base,,1,Taxable Goods,"Catalog, Search",,,,,,,,,,,,Block after Info Column,,,,,,,,,,,Use config,,"has_options=1,quantity_and_stock_status=In Stock,required_options=141",0,1,0,0,1,1,0,0,1,1,,1,0,1,1,0,1,0,0,1,0,1,,,,,,,,,,
3760084535078,Lytess Corrective Slimming Body Black XXL,525,"<p><span class=""font5""><span class=""font5""><span class=""font5""><span class=""font5""><span class=""font5""><span class=""font5""><span class=""font5""><span class=""font5""><span class=""font5""><span class=""font5""><span class=""font5""><span class=""font5""><span class=""font5""><span class=""font5""><span class=""font5""><span class=""font5""><span class=""font5""><span class=""font5""><span class=""font5""><span class=""font5""><span class=""font5""><span class=""font5""><span class=""font5""><span class=""font5""><span class=""font5""><span class=""font5""><span class=""font5""><span class=""font5""><span class=""font5""><span class=""font5""><span class=""font5""><span class=""font5""><span class=""font5"">Innovative Slimming clothes from France with new technology, with double action, scalp, and slim your body without effort, the first action you will get 2 sizes less immediately as correcting, and second action from the microcapsules technology after 18 days. Just wear feel light, elegant and get the perfect body shape&nbsp;<br /><br /><strong>PRODUCT FEATURE:<br /></strong><span class=""font5""><br />Get two sizes less immediately and use it 8 hours daily for 18 days and get more results -3.7cm from the technology, just wear and get slim.<br /><br /><strong><span class=""font6"">HOW TO WASH:<br /></span></strong><span class=""font5""><br />Wash it in the washing machine at 30-degree temperature and don&rsquo;t use chlorine.<br /></span></span></span></span></span></span></span></span></span></span></span></span></span></span></span></span></span></span></span></span></span></span></span></span></span></span></span></span></span></span></span></span></span></span></span></p>",1,10,,Default,simple,,base,,1,Taxable Goods,"Catalog, Search",,,,,,,,,,,,Block after Info Column,,,,,,,,,,,Use config,,"has_options=1,quantity_and_stock_status=In Stock,required_options=141",0,1,0,0,1,1,0,0,1,1,,1,0,1,1,0,1,0,0,1,0,1,,,,,,,,,,
3662019003129,Lytess SLEEP AND SLIM CAPRIS Black S/M,504,"<p><span class=""font5""><span class=""font5""><span class=""font5""><span class=""font5""><span class=""font5""><span class=""font5""><span class=""font5""><span class=""font5""><span class=""font5""><span class=""font5""><span class=""font5""><span class=""font5""><span class=""font5""><span class=""font5""><span class=""font5""><span class=""font5""><span class=""font5""><span class=""font5""><span class=""font5""><span class=""font5""><span class=""font5""><span class=""font5""><span class=""font5""><span class=""font5""><span class=""font5""><span class=""font5""><span class=""font5""><span class=""font5""><span class=""font5""><span class=""font5""><span class=""font5""><span class=""font5""><span class=""font5""><span class=""font5"">Innovative Slimming clothes from France with new technology, with double action, scalp, and slim your body without effort, the first action you will get 2 sizes less immediately as correcting, and second action from the microcapsules technology after 18 days. Just wear feel light, elegant and get the perfect body shape&nbsp;<br /><br /><strong>PRODUCT FEATURE:<br /></strong><span class=""font5""><br />Get two sizes less immediately and use it 8 hours daily for 18 days and get more results -3.7cm from the technology, just wear and get slim.<br /><br /><strong><span class=""font6"">HOW TO WASH:<br /></span></strong><span class=""font5""><br />Wash it in the washing machine at 30-degree temperature and don&rsquo;t use chlorine.<br /></span></span></span></span></span></span></span></span></span></span></span></span></span></span></span></span></span></span></span></span></span></span></span></span></span></span></span></span></span></span></span></span></span></span></span></span></p>",1,10,,Default,simple,,base,,1,Taxable Goods,"Catalog, Search",,,,,,,,,,,,Block after Info Column,,,,,,,,,,,Use config,,"has_options=1,quantity_and_stock_status=In Stock,required_options=144",0,1,0,0,1,1,0,0,1,1,,1,0,1,1,0,1,0,0,1,0,1,,,,,,,,,,
3662019003112,Lytess SLEEP AND SLIM CAPRIS Black L/XL,504,"<p>Innovative Slimming clothes from France with new technology, the dream comes true, slim your body during sleep, comfortable sleepwear, just wear it at night and get slim<br /> <br /><strong>PRODUCT FEATURE:<br /><br /></strong>USE IT FOR 10 NIGHTS AND GET -4.4CM FROM WAIST, -4.3CM FROM HIPS, -2.5CM FROM THIGHS<br /><br /><strong>HOW TO WASH:<br /><br /></strong>Wash it in washing machine at 30 degree temperature and don&rsquo;t use chlorine</p>",1,10,,Default,simple,,base,,1,Taxable Goods,"Catalog, Search",,,,,,,,,,,,Block after Info Column,,,,,,,,,,,Use config,,"has_options=1,quantity_and_stock_status=In Stock,required_options=145",0,1,0,0,1,1,0,0,1,1,,1,0,1,1,0,1,0,0,1,0,1,,,,,,,,,,
3662019006533,"Lytess FIRMING SCULPTING SHORTY  Flesh,(anti-aging) S/M",441,"<p>Innovative anti-aging clothes from France with new technology, this product is with double action, the first action get two sizes less immediately and second action fight against aging signs in your body within 14 days. <br /> <br /> <strong>PRODUCT FEATURE:</strong><br /><br />Get two sizes less immediately, and firm your body, fight against aging signs within 14 days<br /><br /><strong>HOW TO WASH:</strong><br /><br />Wash it in the washing machine at 30-degree temperature and don&rsquo;t use chlorine.</p>",1,10,,Default,simple,,base,,1,Taxable Goods,"Catalog, Search",,,,,,,,,,,,Block after Info Column,,,,,,,,,,,Use config,,"has_options=1,quantity_and_stock_status=In Stock,required_options=146",0,1,0,0,1,1,0,0,1,1,,1,0,1,1,0,1,0,0,1,0,1,,,,,,,,,,
3662019006526,"Lytess FIRMING SCULPTING SHORTY  Flesh,(anti-aging) L/XL",441,"<p>Innovative anti-aging clothes from France with new technology, this product is with double action, the first action get two sizes less immediately and second action fight against aging signs in your body within 14 days.&nbsp;<br /><br /><strong>PRODUCT FEATURE:</strong><br /><br />Get two sizes less immediately, and firm your body, fight against aging signs within 14 days<br /><br /><strong>HOW TO WASH:</strong><br /><br />Wash it in the washing machine at 30-degree temperature and don&rsquo;t use chlorine.</p>",1,10,,Default,simple,,base,,1,Taxable Goods,"Catalog, Search",,,,,,,,,,,,Block after Info Column,,,,,,,,,,,Use config,,"has_options=1,quantity_and_stock_status=In Stock,required_options=147",0,1,0,0,1,1,0,0,1,1,,1,0,1,1,0,1,0,0,1,0,1,,,,,,,,,,
3662019006540,"Lytess FIRMING SCULPTING SHORTY  Flesh,(anti-aging) XXL",441,"<p>Innovative anti-aging clothes from France with new technology, this product is with double action, the first action get two sizes less immediately and second action fight against aging signs in your body within 14 days.&nbsp;<br /><br /><strong>PRODUCT FEATURE:</strong><br /><br />Get two sizes less immediately, and firm your body, fight against aging signs within 14 days<br /><br /><strong>HOW TO WASH:</strong><br /><br />Wash it in the washing machine at 30-degree temperature and don&rsquo;t use chlorine.</p>",1,10,,Default,simple,,base,,1,Taxable Goods,"Catalog, Search",,,,,,,,,,,,Block after Info Column,,,,,,,,,,,Use config,,"has_options=1,quantity_and_stock_status=In Stock,required_options=148",0,1,0,0,1,1,0,0,1,1,,1,0,1,1,0,1,0,0,1,0,1,,,,,,,,,,
3662019006564,"Lytess FIRMING SCULPTING SHORTY Black,(anti-aging) S/M",441,"<p>Innovative anti-aging clothes from France with new technology, this product is with double action, the first action get two sizes less immediately and second action fight against aging signs in your body within 14 days.&nbsp;<br /><br /><strong>PRODUCT FEATURE:</strong><br /><br />Get two sizes less immediately, and firm your body, fight against aging signs within 14 days<br /><br /><strong>HOW TO WASH:</strong><br /><br />Wash it in the washing machine at 30-degree temperature and don&rsquo;t use chlorine.</p>",1,10,,Default,simple,,base,,1,Taxable Goods,"Catalog, Search",,,,,,,,,,,,Block after Info Column,,,,,,,,,,,Use config,,"has_options=1,quantity_and_stock_status=In Stock,required_options=149",0,1,0,0,1,1,0,0,1,1,,1,0,1,1,0,1,0,0,1,0,1,,,,,,,,,,
3662019006557,Lytess FIRMING SCULPTING SHORTY Black(anti-aging) L/XL,441,"<p>Innovative anti-aging clothes from France with new technology, this product is with double action, the first action get two sizes less immediately and second action fight against aging signs in your body within 14 days.&nbsp;<br /><br /><strong>PRODUCT FEATURE:</strong><br /><br />Get two sizes less immediately, and firm your body, fight against aging signs within 14 days<br /><br /><strong>HOW TO WASH:</strong><br /><br />Wash it in the washing machine at 30-degree temperature and don&rsquo;t use chlorine.</p>",1,10,,Default,simple,,base,,1,Taxable Goods,"Catalog, Search",,,,,,,,,,,,Block after Info Column,,,,,,,,,,,Use config,,"has_options=1,quantity_and_stock_status=In Stock,required_options=150",0,1,0,0,1,1,0,0,1,1,,1,0,1,1,0,1,0,0,1,0,1,,,,,,,,,,
3662019006571,Lytess FIRMING SCULPTING SHORTY Black(anti-aging) XXL,441,"<p>Innovative anti-aging clothes from France with new technology, this product is with double action, the first action get two sizes less immediately and second action fight against aging signs in your body within 14 days.&nbsp;<br /><br /><strong>PRODUCT FEATURE:</strong><br /><br />Get two sizes less immediately, and firm your body, fight against aging signs within 14 days<br /><br /><strong>HOW TO WASH:</strong><br /><br />Wash it in the washing machine at 30-degree temperature and don&rsquo;t use chlorine.</p>",1,10,,Default,simple,,base,,1,Taxable Goods,"Catalog, Search",,,,,,,,,,,,Block after Info Column,,,,,,,,,,,Use config,,"has_options=1,quantity_and_stock_status=In Stock,required_options=151",0,1,0,0,1,1,0,0,1,1,,1,0,1,1,0,1,0,0,1,0,1,,,,,,,,,,
3662019007578,Lytess Perfection Glove Make-up Remover Pink ,105,"<p>3 in 1, make up removing microfiber, cleansing oil, moisturizing <br /> The first make up removing glove that combines an innovative textile with micro capsulated make up removing oil for a perfect and gentle cleansing. Now no need to use many products to remove the make up, just use the perfection glove . <br /> <br /> Just Moisture the glove with water, remove the make up from face and arround the eyes, no need to use any other products, this is 3 in 1, make up remver, cleansing, moisturizing. After use wash it with water and hung it to dry.<br /> <br /> HOW TO WASH<br /> <br /> Wash it in washing machine at 30 degree tempereture and don&rsquo;t use chlorine</p>",1,10,,Default,simple,,base,,1,Taxable Goods,"Catalog, Search",,,,,,,,,,,,Block after Info Column,,,,,,,,,,,Use config,,"has_options=1,quantity_and_stock_status=In Stock,required_options=152",0,1,0,0,1,1,0,0,1,1,,1,0,1,1,0,1,0,0,1,0,1,,,,,,,,,,
3662019006656,Lytess Night-time Stretch Marks Care Panty Black S/M,367.5,"<p>A new application method to help to prevent and reduce stretch marks.</p>
<p>With this new generation of cosmetotextile, you no longer have to apply<br /> endless amounts of creams; the panty can be worn at night and act <br /> effectively on one of the areas most sensitive to stretch marks (belly, hips,<br /> buttocks and thighs). An innovative combination of a micro-messaging <br /> textile with a 100% natural cosmetic serum for continuous diffusion of <br /> the ingredients and fast, visible results.<br /> <br /> New innovative product from lytess to prevent and reduce stretch marks, just wear the product 28 nights and you will find the result of 89% in improving stretch marks. <br /> <br /> HOW TO WASH<br /> <br /> Wash it in the washing machine at 30-degree temperature and don&rsquo;t use chlorine</p>",1,10,,Default,simple,,base,,1,Taxable Goods,"Catalog, Search",,,,,,,,,,,,Block after Info Column,,,,,,,,,,,Use config,,"has_options=1,quantity_and_stock_status=In Stock,required_options=153",0,1,0,0,1,1,0,0,1,1,,1,0,1,1,0,1,0,0,1,0,1,,,,,,,,,,
3662019006649,Lytess Night-time Stretch Marks Care Panty Black L/XL,367.5,"<p>A new application method to help to prevent and reduce stretch marks.</p>
<p>With this new generation of cosmetotextile, you no longer have to apply<br /> endless amounts of creams; the panty can be worn at night and act <br /> effectively on one of the areas most sensitive to stretch marks (belly, hips,<br /> buttocks and thighs). An innovative combination of a micro-messaging <br /> textile with a 100% natural cosmetic serum for continuous diffusion of <br /> the ingredients and fast, visible results.<br /> <br /> New innovative product from lytess to prevent and reduce stretch marks, just wear the product 28 nights and you will find the result of 89% in improving stretch marks. <br /> <br /> HOW TO WASH<br /> <br /> Wash it in the washing machine at 30-degree temperature and don&rsquo;t use chlorine</p>",1,10,,Default,simple,,base,,1,Taxable Goods,"Catalog, Search",,,,,,,,,,,,Block after Info Column,,,,,,,,,,,Use config,,"has_options=1,quantity_and_stock_status=In Stock,required_options=154",0,1,0,0,1,1,0,0,1,1,,1,0,1,1,0,1,0,0,1,0,1,,,,,,,,,,
3662019007868,Lytess Slimming Formula Organic cotton Panty  Beige S/M,399,"<p>The first organic cotton cosmetotextile which combines the softness of <br /> an organic fiber with natural cosmetic ingredients for slimming results<br /> after 10 days.<br /> Light and comfortable, the organic panty contains millions of micro-<br /> capsules which release their slimming and firming cosmetic ingredients <br /> throughout the day.<br /> This natural formula enhances your figure, stress-free and effortlessly.<br /> <br /> The first organic cotton cosmetotextile which combines the softness of <br /> an organic fiber with natural cosmetic ingredients for slimming results, wear it 8 hours daily for 10 days and you will lose approximatly 3.8cm from hips and waist and 2.2cm from thighs<br /> <br /> <span class=""font6"">HOW TO WASH:<br /> <br /> </span><span class=""font5"">Wash it in washing machine at 30 degree tempereture and don&rsquo;t use chlorine</span></p>",1,10,,Default,simple,,base,,1,Taxable Goods,"Catalog, Search",,,,,,,,,,,,Block after Info Column,,,,,,,,,,,Use config,,"has_options=1,quantity_and_stock_status=In Stock,required_options=155",0,1,0,0,1,1,0,0,1,1,,1,0,1,1,0,1,0,0,1,0,1,,,,,,,,,,
3662019007851,Lytess Slimming Formula Organic cotton Panty  Beige  L/XL,399,"<p>The first organic cotton cosmetotextile which combines the softness of <br /> an organic fiber with natural cosmetic ingredients for slimming results<br /> after 10 days.<br /> Light and comfortable, the organic panty contains millions of micro-<br /> capsules which release their slimming and firming cosmetic ingredients <br /> throughout the day.<br /> This natural formula enhances your figure, stress-free and effortlessly.<br /> <br /> The first organic cotton cosmetotextile which combines the softness of <br /> an organic fiber with natural cosmetic ingredients for slimming results, wear it 8 hours daily for 10 days and you will lose approximatly 3.8cm from hips and waist and 2.2cm from thighs<br /> <br /> <span class=""font6"">HOW TO WASH:<br /> <br /> </span><span class=""font5"">Wash it in washing machine at 30 degree tempereture and don&rsquo;t use chlorine</span></p>",1,10,,Default,simple,,base,,1,Taxable Goods,"Catalog, Search",,,,,,,,,,,,Block after Info Column,,,,,,,,,,,Use config,,"has_options=1,quantity_and_stock_status=In Stock,required_options=156",0,1,0,0,1,1,0,0,1,1,,1,0,1,1,0,1,0,0,1,0,1,,,,,,,,,,
