sku,store_view_code,attribute_set_code,product_type,categories,product_websites,name,description,short_description,weight,product_online,tax_class_name,visibility,price,special_price,special_price_from_date,special_price_to_date,url_key,meta_title,meta_keywords,meta_description,created_at,updated_at,new_from_date,new_to_date,display_product_options_in,map_price,msrp_price,map_enabled,gift_message_available,custom_design,custom_design_from,custom_design_to,custom_layout_update,page_layout,product_options_container,msrp_display_actual_price_type,country_of_manufacture,additional_attributes,qty,out_of_stock_qty,use_config_min_qty,is_qty_decimal,allow_backorders,use_config_backorders,min_cart_qty,use_config_min_sale_qty,max_cart_qty,use_config_max_sale_qty,is_in_stock,notify_on_stock_below,use_config_notify_stock_qty,manage_stock,use_config_manage_stock,use_config_qty_increments,qty_increments,use_config_enable_qty_inc,enable_qty_increments,is_decimal_divided,website_id,deferred_stock_update,use_config_deferred_stock_update,related_skus,crosssell_skus,upsell_skus,hide_from_product_page,custom_options,bundle_price_type,bundle_sku_type,bundle_price_view,bundle_weight_type,bundle_values,associated_skus,base_image,small_image,thumbnail_image,additional_image_1,additional_image_2,additional_image_3
8.79E+11,,Default,simple,"Default Category/Nursing,Default Category/Nursing/Nursing Covers",base,Nest Bebe Au Lait Nursing Cover,,,1,1,Taxable Goods,"Catalog, Search",180,,,,nest-bebe-au-lait-nursing-cover,,,,,,,,Block after Info Column,,,,,,,,,,,Use config,,"has_options=1,shipment_type=together,quantity_and_stock_status=In Stock,required_options=0",20,0,1,0,0,1,1,0,0,1,1,,1,0,1,1,0,1,0,0,1,0,1,,,,,,,,,,,,,,,,,
8.79E+11,,Default,simple,"Default Category/Nursing,Default Category/Nursing/Nursing Covers",base,Carousel Pink Muslin Bebe Nursing Cover ,,,1,1,Taxable Goods,"Catalog, Search",180,,,,carousel-pink-muslin-nursing-cover,,,,,,,,Block after Info Column,,,,,,,,,,,Use config,,"has_options=0,quantity_and_stock_status=In Stock,required_options=0",20,0,1,0,0,1,1,0,0,1,1,,1,0,1,1,0,1,0,0,1,0,1,,,,,,,,,,,,,,,,,
8.79E+11,,Default,simple,"Default Category/Nursing,Default Category/Nursing/Nursing Covers",base,Montecito Bebe Nursing Cover,,,1,1,Taxable Goods,"Catalog, Search",180,,,,montecito-premium-cotton-nursing-cover,,,,,,,,Block after Info Column,,,,,,,,,,,Use config,,"has_options=0,quantity_and_stock_status=In Stock,required_options=0",20,0,1,0,0,1,1,0,0,1,1,,1,0,1,1,0,1,0,0,1,0,1,,,,,,,,,,,,,,,,,
AM-LUNANB-PPNK,,Default,simple,"Default Category/Nursing,Default Category/Nursing/Nursing Bras",base,Luna Padded Flexi Wired Nursing Bra Powder Pink,,,1,1,Taxable Goods,"Catalog, Search",220,,,,luna-padded-nursing-bra-powder-pink,,,,,,,,Block after Info Column,,,,,,,,,,,Use config,,"has_options=0,quantity_and_stock_status=In Stock,required_options=0",20,0,1,0,0,1,1,0,0,1,1,,1,0,1,1,0,1,0,0,1,0,1,,,,,,,,,,,,,,,,,
AM-SSNB-BLK,,Default,simple,"Default Category/Nursing,Default Category/Nursing/Nursing Bras",base,Second Skin Nursing Bra Black,,,1,1,Taxable Goods,"Catalog, Search",120,,,,Second-Skin-Nursing-Bra-Black,,,,,,,,Block after Info Column,,,,,,,,,,,Use config,,"has_options=1,quantity_and_stock_status=In Stock,required_options=1",20,0,1,0,0,1,1,0,0,1,1,,1,0,1,1,0,1,0,0,1,0,1,,,,,,,,,,,,,,,,,
CC-LNB-RSE,,Default,simple,"Default Category/Nursing,Default Category/Nursing/Nursing Bras",base,Lisa Flexi-wire Nursing Bra Rose,,,1,1,Taxable Goods,"Catalog, Search",160,,,,lisa-flexi-wire-nursing-bra-rose,,,,,,,,Block after Info Column,,,,,,,,,,,Use config,,"has_options=0,quantity_and_stock_status=In Stock,required_options=0",20,0,1,0,0,1,1,0,0,1,1,,1,0,1,1,0,1,0,0,1,0,1,,,,,,,,,,,,,,,,,
CC-MNB-PETAL,,Default,simple,"Default Category/Nursing,Default Category/Nursing/Nursing Bras",base,Magic Flexi-wire Contoured Cup Nursing Bra Petal,,,1,1,Taxable Goods,"Catalog, Search",270,,,,magic-flexi-wire-contoured-cup-nursing-bra-petal,,,,,,,,Block after Info Column,,,,,,,,,,,Use config,,"has_options=1,shipment_type=together,quantity_and_stock_status=In Stock,required_options=0",20,0,1,0,0,1,1,0,0,1,1,,1,0,1,1,0,1,0,0,1,0,1,,,,,,,,,,,,,,,,,
CC-MNB-BLK,,Default,simple,"Default Category/Nursing,Default Category/Nursing/Nursing Bras",base,Mosaic Nursing Bra Black,,,1,1,Taxable Goods,"Catalog, Search",195,,,,Mosaic-Nursing-Bra-Black,,,,,,,,Block after Info Column,,,,,,,,,,,Use config,,"has_options=0,quantity_and_stock_status=In Stock,required_options=0",20,0,1,0,0,1,1,0,0,1,1,,1,0,1,1,0,1,0,0,1,0,1,,,,,,,,,,,,,,,,,
CC-DMNB-BLK,,Default,simple,"Default Category/Nursing,Default Category/Nursing/Nursing Bras",base,Diamond Nursing Bra ,,,1,1,Taxable Goods,"Catalog, Search",245,,,,diamond-nursing-bra-black,,,,,,,,Block after Info Column,,,,,,,,,,,Use config,,"has_options=0,quantity_and_stock_status=In Stock,required_options=1",20,0,1,0,0,1,1,0,0,1,1,,1,0,1,1,0,1,0,0,1,0,1,,,,,,,,,,,,,,,,,
CK-MOUSSE-SLATE,,Default,simple,"Default Category/Nursing,Default Category/Nursing/Nursing Bras",base,Mousse Padded Plunge Wireless Nursing Bra Slate,,,1,1,Taxable Goods,"Catalog, Search",240,,,,mousse-padded-plunge-wireless-nursing-bra-slate,,,,,,,,Block after Info Column,,,,,,,,,,,Use config,,"has_options=0,quantity_and_stock_status=In Stock,required_options=0",20,0,1,0,0,1,1,0,0,1,1,,1,0,1,1,0,1,0,0,1,0,1,,,,,,,,,,,,,,,,,
EMI-CSNB-AUB,,Default,simple,"Default Category/Nursing,Default Category/Nursing/Nursing Bras",base,Cloud Swing Nursing Bra Aubergine & Cream,,,1,1,Taxable Goods,"Catalog, Search",160,,,,Cloud-Swing-Nursing-Bra-Aubergine-&-Cream,,,,,,,,Block after Info Column,,,,,,,,,,,Use config,,"has_options=0,quantity_and_stock_status=In Stock,required_options=0",20,0,1,0,0,1,1,0,0,1,1,,1,0,1,1,0,1,0,0,1,0,1,,,,,,,,,,,,,,,,,
8.46E+11,,Default,simple,"Default Category/Nursing,Default Category/Nursing/Nursing Bras",base,Mousse Padded Plunge Non Wire Nursing Bra Beige 34B,,,1,1,Taxable Goods,"Catalog, Search",255,,,,mousse-padded-plunge-wireless-nursing-bra-beige,,,,,,,,Block after Info Column,,,,,,,,,,,Use config,,"has_options=1,shipment_type=together,quantity_and_stock_status=In Stock,required_options=2",20,0,1,0,0,1,1,0,0,1,1,,1,0,1,1,0,1,0,0,1,0,1,,,,,,,,,,,,,,,,,
8.46E+11,,Default,simple,"Default Category/Nursing,Default Category/Nursing/Nursing Bras",base,Mousse Padded Plunge Non Wire Nursing Bra Beige 34D,,,1,1,Taxable Goods,"Catalog, Search",255,,,,mousse-padded-plunge-wireless-nursing-bra-beige,,,,,,,,Block after Info Column,,,,,,,,,,,Use config,,"has_options=0,quantity_and_stock_status=In Stock,required_options=2",20,0,1,0,0,1,1,0,0,1,1,,1,0,1,1,0,1,0,0,1,0,1,,,,,,,,,,,,,,,,,
8.46E+11,,Default,simple,"Default Category/Nursing,Default Category/Nursing/Nursing Bras",base,Mousse Padded Plunge Non Wire Nursing Bra Beige 34DD,,,1,1,Taxable Goods,"Catalog, Search",255,,,,mousse-padded-plunge-wireless-nursing-bra-beige,,,,,,,,Block after Info Column,,,,,,,,,,,Use config,,"has_options=1,quantity_and_stock_status=In Stock,required_options=5",20,0,1,0,0,1,1,0,0,1,1,,1,0,1,1,0,1,0,0,1,0,1,,,,,,,,,,,,,,,,,
8.46E+11,,Default,simple,"Default Category/Nursing,Default Category/Nursing/Nursing Bras",base,Mousse Padded Plunge Non Wire Nursing Bra Beige 36B,,,1,1,Taxable Goods,"Catalog, Search",255,,,,mousse-padded-plunge-wireless-nursing-bra-beige,,,,,,,,Block after Info Column,,,,,,,,,,,Use config,,"has_options=0,quantity_and_stock_status=In Stock,required_options=0",20,0,1,0,0,1,1,0,0,1,1,,1,0,1,1,0,1,0,0,1,0,1,,,,,,,,,,,,,,,,,
8.46E+11,,Default,simple,"Default Category/Nursing,Default Category/Nursing/Nursing Bras",base,Mousse Padded Plunge Non Wire Nursing Bra Beige 36C,,,1,1,Taxable Goods,"Catalog, Search",255,,,,mousse-padded-plunge-wireless-nursing-bra-beige/,,,,,,,,Block after Info Column,,,,,,,,,,,Use config,,"has_options=0,quantity_and_stock_status=In Stock,required_options=0",20,0,1,0,0,1,1,0,0,1,1,,1,0,1,1,0,1,0,0,1,0,1,,,,,,,,,,,,,,,,,
8.46E+11,,Default,simple,"Default Category/Nursing,Default Category/Nursing/Nursing Bras",base,Mousse Padded Plunge Non Wire Nursing Bra Beige 36D,,,1,1,Taxable Goods,"Catalog, Search",255,,,,mousse-padded-plunge-wireless-nursing-bra-beige,,,,,,,,Block after Info Column,,,,,,,,,,,Use config,,"has_options=0,quantity_and_stock_status=In Stock,required_options=0",20,0,1,0,0,1,1,0,0,1,1,,1,0,1,1,0,1,0,0,1,0,1,,,,,,,,,,,,,,,,,
8.46E+11,,Default,simple,"Default Category/Nursing,Default Category/Nursing/Nursing Bras",base,Mousse Padded Plunge Non Wire Nursing Bra Beige 38C,,,1,1,Taxable Goods,"Catalog, Search",255,,,,mousse-padded-plunge-wireless-nursing-bra-beige,,,,,,,,Block after Info Column,,,,,,,,,,,Use config,,"has_options=1,quantity_and_stock_status=In Stock,required_options=3",20,0,1,0,0,1,1,0,0,1,1,,1,0,1,1,0,1,0,0,1,0,1,,,,,,,,,,,,,,,,,
8.46E+11,,Default,simple,"Default Category/Nursing,Default Category/Nursing/Nursing Bras",base,Mousse Padded Plunge Non Wire Nursing Bra Beige 38D,,,1,1,Taxable Goods,"Catalog, Search",255,,,,mousse-padded-plunge-wireless-nursing-bra-black,,,,,,,,Block after Info Column,,,,,,,,,,,Use config,,"has_options=1,quantity_and_stock_status=In Stock,required_options=3",20,0,1,0,0,1,1,0,0,1,1,,1,0,1,1,0,1,0,0,1,0,1,,,,,,,,,,,,,,,,,
8.46E+11,,Default,simple,"Default Category/Nursing,Default Category/Nursing/Nursing Bras",base,Mousse Padded Plunge Non Wire Nursing Bra Rose 34B,,,1,1,Taxable Goods,"Catalog, Search",255,,,,mousse-padded-plunge-wireless-nursing-bra-pink,,,,,,,,Block after Info Column,,,,,,,,,,,Use config,,"has_options=0,quantity_and_stock_status=In Stock,required_options=0",20,0,1,0,0,1,1,0,0,1,1,,1,0,1,1,0,1,0,0,1,0,1,,,,,,,,,,,,,,,,,
8.46E+11,,Default,simple,"Default Category/Nursing,Default Category/Nursing/Nursing Bras",base,Mousse Padded Plunge Non Wire Nursing Bra Rose 34C,,,1,1,Taxable Goods,"Catalog, Search",255,,,,mousse-padded-plunge-wireless-nursing-bra-pink,,,,,,,,Block after Info Column,,,,,,,,,,,Use config,,"has_options=0,quantity_and_stock_status=In Stock,required_options=0",20,0,1,0,0,1,1,0,0,1,1,,1,0,1,1,0,1,0,0,1,0,1,,,,,,,,,,,,,,,,,
8.46E+11,,Default,simple,"Default Category/Nursing,Default Category/Nursing/Nursing Bras",base,Mousse Padded Plunge Non Wire Nursing Bra Rose 34D,,,1,1,Taxable Goods,"Catalog, Search",255,,,,mousse-padded-plunge-wireless-nursing-bra-pink,,,,,,,,Block after Info Column,,,,,,,,,,,Use config,,"has_options=1,shipment_type=together,quantity_and_stock_status=In Stock,required_options=0",20,0,1,0,0,1,1,0,0,1,1,,1,0,1,1,0,1,0,0,1,0,1,,,,,,,,,,,,,,,,,
8.46E+11,,Default,simple,"Default Category/Nursing,Default Category/Nursing/Nursing Bras",base,Mousse Padded Plunge Non Wire Nursing Bra Rose 34DD,,,1,1,Taxable Goods,"Catalog, Search",255,,,,mousse-padded-plunge-wireless-nursing-bra-pink,,,,,,,,Block after Info Column,,,,,,,,,,,Use config,,"has_options=1,shipment_type=together,quantity_and_stock_status=In Stock,required_options=0",20,0,1,0,0,1,1,0,0,1,1,,1,0,1,1,0,1,0,0,1,0,1,,,,,,,,,,,,,,,,,
8.46E+11,,Default,simple,"Default Category/Nursing,Default Category/Nursing/Nursing Bras",base,Mousse Padded Plunge Non Wire Nursing Bra Rose 36B,,,1,1,Taxable Goods,"Catalog, Search",255,,,,mousse-padded-plunge-wireless-nursing-bra-pink,,,,,,,,Block after Info Column,,,,,,,,,,,Use config,,"has_options=0,quantity_and_stock_status=In Stock,required_options=0",20,0,1,0,0,1,1,0,0,1,1,,1,0,1,1,0,1,0,0,1,0,1,,,,,,,,,,,,,,,,,
8.46E+11,,Default,simple,"Default Category/Nursing,Default Category/Nursing/Nursing Bras",base,Mousse Padded Plunge Non Wire Nursing Bra Rose 36C,,,1,1,Taxable Goods,"Catalog, Search",255,,,,mousse-padded-plunge-wireless-nursing-bra-pink,,,,,,,,Block after Info Column,,,,,,,,,,,Use config,,"has_options=0,quantity_and_stock_status=In Stock,required_options=0",20,0,1,0,0,1,1,0,0,1,1,,1,0,1,1,0,1,0,0,1,0,1,,,,,,,,,,,,,,,,,
8.46E+11,,Default,simple,"Default Category/Nursing,Default Category/Nursing/Nursing Bras",base,Mousse Padded Plunge Non Wire Nursing Bra Rose 36D,,,1,1,Taxable Goods,"Catalog, Search",255,,,,mousse-padded-plunge-wireless-nursing-bra-pink,,,,,,,,Block after Info Column,,,,,,,,,,,Use config,,"has_options=1,shipment_type=together,quantity_and_stock_status=In Stock,required_options=3",20,0,1,0,0,1,1,0,0,1,1,,1,0,1,1,0,1,0,0,1,0,1,,,,,,,,,,,,,,,,,
8.46E+11,,Default,simple,"Default Category/Nursing,Default Category/Nursing/Nursing Bras",base,Mousse Padded Plunge Non Wire Nursing Bra Rose 36DD,,,1,1,Taxable Goods,"Catalog, Search",255,,,,mousse-padded-plunge-wireless-nursing-bra-pink,,,,,,,,Block after Info Column,,,,,,,,,,,Use config,,"has_options=0,quantity_and_stock_status=In Stock,required_options=3",20,0,1,0,0,1,1,0,0,1,1,,1,0,1,1,0,1,0,0,1,0,1,,,,,,,,,,,,,,,,,
8.46E+11,,Default,simple,"Default Category/Nursing,Default Category/Nursing/Nursing Bras",base,Mousse Padded Plunge Non Wire Nursing Bra Rose 38C,,,1,1,Taxable Goods,"Catalog, Search",255,,,,mousse-padded-plunge-wireless-nursing-bra-pink,,,,,,,,Block after Info Column,,,,,,,,,,,Use config,,"has_options=1,quantity_and_stock_status=In Stock,required_options=6",20,0,1,0,0,1,1,0,0,1,1,,1,0,1,1,0,1,0,0,1,0,1,,,,,,,,,,,,,,,,,
8.46E+11,,Default,simple,"Default Category/Nursing,Default Category/Nursing/Nursing Bras",base,Mousse Padded Plunge Non Wire Nursing Bra Rose 38D,,,1,1,Taxable Goods,"Catalog, Search",255,,,,mousse-padded-plunge-wireless-nursing-bra-pink,,,,,,,,Block after Info Column,,,,,,,,,,,Use config,,"has_options=0,quantity_and_stock_status=In Stock,required_options=0",20,0,1,0,0,1,1,0,0,1,1,,1,0,1,1,0,1,0,0,1,0,1,,,,,,,,,,,,,,,,,
8.46E+11,,Default,simple,"Default Category/Nursing,Default Category/Nursing/Nursing Bras",base,Mousse Padded Plunge Non Wire Nursing Bra Black 34B,,,1,1,Taxable Goods,"Catalog, Search",255,,,,mousse-padded-plunge-wireless-nursing-bra-black,,,,,,,,Block after Info Column,,,,,,,,,,,Use config,,"has_options=0,quantity_and_stock_status=In Stock,required_options=0",20,0,1,0,0,1,1,0,0,1,1,,1,0,1,1,0,1,0,0,1,0,1,,,,,,,,,,,,,,,,,
8.46E+11,,Default,simple,"Default Category/Nursing,Default Category/Nursing/Nursing Bras",base,Mousse Padded Plunge Non Wire Nursing Bra Black 34D,,,1,1,Taxable Goods,"Catalog, Search",255,,,,mousse-padded-plunge-wireless-nursing-bra-black,,,,,,,,Block after Info Column,,,,,,,,,,,Use config,,"has_options=0,quantity_and_stock_status=In Stock,required_options=0",20,0,1,0,0,1,1,0,0,1,1,,1,0,1,1,0,1,0,0,1,0,1,,,,,,,,,,,,,,,,,
8.46E+11,,Default,simple,"Default Category/Nursing,Default Category/Nursing/Nursing Bras",base,Mousse Padded Plunge Non Wire Nursing Bra Black 34DD,,,1,1,Taxable Goods,"Catalog, Search",255,,,,mousse-padded-plunge-wireless-nursing-bra-black,,,,,,,,Block after Info Column,,,,,,,,,,,Use config,,"has_options=1,quantity_and_stock_status=In Stock,required_options=4",20,0,1,0,0,1,1,0,0,1,1,,1,0,1,1,0,1,0,0,1,0,1,,,,,,,,,,,,,,,,,
8.46E+11,,Default,simple,"Default Category/Nursing,Default Category/Nursing/Nursing Bras",base,Mousse Padded Plunge Non Wire Nursing Bra Black 36B,,,1,1,Taxable Goods,"Catalog, Search",255,,,,mousse-padded-plunge-wireless-nursing-bra-black,,,,,,,,Block after Info Column,,,,,,,,,,,Use config,,"has_options=1,quantity_and_stock_status=In Stock,required_options=4",20,0,1,0,0,1,1,0,0,1,1,,1,0,1,1,0,1,0,0,1,0,1,,,,,,,,,,,,,,,,,
8.46E+11,,Default,simple,"Default Category/Nursing,Default Category/Nursing/Nursing Bras",base,Mousse Padded Plunge Non Wire Nursing Bra Black 36C,,,1,1,Taxable Goods,"Catalog, Search",255,,,,mousse-padded-plunge-wireless-nursing-bra-black,,,,,,,,Block after Info Column,,,,,,,,,,,Use config,,"has_options=0,quantity_and_stock_status=In Stock,required_options=0",20,0,1,0,0,1,1,0,0,1,1,,1,0,1,1,0,1,0,0,1,0,1,,,,,,,,,,,,,,,,,
8.46E+11,,Default,simple,"Default Category/Nursing,Default Category/Nursing/Nursing Bras",base,Mousse Padded Plunge Non Wire Nursing Bra Black 36D,,,1,1,Taxable Goods,"Catalog, Search",255,,,,mousse-padded-plunge-wireless-nursing-bra-black,,,,,,,,Block after Info Column,,,,,,,,,,,Use config,,"has_options=0,quantity_and_stock_status=In Stock,required_options=0",20,0,1,0,0,1,1,0,0,1,1,,1,0,1,1,0,1,0,0,1,0,1,,,,,,,,,,,,,,,,,
8.46E+11,,Default,simple,"Default Category/Nursing,Default Category/Nursing/Nursing Bras",base,Mousse Padded Plunge Non Wire Nursing Bra Black 38C,,,1,1,Taxable Goods,"Catalog, Search",255,,,,mousse-padded-plunge-wireless-nursing-bra-black,,,,,,,,Block after Info Column,,,,,,,,,,,Use config,,"has_options=1,shipment_type=together,quantity_and_stock_status=In Stock,required_options=0",20,0,1,0,0,1,1,0,0,1,1,,1,0,1,1,0,1,0,0,1,0,1,,,,,,,,,,,,,,,,,
8.46E+11,,Default,simple,"Default Category/Nursing,Default Category/Nursing/Nursing Bras",base,Waffles Bra Oyster Pink 34B,,,1,1,Taxable Goods,"Catalog, Search",280,,,,waffles-3d-spacer-contour-nursing-bra-pink,,,,,,,,Block after Info Column,,,,,,,,,,,Use config,,"has_options=1,shipment_type=together,quantity_and_stock_status=In Stock,required_options=0",20,0,1,0,0,1,1,0,0,1,1,,1,0,1,1,0,1,0,0,1,0,1,,,,,,,,,,,,,,,,,
8.46E+11,,Default,simple,"Default Category/Nursing,Default Category/Nursing/Nursing Bras",base,Waffles Bra Oyster Pink 36B,,,1,1,Taxable Goods,"Catalog, Search",280,,,,waffles-3d-spacer-contour-nursing-bra-pink,,,,,,,,Block after Info Column,,,,,,,,,,,Use config,,"has_options=0,quantity_and_stock_status=In Stock,required_options=0",20,0,1,0,0,1,1,0,0,1,1,,1,0,1,1,0,1,0,0,1,0,1,,,,,,,,,,,,,,,,,
8.46E+11,,Default,simple,"Default Category/Nursing,Default Category/Nursing/Nursing Bras",base,Waffles Bra Oyster Pink 36C,,,1,1,Taxable Goods,"Catalog, Search",280,,,,waffles-3d-spacer-contour-nursing-bra-pink,,,,,,,,Block after Info Column,,,,,,,,,,,Use config,,"has_options=0,quantity_and_stock_status=In Stock,required_options=0",20,0,1,0,0,1,1,0,0,1,1,,1,0,1,1,0,1,0,0,1,0,1,,,,,,,,,,,,,,,,,
8.46E+11,,Default,simple,"Default Category/Nursing,Default Category/Nursing/Nursing Bras",base,Waffles Bra Oyster Pink 36D,,,1,1,Taxable Goods,"Catalog, Search",280,,,,waffles-3d-spacer-contour-nursing-bra-pink,,,,,,,,Block after Info Column,,,,,,,,,,,Use config,,"has_options=1,shipment_type=together,quantity_and_stock_status=In Stock,required_options=4",20,0,1,0,0,1,1,0,0,1,1,,1,0,1,1,0,1,0,0,1,0,1,,,,,,,,,,,,,,,,,
8.46E+11,,Default,simple,"Default Category/Nursing,Default Category/Nursing/Nursing Bras",base,Waffles Bra Oyster Pink 38C,,,1,1,Taxable Goods,"Catalog, Search",280,,,,waffles-3d-spacer-contour-nursing-bra-pink,,,,,,,,Block after Info Column,,,,,,,,,,,Use config,,"has_options=0,quantity_and_stock_status=In Stock,required_options=4",20,0,1,0,0,1,1,0,0,1,1,,1,0,1,1,0,1,0,0,1,0,1,,,,,,,,,,,,,,,,,
8.46E+11,,Default,simple,"Default Category/Nursing,Default Category/Nursing/Nursing Bras",base,Waffles Bra Buttermilk 34B,,,1,1,Taxable Goods,"Catalog, Search",280,,,,waffles-3d-spacer-contour-nursing-bra-beige,,,,,,,,Block after Info Column,,,,,,,,,,,Use config,,"has_options=0,quantity_and_stock_status=In Stock,required_options=0",20,0,1,0,0,1,1,0,0,1,1,,1,0,1,1,0,1,0,0,1,0,1,,,,,,,,,,,,,,,,,
8.46E+11,,Default,simple,"Default Category/Nursing,Default Category/Nursing/Nursing Bras",base,Waffles Bra Buttermilk 34C,,,1,1,Taxable Goods,"Catalog, Search",280,,,,waffles-3d-spacer-contour-nursing-bra-beige,,,,,,,,Block after Info Column,,,,,,,,,,,Use config,,"has_options=0,quantity_and_stock_status=In Stock,required_options=0",20,0,1,0,0,1,1,0,0,1,1,,1,0,1,1,0,1,0,0,1,0,1,,,,,,,,,,,,,,,,,
8.46E+11,,Default,simple,"Default Category/Nursing,Default Category/Nursing/Nursing Bras",base,Waffles Bra Buttermilk 34D,,,1,1,Taxable Goods,"Catalog, Search",280,,,,waffles-3d-spacer-contour-nursing-bra-beige,,,,,,,,Block after Info Column,,,,,,,,,,,Use config,,"has_options=0,quantity_and_stock_status=In Stock,required_options=0",20,0,1,0,0,1,1,0,0,1,1,,1,0,1,1,0,1,0,0,1,0,1,,,,,,,,,,,,,,,,,
8.46E+11,,Default,simple,"Default Category/Nursing,Default Category/Nursing/Nursing Bras",base,Waffles Bra Black 34B,,,1,1,Taxable Goods,"Catalog, Search",280,,,,waffles-3d-spacer-contour-nursing-bra-black,,,,,,,,Block after Info Column,,,,,,,,,,,Use config,,"has_options=1,quantity_and_stock_status=In Stock,required_options=5",20,0,1,0,0,1,1,0,0,1,1,,1,0,1,1,0,1,0,0,1,0,1,,,,,,,,,,,,,,,,,
8.46E+11,,Default,simple,"Default Category/Nursing,Default Category/Nursing/Nursing Bras",base,Waffles Bra Black 34D,,,1,1,Taxable Goods,"Catalog, Search",280,,,,waffles-3d-spacer-contour-nursing-bra-black,,,,,,,,Block after Info Column,,,,,,,,,,,Use config,,"has_options=0,quantity_and_stock_status=In Stock,required_options=0",20,0,1,0,0,1,1,0,0,1,1,,1,0,1,1,0,1,0,0,1,0,1,,,,,,,,,,,,,,,,,
8.46E+11,,Default,simple,"Default Category/Nursing,Default Category/Nursing/Nursing Bras",base,Waffles Bra Black 36B,,,1,1,Taxable Goods,"Catalog, Search",280,,,,waffles-3d-spacer-contour-nursing-bra-black,,,,,,,,Block after Info Column,,,,,,,,,,,Use config,,"has_options=0,quantity_and_stock_status=In Stock,required_options=0",20,0,1,0,0,1,1,0,0,1,1,,1,0,1,1,0,1,0,0,1,0,1,,,,,,,,,,,,,,,,,
8.46E+11,,Default,simple,"Default Category/Nursing,Default Category/Nursing/Nursing Bras",base,Waffles Bra Black 36D,,,1,1,Taxable Goods,"Catalog, Search",280,,,,waffles-3d-spacer-contour-nursing-bra-black,,,,,,,,Block after Info Column,,,,,,,,,,,Use config,,"has_options=1,shipment_type=together,quantity_and_stock_status=In Stock,required_options=0",20,0,1,0,0,1,1,0,0,1,1,,1,0,1,1,0,1,0,0,1,0,1,,,,,,,,,,,,,,,,,
SF1901,,Default,simple,"Default Category/Lingerie,Default Category/Lingerie/Maternity Bras",base,Maternity and Nursing Seemless Bra Milk - Bordeaux,,,1,1,Taxable Goods,"Catalog, Search",225,,,,maternity-and-nursing-seemless-bra-milk-bordeaux,,,,,,,,Block after Info Column,,,,,,,,,,,Use config,,"has_options=1,quantity_and_stock_status=In Stock,required_options=6",20,0,1,0,0,1,1,0,0,1,1,,1,0,1,1,0,1,0,0,1,0,1,,,,,,,,,,,,,,,,,
