sku,name,store_view_code,attribute_set_code,product_type,categories,product_websites,description,short_description,weight,product_online,tax_class_name,visibility,price,special_price,special_price_from_date,special_price_to_date,url_key,meta_title,meta_keywords,meta_description,created_at,updated_at,new_from_date,new_to_date,display_product_options_in,map_price,msrp_price,map_enabled,gift_message_available,custom_design,custom_design_from,custom_design_to,custom_layout_update,page_layout,product_options_container,msrp_display_actual_price_type,country_of_manufacture,additional_attributes,qty,out_of_stock_qty,use_config_min_qty,is_qty_decimal,allow_backorders,use_config_backorders,min_cart_qty,use_config_min_sale_qty,max_cart_qty,use_config_max_sale_qty,is_in_stock,notify_on_stock_below,use_config_notify_stock_qty,manage_stock,use_config_manage_stock,use_config_qty_increments,qty_increments,use_config_enable_qty_inc,enable_qty_increments,is_decimal_divided,website_id,deferred_stock_update,use_config_deferred_stock_update,related_skus,crosssell_skus,upsell_skus,hide_from_product_page,custom_options,bundle_price_type,bundle_sku_type,bundle_price_view,bundle_weight_type,bundle_values,associated_skus,base_image,small_image,thumbnail_image,additional_image_1,additional_image_2
SLH-DELUXE-PRISTINE-WHT,Sleepyhead Deluxe Pod Pristine White,,Default,simple,,base,"<p>The Sleepyhead&reg; DELUXE+ pod is the ultimate pod for your baby ages 0-8 months old. Multifunctional and multitasking, the Sleepyhead&reg; DELUXE offers a safe and comfy spot that lets baby sleep, rest, co-sleep, lounge, play, cuddle, do tummy time and get diaper changes. DELUXE pods are lightweight and portable, allowing for easy travel, from room to room, grandma&rsquo;s house or on vacation. Additional covers are available for purchase to match your mood, room and style.</p>

<p> Testing and Certification received from the UK, Canada and the US. All materials used are breathable, washable and hypoallergenic. Sleepyhead&reg; offers excellent air-permeability. All filling materials are sourced from world-leading suppliers with breathable, hygienic and non-toxic properties. Globally patented. Weight : 1,9 KG 45-cm wide x 15-cm high x 75-85-cm long (75-cm with clasps closed and 85-cm with clasps open)</p>",,1,1,Taxable Goods,"Catalog, Search",790,,,,,,,,,,,,Block after Info Column,,,,,,,,,,,Use config,,"has_options=1,quantity_and_stock_status=In Stock,required_options=10",99,0,1,0,0,1,1,0,0,1,1,,1,0,1,1,0,1,0,0,1,0,1,,,,,,,,,,,,https://www.blushandbloom.com/shop/images/images_small/sleepyhead_white-80x120.png,https://www.blushandbloom.com/shop/images/images_small/sleepyhead_white-80x120.png,https://www.blushandbloom.com/shop/images/images_small/sleepyhead_white-80x120.png,https://www.blushandbloom.com/shop/images/images_small/sleepyhead_white_pod-80x120.png,https://www.blushandbloom.com/shop/images/images_small/sleepyhead-80x120.png
SLH-COVER-PINAC,Sleepyhead Grand  Extra Cover PiNa Colada,,Default,simple,,base,"<p>EXTRA COVER FOR SLEEPYHEAD&reg; GRAND POD STYLE: PI&Ntilde;A COLADA from the FAIRYTALE COLLECTION NB: This item is a cover only (not a complete pod). This item fits the GRAND pod.</p>

<p>A style from the Fairytale Collection. Fully washable. Compatible with all Sleepyhead&reg; GRAND pods.</p>

<p>Weight: 1,1 KG 60-cm wide x 25-cm high x 125-cm long</p>",,1,1,Taxable Goods,"Catalog, Search",560,,,,,,,,,,,,Block after Info Column,,,,,,,,,,,Use config,,"has_options=1,quantity_and_stock_status=In Stock,required_options=11",2,0,1,0,0,1,1,0,0,1,1,,1,0,1,1,0,1,0,0,1,0,1,,,,,,,,,,,,https://www.blushandbloom.com/shop/images/images_small/pinacolada_sleepyhead_cover-80x120.png,https://www.blushandbloom.com/shop/images/images_small/pinacolada_sleepyhead_cover-80x120.png,https://www.blushandbloom.com/shop/images/images_small/pinacolada_sleepyhead_cover-80x120.png,https://www.blushandbloom.com/shop/images/images_small/sleepyhead_pinacolada-80x120.png,https://www.blushandbloom.com/shop/images/images_small/pinacolada-80x120.png
SH-DELUXE-ROSE,Sleepyhead Deluxe Pod - La Vie en Rose,,Default,simple,,base,"<p>The Sleepyhead&reg; DELUXE+ pod is the ultimate pod for your baby ages 0-8 months old. Multifunctional and multitasking, the Sleepyhead&reg; DELUXE offers a safe and comfy spot that lets baby sleep, rest, co-sleep, lounge, play, cuddle, do tummy time and get diaper changes. DELUXE pods are lightweight and portable, allowing for easy travel, from room to room, grandma&rsquo;s house or on vacation.</p>

<p>Additional covers are available for purchase to match your mood, room and style.</p>

<p>Designed with love in Sweden and made in Europe. All materials used are breathable, washable and hypoallergenic. Sleepyhead&reg; DELUXE offers excellent air-permeability.</p>

<p>All filling materials are sourced from world-leading suppliers with breathable, hygienic and non-toxic properties. Globally patented.</p>

<p> Testing and Certification Sleepyhead&reg; has received the following certifications in the US, Canada and EU: &bull; Oeko-Tex certification, Standard 100, Class 1 (EU) &bull; All components Intertek tested for and proven free from harmful substances &bull; Tested for compliance with US Consumer Product Safety Improvement Act of 2008 &bull; Tension tested for 'Normal and reasonably foreseeable use and abuse&rsquo; &bull; Air permability according to BS4578 (UK) &bull; Resistant to ignition according to BS5852 (UK) &bull; 16 CRF 1632 flammability test compliant &bull; 16 CFR 1500.50 small parts and use &amp; abuse test compliant &bull; Free from phtalates &bull; Free from heavy metals &bull; ASTM F-963-11 compliant &bull; California Bulletins 116 and 117 flammability test compliant &bull; California Proposition 65 compliant &bull; 16 CFR PART 1500.53(f) (1-1-12) (CAN) compliant &bull; CAN/CGSB-4.2 N&deg; 27.5-2008 compliant &bull; Mattress pad is compliant with AU/NZS 8811.1:2013 Infant sleep surfaces - test for firmness &bull; ASTM D3574-08 Indentation Force Deflection test (US) proves high support factor &bull; Free from FR treatment &bull; REACH compliant</p>",,1.9,1,Taxable Goods,"Catalog, Search",915,,,,,,,,,,,,Block after Info Column,,,,,,,,,,,Use config,,"has_options=1,quantity_and_stock_status=In Stock,required_options=14",30,0,1,0,0,1,1,0,0,1,1,,1,0,1,1,0,1,0,0,1,0,1,,,,,,,,,,,,https://www.blushandbloom.com/shop/images/images_small/la_vie_en_rose-80x120.png,https://www.blushandbloom.com/shop/images/images_small/la_vie_en_rose-80x120.png,https://www.blushandbloom.com/shop/images/images_small/la_vie_en_rose-80x120.png,https://www.blushandbloom.com/shop/images/images_small/Untitled_design_(32)-80x120.png,
SH-DELUXE-SLR,Sleepyhead Deluxe+ Pod Silver Lining,,Default,simple,,base,"<p>The Sleepyhead DELUXE+ Pod is the ultimate Pod for your baby ages 0-8 months old. Multifunctional &amp; multitasking, the Sleepyhead&reg; DELUXE offers a safe and comfy spot that lets baby sleep, rest, co-sleep, lounge, play, cuddle, do tummy time and get diaper changes.</p>

<p>Testing and Certification received from the UK, Canada and the US. All materials used are breathable, washable and hypoallergenic. Sleepyhead&reg; offers excellent air-permeability. All filling materials are sourced from world-leading suppliers with breathable, hygienic and non-toxic properties. Globally patented. Weight : 1,9 KG 45-cm wide x 15-cm high x 75-85-cm long (75-cm with clasps closed and 85-cm with clasps open)</p>",,1,1,Taxable Goods,"Catalog, Search",895,,,,,,,,,,,,Block after Info Column,,,,,,,,,,,Use config,,"has_options=1,quantity_and_stock_status=In Stock,required_options=10",12,0,1,0,0,1,1,0,0,1,1,,1,0,1,1,0,1,0,0,1,0,1,,,,,,,,,,,,https://www.blushandbloom.com/shop/images/images_small/sleepyhead_silver-80x120.png,https://www.blushandbloom.com/shop/images/images_small/sleepyhead_silver-80x120.png,https://www.blushandbloom.com/shop/images/images_small/sleepyhead_silver-80x120.png,https://www.blushandbloom.com/shop/images/images_small/sleepyhead_white_pod-80x120.png,https://www.blushandbloom.com/shop/images/images_small/sleepyheadsilver-80x120.png
SLH-GP-CARRARA-MBL,Sleepyhead Grand Pod Carrara Marble,,Default,simple,,base,"<p>Introducing our multitasking stage 2 pod for children age 9-36 months. The GRAND is perfect for sleeping, cuddling, playing, lounging, resting and everything in between. It&rsquo;s ideal for travel - either from room to room, grandma&rsquo;s house or on vacation. It&rsquo;s also ideal for bed transitioning, thanks to built-in, air-permeable bumpers that act as bed rails, allowing young children to settle more easily in a bigger bed. Sleepyhead&reg; pods give little ones a snug sense of security in their newer, bigger beds. It also fits perfectly in most cribs. Additional covers are available for purchase to match your mood, room and style.</p>

<p>Designed with love in Sweden and made in Europe. All materials used are breathable, washable and hypoallergenic. Sleepyhead&reg; GRAND offers excellent air-permeability. All filling materials are sourced from world-leading suppliers with breathable, hygienic and non-toxic properties. Globally patented.</p>

<p>Testing and Certification received from the UK, Canada and the US. All materials used are breathable, washable and hypoallergenic. Sleepyhead&reg; offers excellent air-permeability. All filling materials are sourced from world-leading suppliers with breathable, hygienic and non-toxic properties. Globally patented.</p>

<p>Weight : 3,6 KG 60-cm wide x 25-cm high x 125-cm long</p>",,1,1,Taxable Goods,"Catalog, Search",1355,,,,,,,,,,,,Block after Info Column,,,,,,,,,,,Use config,,"has_options=1,quantity_and_stock_status=In Stock,required_options=11",10,0,1,0,0,1,1,0,0,1,1,,1,0,1,1,0,1,0,0,1,0,1,,,,,,,,,,,,https://www.blushandbloom.com/shop/images/images_small/grandpod_sleepyhead-80x120.png,https://www.blushandbloom.com/shop/images/images_small/grandpod_sleepyhead-80x120.png,https://www.blushandbloom.com/shop/images/images_small/grandpod_sleepyhead-80x120.png,https://www.blushandbloom.com/shop/images/images_small/sleepy-80x120.png,https://www.blushandbloom.com/shop/images/images_small/grandpod-80x120.png
SLH-COVER-BANANA,Sleepyhead Deluxe+ Extra Cover Bananas For You,,Default,simple,,base,"<p>PLUS EXTRA COVER FOR SLEEPYHEAD&reg; DELUXE POD NB: This item is a cover only (not a complete pod). This item fits the DELUXE pod.</p>

<p>DELUXE+ [plus] is the latest model with our patented toy loops, which means it is compatible with the patented Sleepyhead&reg; Toy Arches and Toy Sets (both sold separately; you can mix and match as you wish). You can easily upgrade your regular DELUXE pod to a DELUXE+, by buying a DELUXE+ spare cover.</p>

<p>Fully washable. Compatible with all Sleepyhead&reg; DELUXE and DELUXE+ pods.</p>

<p>Weight: 0,7 KG 45-cm wide x 15-cm high x 75-85-cm long [75-cm with clasps closed and 85-cm with clasps open]</p>",,1,1,Taxable Goods,"Catalog, Search",390,,,,,,,,,,,,Block after Info Column,,,,,,,,,,,Use config,,"has_options=1,quantity_and_stock_status=In Stock,required_options=14",10,0,1,0,0,1,1,0,0,1,1,,1,0,1,1,0,1,0,0,1,0,1,,,,,,,,,,,,https://www.blushandbloom.com/shop/images/images_small/bananaforyou_sleepyhead-80x120.png,https://www.blushandbloom.com/shop/images/images_small/bananaforyou_sleepyhead-80x120.png,https://www.blushandbloom.com/shop/images/images_small/bananaforyou_sleepyhead-80x120.png,https://www.blushandbloom.com/shop/images/images_small/SLEEPY_BANANA-80x120.png,https://www.blushandbloom.com/shop/images/images_small/DELUXE-80x120.png
7394322265807,Deluxe Pod Ms. Mighetto Night,,Default,simple,,base,"<p>The Sleepyhead&reg; DELUXE+ pod is the ultimate pod for your baby ages 0-8 months old. Multifunctional and multitasking, the Sleepyhead&reg; DELUXE offers a safe and comfy spot that lets baby sleep, rest, co-sleep, lounge, play, cuddle, do tummy time and get diaper changes. DELUXE pods are lightweight and portable, allowing for easy travel, from room to room, grandma&rsquo;s house or on vacation.</p>

<p>Additional covers are available for purchase to match your mood, room and style.</p>

<p>Designed with love in Sweden and made in Europe. All materials used are breathable, washable and hypoallergenic. Sleepyhead&reg; DELUXE offers excellent air-permeability.</p>

<p>All filling materials are sourced from world-leading suppliers with breathable, hygienic and non-toxic properties. Globally patented.</p>

<p>Testing and Certification &#8203; Sleepyhead&reg; has received the following certifications in the US, Canada and EU: &bull; Oeko-Tex certification, Standard 100, Class 1 (EU) &bull; All components Intertek tested for and proven free from harmful substances &bull; Tested for compliance with US Consumer Product Safety Improvement Act of 2008 &bull; Tension tested for 'Normal and reasonably foreseeable use and abuse&rsquo; &bull; Air permability according to BS4578 (UK) &bull; Resistant to ignition according to BS5852 (UK) &bull; 16 CRF 1632 flammability test compliant &bull; 16 CFR 1500.50 small parts and use &amp; abuse test compliant &bull; Free from phtalates &bull; Free from heavy metals &bull; ASTM F-963-11 compliant &bull; California Bulletins 116 and 117 flammability test compliant &bull; California Proposition 65 compliant &bull; 16 CFR PART 1500.53(f) (1-1-12) (CAN) compliant &bull; CAN/CGSB-4.2 N&deg; 27.5-2008 compliant &bull; Mattress pad is compliant with AU/NZS 8811.1:2013 Infant sleep surfaces - test for firmness &bull; ASTM D3574-08 Indentation Force Deflection test (US) proves high support factor &bull; Free from FR treatment &bull; REACH compliant</p>",,1.9,1,Taxable Goods,"Catalog, Search",935,,,,,,,,,,,,Block after Info Column,,,,,,,,,,,Use config,,"has_options=1,quantity_and_stock_status=In Stock,required_options=10",5,0,1,0,0,1,1,0,0,1,1,,1,0,1,1,0,1,0,0,1,0,1,,,,,,,,,,,,https://www.blushandbloom.com/shop/images/images_small/sleepy_mighetto_2_1-80x120.jpg,https://www.blushandbloom.com/shop/images/images_small/sleepy_mighetto_2_1-80x120.jpg,https://www.blushandbloom.com/shop/images/images_small/sleepy_mighetto_2_1-80x120.jpg,https://www.blushandbloom.com/shop/images/images_small/sleepy_mighetto_2_4-80x120.jpg,https://www.blushandbloom.com/shop/images/images_small/sleepy_mighetto_2_7-80x120.jpg
