sku,name,price,description,weight,qty,base_image,store_view_code,attribute_set_code,product_type,categories,product_websites,short_description,product_online,tax_class_name,visibility,special_price,special_price_from_date,special_price_to_date,url_key,meta_title,meta_keywords,meta_description,created_at,updated_at,new_from_date,new_to_date,display_product_options_in,map_price,msrp_price,map_enabled,gift_message_available,custom_design,custom_design_from,custom_design_to,custom_layout_update,page_layout,product_options_container,msrp_display_actual_price_type,country_of_manufacture,additional_attributes,out_of_stock_qty,use_config_min_qty,is_qty_decimal,allow_backorders,use_config_backorders,min_cart_qty,use_config_min_sale_qty,max_cart_qty,use_config_max_sale_qty,is_in_stock,notify_on_stock_below,use_config_notify_stock_qty,manage_stock,use_config_manage_stock,use_config_qty_increments,qty_increments,use_config_enable_qty_inc,enable_qty_increments,is_decimal_divided,website_id,deferred_stock_update,use_config_deferred_stock_update,related_skus,crosssell_skus,upsell_skus,hide_from_product_page,custom_options,bundle_price_type,bundle_sku_type,bundle_price_view,bundle_weight_type,bundle_values,associated_skus
7426999778370,Mushie Baby Bib Solid Colors - Pale Mauve,73.5,"<p>&quot;Keep your little one feeling comfy and clean with our fun-loving collection of silicone bibs. Designed in Sweden, mushie bibs feature classic patterns capturing a look that's both timeless and elegant.</p>

<p> Made from food-grade silicone, these playful bibs are BPA and phthalate free. Mushie bibs feature rounded, built-in neck fasteners for a snug and comfy fit. Deep front pocket is perfect for catching food, keeping your baby and surrounding area clean. Easy to clean, our silicone bib resists stains and does not absorb water. Wash with soap.&quot;</p>",0.2,20,https://www.blushandbloom.com/shop/images/images_big/7426999778370_Mushie_Baby_Bib_Solid_Colors_-_Pale_Mauve.jpg,,Default,simple,,base,,1,Taxable Goods,"Catalog, Search",,,,,,,,,,,,Block after Info Column,,,,,,,,,,,Use config,,"has_options=1,quantity_and_stock_status=In Stock,required_options=11",0,1,0,0,1,1,0,0,1,1,,1,0,1,1,0,1,0,0,1,0,1,,,,,,,,,,,
7426999778332,Mushie Baby Bib Solid Colors - Dusty Rose,73.5,"<p>&quot;Keep your little one feeling comfy and clean with our fun-loving collection of silicone bibs. Designed in Sweden, mushie bibs feature classic patterns capturing a look that's both timeless and elegant.</p>

<p> Made from food-grade silicone, these playful bibs are BPA and phthalate free. Mushie bibs feature rounded, built-in neck fasteners for a snug and comfy fit. Deep front pocket is perfect for catching food, keeping your baby and surrounding area clean. Easy to clean, our silicone bib resists stains and does not absorb water. Wash with soap.&quot;</p>",0.2,20,https://www.blushandbloom.com/shop/images/images_big/7426999778332_Mushie_Baby_Bib_Solid_Colors_-_Dusty_Rose.jpg,,Default,simple,,base,,1,Taxable Goods,"Catalog, Search",,,,,,,,,,,,Block after Info Column,,,,,,,,,,,Use config,,"has_options=1,quantity_and_stock_status=In Stock,required_options=12",0,1,0,0,1,1,0,0,1,1,,1,0,1,1,0,1,0,0,1,0,1,,,,,,,,,,,
7426999778301,Mushie Baby Bib Solid Colors - Arabian Spice,73.5,"<p>&quot;Keep your little one feeling comfy and clean with our fun-loving collection of silicone bibs. Designed in Sweden, mushie bibs feature classic patterns capturing a look that's both timeless and elegant.</p>

<p> Made from food-grade silicone, these playful bibs are BPA and phthalate free. Mushie bibs feature rounded, built-in neck fasteners for a snug and comfy fit. Deep front pocket is perfect for catching food, keeping your baby and surrounding area clean. Easy to clean, our silicone bib resists stains and does not absorb water. Wash with soap.&quot;</p>",0.2,20,https://www.blushandbloom.com/shop/images/images_big/7426999778301_Mushie_Baby_Bib_Solid_Colors_-_Arabian_Spice.jpg,,Default,simple,,base,,1,Taxable Goods,"Catalog, Search",,,,,,,,,,,,Block after Info Column,,,,,,,,,,,Use config,,"has_options=1,quantity_and_stock_status=In Stock,required_options=13",0,1,0,0,1,1,0,0,1,1,,1,0,1,1,0,1,0,0,1,0,1,,,,,,,,,,,
7426999778363,Mushie Baby Bib Solid Colors - Silver Sage,73.5,"<p>&quot;Keep your little one feeling comfy and clean with our fun-loving collection of silicone bibs. Designed in Sweden, mushie bibs feature classic patterns capturing a look that's both timeless and elegant.</p>

<p> Made from food-grade silicone, these playful bibs are BPA and phthalate free. Mushie bibs feature rounded, built-in neck fasteners for a snug and comfy fit. Deep front pocket is perfect for catching food, keeping your baby and surrounding area clean. Easy to clean, our silicone bib resists stains and does not absorb water. Wash with soap.&quot;</p>",0.2,20,https://www.blushandbloom.com/shop/images/images_big/7426999778363_Mushie_Baby_Bib_Solid_Colors_-_Silver_Sage.jpg,,Default,simple,,base,,1,Taxable Goods,"Catalog, Search",,,,,,,,,,,,Block after Info Column,,,,,,,,,,,Use config,,"has_options=1,quantity_and_stock_status=In Stock,required_options=14",0,1,0,0,1,1,0,0,1,1,,1,0,1,1,0,1,0,0,1,0,1,,,,,,,,,,,
7426999778295,Mushie Baby Bib Solid Colors - Cambridge Blue,73.5,"<p>&quot;Keep your little one feeling comfy and clean with our fun-loving collection of silicone bibs. Designed in Sweden, mushie bibs feature classic patterns capturing a look that's both timeless and elegant.</p>

<p> Made from food-grade silicone, these playful bibs are BPA and phthalate free. Mushie bibs feature rounded, built-in neck fasteners for a snug and comfy fit. Deep front pocket is perfect for catching food, keeping your baby and surrounding area clean. Easy to clean, our silicone bib resists stains and does not absorb water. Wash with soap.&quot;</p>",0.2,20,https://www.blushandbloom.com/shop/images/images_big/7426999778295_Mushie_Baby_Bib_Solid_Colors_-_Cambridge_Blue.jpg,,Default,simple,,base,,1,Taxable Goods,"Catalog, Search",,,,,,,,,,,,Block after Info Column,,,,,,,,,,,Use config,,"has_options=1,quantity_and_stock_status=In Stock,required_options=15",0,1,0,0,1,1,0,0,1,1,,1,0,1,1,0,1,0,0,1,0,1,,,,,,,,,,,
7426999778394,Mushie Baby Bib Solid Colors - Sparrow,73.5,"<p>&quot;Keep your little one feeling comfy and clean with our fun-loving collection of silicone bibs. Designed in Sweden, mushie bibs feature classic patterns capturing a look that's both timeless and elegant.</p>

<p> Made from food-grade silicone, these playful bibs are BPA and phthalate free. Mushie bibs feature rounded, built-in neck fasteners for a snug and comfy fit. Deep front pocket is perfect for catching food, keeping your baby and surrounding area clean. Easy to clean, our silicone bib resists stains and does not absorb water. Wash with soap.&quot;</p>",0.2,20,https://www.blushandbloom.com/shop/images/images_big/7426999778394Mushie_Baby_Bib_Solid_Colors_-_Sparrow.jpg,,Default,simple,,base,,1,Taxable Goods,"Catalog, Search",,,,,,,,,,,,Block after Info Column,,,,,,,,,,,Use config,,"has_options=1,quantity_and_stock_status=In Stock,required_options=16",0,1,0,0,1,1,0,0,1,1,,1,0,1,1,0,1,0,0,1,0,1,,,,,,,,,,,
7426999778387,Mushie Baby Bib Solid Colors - Warm Taupe,73.5,"<p>&quot;Keep your little one feeling comfy and clean with our fun-loving collection of silicone bibs. Designed in Sweden, mushie bibs feature classic patterns capturing a look that's both timeless and elegant.</p>

<p> Made from food-grade silicone, these playful bibs are BPA and phthalate free. Mushie bibs feature rounded, built-in neck fasteners for a snug and comfy fit. Deep front pocket is perfect for catching food, keeping your baby and surrounding area clean. Easy to clean, our silicone bib resists stains and does not absorb water. Wash with soap.&quot;</p>",0.2,20,https://www.blushandbloom.com/shop/images/images_big/7426999778387_Mushie_Baby_Bib_Solid_Colors_-_Warm_Taupe.jpg,,Default,simple,,base,,1,Taxable Goods,"Catalog, Search",,,,,,,,,,,,Block after Info Column,,,,,,,,,,,Use config,,"has_options=1,quantity_and_stock_status=In Stock,required_options=17",0,1,0,0,1,1,0,0,1,1,,1,0,1,1,0,1,0,0,1,0,1,,,,,,,,,,,
7426999778356,Mushie Baby Bib Solid Colors - Raw Sienna,73.5,"<p>&quot;Keep your little one feeling comfy and clean with our fun-loving collection of silicone bibs. Designed in Sweden, mushie bibs feature classic patterns capturing a look that's both timeless and elegant.</p>

<p> Made from food-grade silicone, these playful bibs are BPA and phthalate free. Mushie bibs feature rounded, built-in neck fasteners for a snug and comfy fit. Deep front pocket is perfect for catching food, keeping your baby and surrounding area clean. Easy to clean, our silicone bib resists stains and does not absorb water. Wash with soap.&quot;</p>",0.2,20,https://www.blushandbloom.com/shop/images/images_big/7426999778356_Mushie_Baby_Bib_Solid_Colors_-_Raw_Sienna.jpg,,Default,simple,,base,,1,Taxable Goods,"Catalog, Search",,,,,,,,,,,,Block after Info Column,,,,,,,,,,,Use config,,"has_options=1,quantity_and_stock_status=In Stock,required_options=18",0,1,0,0,1,1,0,0,1,1,,1,0,1,1,0,1,0,0,1,0,1,,,,,,,,,,,
7426999778318,Mushie Baby Bib Solid Colors - Mineral Yellow,73.5,"<p>&quot;Keep your little one feeling comfy and clean with our fun-loving collection of silicone bibs. Designed in Sweden, mushie bibs feature classic patterns capturing a look that's both timeless and elegant.</p>

<p> Made from food-grade silicone, these playful bibs are BPA and phthalate free. Mushie bibs feature rounded, built-in neck fasteners for a snug and comfy fit. Deep front pocket is perfect for catching food, keeping your baby and surrounding area clean. Easy to clean, our silicone bib resists stains and does not absorb water. Wash with soap.&quot;</p>",0.2,20,https://www.blushandbloom.com/shop/images/images_big/7426999778318_Mushie_Baby_Bib_Solid_Colors_-_Mineral_Yellow.jpg,,Default,simple,,base,,1,Taxable Goods,"Catalog, Search",,,,,,,,,,,,Block after Info Column,,,,,,,,,,,Use config,,"has_options=1,quantity_and_stock_status=In Stock,required_options=19",0,1,0,0,1,1,0,0,1,1,,1,0,1,1,0,1,0,0,1,0,1,,,,,,,,,,,
7426999778349,Mushie Baby Bib Solid Colors - Shifting Sands,73.5,"<p>&quot;Keep your little one feeling comfy and clean with our fun-loving collection of silicone bibs. Designed in Sweden, mushie bibs feature classic patterns capturing a look that's both timeless and elegant.</p>

<p> Made from food-grade silicone, these playful bibs are BPA and phthalate free. Mushie bibs feature rounded, built-in neck fasteners for a snug and comfy fit. Deep front pocket is perfect for catching food, keeping your baby and surrounding area clean. Easy to clean, our silicone bib resists stains and does not absorb water. Wash with soap.&quot;</p>",0.2,20,https://www.blushandbloom.com/shop/images/images_big/7426999778349Mushie_Baby_Bib_Solid_Colors_-_Shifting_Sands.jpg,,Default,simple,,base,,1,Taxable Goods,"Catalog, Search",,,,,,,,,,,,Block after Info Column,,,,,,,,,,,Use config,,"has_options=1,quantity_and_stock_status=In Stock,required_options=20",0,1,0,0,1,1,0,0,1,1,,1,0,1,1,0,1,0,0,1,0,1,,,,,,,,,,,
7426999778486,Mushie Baby Bib Printed Colors - Rocket,73.5,"<p>&quot;Keep your little one feeling comfy and clean with our fun-loving collection of silicone bibs. Designed in Sweden, mushie bibs feature classic patterns capturing a look that's both timeless and elegant.</p>

<p> Made from food-grade silicone, these playful bibs are BPA and phthalate free. Mushie bibs feature rounded, built-in neck fasteners for a snug and comfy fit. Deep front pocket is perfect for catching food, keeping your baby and surrounding area clean. Easy to clean, our silicone bib resists stains and does not absorb water. Wash with soap.&quot;</p>",0.2,20,https://www.blushandbloom.com/shop/images/images_big/7426999778486_Mushie_Baby_Bib_Printed_Colors_-_Rocket.jpg,,Default,simple,,base,,1,Taxable Goods,"Catalog, Search",,,,,,,,,,,,Block after Info Column,,,,,,,,,,,Use config,,"has_options=1,quantity_and_stock_status=In Stock,required_options=21",0,1,0,0,1,1,0,0,1,1,,1,0,1,1,0,1,0,0,1,0,1,,,,,,,,,,,
7426999778424,Mushie Baby Bib Printed Colors - Sun,73.5,"<p>&quot;Keep your little one feeling comfy and clean with our fun-loving collection of silicone bibs. Designed in Sweden, mushie bibs feature classic patterns capturing a look that's both timeless and elegant.</p>

<p> Made from food-grade silicone, these playful bibs are BPA and phthalate free. Mushie bibs feature rounded, built-in neck fasteners for a snug and comfy fit. Deep front pocket is perfect for catching food, keeping your baby and surrounding area clean. Easy to clean, our silicone bib resists stains and does not absorb water. Wash with soap.&quot;</p>",0.2,20,https://www.blushandbloom.com/shop/images/images_big/7426999778424_Mushie_Baby_Bib_PrintedColors_-_Sun.jpg,,Default,simple,,base,,1,Taxable Goods,"Catalog, Search",,,,,,,,,,,,Block after Info Column,,,,,,,,,,,Use config,,"has_options=1,quantity_and_stock_status=In Stock,required_options=22",0,1,0,0,1,1,0,0,1,1,,1,0,1,1,0,1,0,0,1,0,1,,,,,,,,,,,
7426999778493,Mushie Baby Bib Printed Colors - Retro Cars,73.5,"<p>&quot;Keep your little one feeling comfy and clean with our fun-loving collection of silicone bibs. Designed in Sweden, mushie bibs feature classic patterns capturing a look that's both timeless and elegant.</p>

<p> Made from food-grade silicone, these playful bibs are BPA and phthalate free. Mushie bibs feature rounded, built-in neck fasteners for a snug and comfy fit. Deep front pocket is perfect for catching food, keeping your baby and surrounding area clean. Easy to clean, our silicone bib resists stains and does not absorb water. Wash with soap.&quot;</p>",0.2,20,https://www.blushandbloom.com/shop/images/images_big/7426999778493_Mushie_Baby_Bib_Printed_Colors_-_Retro_Cars.jpg,,Default,simple,,base,,1,Taxable Goods,"Catalog, Search",,,,,,,,,,,,Block after Info Column,,,,,,,,,,,Use config,,"has_options=1,quantity_and_stock_status=In Stock,required_options=23",0,1,0,0,1,1,0,0,1,1,,1,0,1,1,0,1,0,0,1,0,1,,,,,,,,,,,
7426999778462,Mushie Baby Bib PrintedColors - Brown Safari,73.5,"<p>&quot;Keep your little one feeling comfy and clean with our fun-loving collection of silicone bibs. Designed in Sweden, mushie bibs feature classic patterns capturing a look that's both timeless and elegant.</p>

<p> Made from food-grade silicone, these playful bibs are BPA and phthalate free. Mushie bibs feature rounded, built-in neck fasteners for a snug and comfy fit. Deep front pocket is perfect for catching food, keeping your baby and surrounding area clean. Easy to clean, our silicone bib resists stains and does not absorb water. Wash with soap.&quot;</p>",0.2,20,https://www.blushandbloom.com/shop/images/images_big/7426999778462_Mushie_Baby_Bib_PrintedColors_-_Brown_Safari.jpg,,Default,simple,,base,,1,Taxable Goods,"Catalog, Search",,,,,,,,,,,,Block after Info Column,,,,,,,,,,,Use config,,"has_options=1,quantity_and_stock_status=In Stock,required_options=24",0,1,0,0,1,1,0,0,1,1,,1,0,1,1,0,1,0,0,1,0,1,,,,,,,,,,,
7426999778448,Mushie Baby Bib Printed Colors - White Letters,73.5,"<p>&quot;Keep your little one feeling comfy and clean with our fun-loving collection of silicone bibs. Designed in Sweden, mushie bibs feature classic patterns capturing a look that's both timeless and elegant.</p>

<p> Made from food-grade silicone, these playful bibs are BPA and phthalate free. Mushie bibs feature rounded, built-in neck fasteners for a snug and comfy fit. Deep front pocket is perfect for catching food, keeping your baby and surrounding area clean. Easy to clean, our silicone bib resists stains and does not absorb water. Wash with soap.&quot;</p>",0.2,20,https://www.blushandbloom.com/shop/images/images_big/7426999778448_Mushie_Baby_Bib_Printed_Colors_-_White_Letters.jpg,,Default,simple,,base,,1,Taxable Goods,"Catalog, Search",,,,,,,,,,,,Block after Info Column,,,,,,,,,,,Use config,,"has_options=1,quantity_and_stock_status=In Stock,required_options=25",0,1,0,0,1,1,0,0,1,1,,1,0,1,1,0,1,0,0,1,0,1,,,,,,,,,,,
7426999778431,Mushie Baby Bib Printed Colors - Black Numbers,73.5,"<p>&quot;Keep your little one feeling comfy and clean with our fun-loving collection of silicone bibs. Designed in Sweden, mushie bibs feature classic patterns capturing a look that's both timeless and elegant.</p>

<p> Made from food-grade silicone, these playful bibs are BPA and phthalate free. Mushie bibs feature rounded, built-in neck fasteners for a snug and comfy fit. Deep front pocket is perfect for catching food, keeping your baby and surrounding area clean. Easy to clean, our silicone bib resists stains and does not absorb water. Wash with soap.&quot;</p>",0.2,20,https://www.blushandbloom.com/shop/images/images_big/7426999778431_Mushie_Baby_Bib_Printed_Colors_-_Black_Numbers.jpg,,Default,simple,,base,,1,Taxable Goods,"Catalog, Search",,,,,,,,,,,,Block after Info Column,,,,,,,,,,,Use config,,"has_options=1,quantity_and_stock_status=In Stock,required_options=26",0,1,0,0,1,1,0,0,1,1,,1,0,1,1,0,1,0,0,1,0,1,,,,,,,,,,,
7426999778417,Mushie Baby Bib Printed Colors - Shells Smoke,73.5,"<p>&quot;Keep your little one feeling comfy and clean with our fun-loving collection of silicone bibs. Designed in Sweden, mushie bibs feature classic patterns capturing a look that's both timeless and elegant.</p>

<p> Made from food-grade silicone, these playful bibs are BPA and phthalate free. Mushie bibs feature rounded, built-in neck fasteners for a snug and comfy fit. Deep front pocket is perfect for catching food, keeping your baby and surrounding area clean. Easy to clean, our silicone bib resists stains and does not absorb water. Wash with soap.&quot;</p>",0.2,20,https://www.blushandbloom.com/shop/images/images_big/7426999778417_Mushie_Baby_Bib_Printed_Colors_-_Shells_Smoke.jpg,,Default,simple,,base,,1,Taxable Goods,"Catalog, Search",,,,,,,,,,,,Block after Info Column,,,,,,,,,,,Use config,,"has_options=1,quantity_and_stock_status=In Stock,required_options=27",0,1,0,0,1,1,0,0,1,1,,1,0,1,1,0,1,0,0,1,0,1,,,,,,,,,,,
7426999778479,Mushie Baby Bib Printed Colors - Planets,73.5,"<p>&quot;Keep your little one feeling comfy and clean with our fun-loving collection of silicone bibs. Designed in Sweden, mushie bibs feature classic patterns capturing a look that's both timeless and elegant.</p>

<p> Made from food-grade silicone, these playful bibs are BPA and phthalate free. Mushie bibs feature rounded, built-in neck fasteners for a snug and comfy fit. Deep front pocket is perfect for catching food, keeping your baby and surrounding area clean. Easy to clean, our silicone bib resists stains and does not absorb water. Wash with soap.&quot;</p>",0.2,20,https://www.blushandbloom.com/shop/images/images_big/426999778479_Mushie_Baby_Bib_Printed_Colors_-_Planets.jpg,,Default,simple,,base,,1,Taxable Goods,"Catalog, Search",,,,,,,,,,,,Block after Info Column,,,,,,,,,,,Use config,,"has_options=1,quantity_and_stock_status=In Stock,required_options=28",0,1,0,0,1,1,0,0,1,1,,1,0,1,1,0,1,0,0,1,0,1,,,,,,,,,,,
7426999778455,Mushie Baby Bib Printed Colors - Light Grey Safari,73.5,"<p>&quot;Keep your little one feeling comfy and clean with our fun-loving collection of silicone bibs. Designed in Sweden, mushie bibs feature classic patterns capturing a look that's both timeless and elegant.</p>

<p> Made from food-grade silicone, these playful bibs are BPA and phthalate free. Mushie bibs feature rounded, built-in neck fasteners for a snug and comfy fit. Deep front pocket is perfect for catching food, keeping your baby and surrounding area clean. Easy to clean, our silicone bib resists stains and does not absorb water. Wash with soap.&quot;</p>",0.2,20,https://www.blushandbloom.com/shop/images/images_big/7426999778448_Mushie_Baby_Bib_Printed_Colors_-_White_Letters.jpg,,Default,simple,,base,,1,Taxable Goods,"Catalog, Search",,,,,,,,,,,,Block after Info Column,,,,,,,,,,,Use config,,"has_options=1,quantity_and_stock_status=In Stock,required_options=29",0,1,0,0,1,1,0,0,1,1,,1,0,1,1,0,1,0,0,1,0,1,,,,,,,,,,,
