sku,store_view_code,attribute_set_code,product_type,categories,product_websites,name,description,short_description,weight,product_online,tax_class_name,visibility,brand,color,price,special_price,special_price_from_date,special_price_to_date,url_key,meta_title,meta_keywords,meta_description,created_at,updated_at,new_from_date,new_to_date,display_product_options_in,map_price,msrp_price,map_enabled,gift_message_available,custom_design,custom_design_from,custom_design_to,custom_layout_update,page_layout,product_options_container,msrp_display_actual_price_type,country_of_manufacture,additional_attributes,qty,out_of_stock_qty,use_config_min_qty,is_qty_decimal,allow_backorders,use_config_backorders,min_cart_qty,use_config_min_sale_qty,max_cart_qty,use_config_max_sale_qty,is_in_stock,notify_on_stock_below,use_config_notify_stock_qty,manage_stock,use_config_manage_stock,use_config_qty_increments,qty_increments,use_config_enable_qty_inc,enable_qty_increments,is_decimal_divided,website_id,deferred_stock_update,use_config_deferred_stock_update,related_skus,crosssell_skus,upsell_skus,hide_from_product_page,custom_options,bundle_price_type,bundle_sku_type,bundle_price_view,bundle_weight_type,bundle_values,associated_skus,base_image,small_image,thumbnail_image,additional_image_1,additional_image_2,additional_image_3,additional_image_4,errors
BTM02-1090T,,Default,simple,,base,"JUSTICE LEAGUE TROLLEY BAG 15""","<p>JUSTICE LEAGUE (3298) TROLLEY BAG 15&quot;</p>",,1,1,"Taxable Goods","Catalog, Search","BS-Marvel Heros",,169,,,,justice-league-trolley-bag-15,,,,,,,,"Block after Info Column",,,,,,,,,,,"Use config",,"has_options=1,quantity_and_stock_status=In Stock,required_options=10",10,0,1,0,0,1,1,0,0,1,1,,1,0,1,1,0,1,0,0,1,0,1,,,,,,,,,,,,,,,,,,,
BTM02-1092,,Default,simple,,base,"JUSTICE LEAGUE BACKPACK 18""","<p>JUSTICE LEAGUE (3243) BACKPACK 18&quot;</p>",,1,1,"Taxable Goods","Catalog, Search","BS-Marvel Heros",,129,,,,justice-league-trolley-bag-18,,,,,,,,"Block after Info Column",,,,,,,,,,,"Use config",,"has_options=1,quantity_and_stock_status=In Stock,required_options=11",10,0,1,0,0,1,1,0,0,1,1,,1,0,1,1,0,1,0,0,1,0,1,,,,,,,,,,,,,,,,,,,
BTM02-230,,Default,simple,,base,"JUSTICE LEAGUE  LUNCH BAG","<p>JUSTICE LEAGUE (3311) LUNCH BAG</p>",,1,1,"Taxable Goods","Catalog, Search","BS-Marvel Heros",,49,,,,justice-league-lunch-bag,,,,,,,,"Block after Info Column",,,,,,,,,,,"Use config",,"has_options=1,quantity_and_stock_status=In Stock,required_options=14",10,0,1,0,0,1,1,0,0,1,1,,1,0,1,1,0,1,0,0,1,0,1,,,,,,,,,,,,,,,,,,,
BTM02-623,,Default,simple,,base,"JUSTICE LEAGUE PENCIL CASE","<p>JUSTICE LEAGUE (3328) PENCIL CASE</p>",,1,1,"Taxable Goods","Catalog, Search","BS-Marvel Heros",,29.25,,,,justice-league-pencil-case,,,,,,,,"Block after Info Column",,,,,,,,,,,"Use config",,"has_options=1,quantity_and_stock_status=In Stock,required_options=10",10,0,1,0,0,1,1,0,0,1,1,,1,0,1,1,0,1,0,0,1,0,1,,,,,,,,,,,,,,,,,,,
BTM03-1061,,Default,simple,,base,"BATMAN PENCIL CASE","<p>BATMAN (3373) PENCIL CASE</p>",,1,1,"Taxable Goods","Catalog, Search",BS-BATMAN,,29.25,,,,batman-pencil-case,,,,,,,,"Block after Info Column",,,,,,,,,,,"Use config",,"has_options=1,quantity_and_stock_status=In Stock,required_options=11",9,0,1,0,0,1,1,0,0,1,1,,1,0,1,1,0,1,0,0,1,0,1,,,,,,,,,,,,,,,,,,,
FHBB-701-18B,,Default,simple,,base,"FULL STOP BACKPACK  19""","<p>FULL STOP (5001) BACKPACK  19&quot;</p>",,1,1,"Taxable Goods","Catalog, Search","BS-FULL STOP",,199,,,,fullstop-backpack-19,,,,,,,,"Block after Info Column",,,,,,,,,,,"Use config",,"has_options=1,quantity_and_stock_status=In Stock,required_options=14",3,0,1,0,0,1,1,0,0,1,1,,1,0,1,1,0,1,0,0,1,0,1,,,,,,,,,,,,,,,,,,,
FHBT-710-18B,,Default,simple,,base,"FULL STOP TROLLEY 18""","<p>FULL STOP (5025) TROLLEY 18&quot;</p>",,1,1,"Taxable Goods","Catalog, Search","BS-FULL STOP",,279,,,,fullstop-trolley-18-1,,,,,,,,"Block after Info Column",,,,,,,,,,,"Use config",,"has_options=1,quantity_and_stock_status=In Stock,required_options=10",6,0,1,0,0,1,1,0,0,1,1,,1,0,1,1,0,1,0,0,1,0,1,,,,,,,,,,,,,,,,,,,
FHBT-710-18D,,Default,simple,,base,"FULL STOP TROLLEY 18""","<p>FULL STOP (2771) TROLLEY 18&quot;</p>",,1,1,"Taxable Goods","Catalog, Search","BS-FULL STOP",,279,,,,fullstop-trolley-18-2,,,,,,,,"Block after Info Column",,,,,,,,,,,"Use config",,"has_options=1,quantity_and_stock_status=In Stock,required_options=11",5,0,1,0,0,1,1,0,0,1,1,,1,0,1,1,0,1,0,0,1,0,1,,,,,,,,,,,,,,,,,,,
FHSP-623-18B,,Default,simple,,base,"FULL STOP PENCIL CASE","<p>FULL STOP (5032) PENCIL CASE</p>",,1,1,"Taxable Goods","Catalog, Search","BS-FULL STOP",,29.25,,,,fullstop-pencil-case,,,,,,,,"Block after Info Column",,,,,,,,,,,"Use config",,"has_options=1,quantity_and_stock_status=In Stock,required_options=14",3,0,1,0,0,1,1,0,0,1,1,,1,0,1,1,0,1,0,0,1,0,1,,,,,,,,,,,,,,,,,,,
HK400B-1002,,Default,simple,,base,"HELLO KITTY TROLLEY BAG 17""","<p>HELLO KITTY (7593) TROLLEY BAG 17&quot;</p>",,1,1,"Taxable Goods","Catalog, Search","BS-Hello Kitty",,189,,,,hellokitty-trolley-bag-17,,,,,,,,"Block after Info Column",,,,,,,,,,,"Use config",,"has_options=1,quantity_and_stock_status=In Stock,required_options=10",20,0,1,0,0,1,1,0,0,1,1,,1,0,1,1,0,1,0,0,1,0,1,,,,,,,,,,,,,,,,,,,
HK400B-1014,,Default,simple,,base,"Hello Kitty KINDER B-PACK WATER BOTTLE LUNCHBOX FORK and SPOON 11""","<p>HK (2574) KINDER B-PACK WATER BOTTLE LUNCHBOX FORK and SPOON 11&quot;</p>",,1,1,"Taxable Goods","Catalog, Search","BS-Hello Kitty",,89.25,,,,kinder-backpack,,,,,,,,"Block after Info Column",,,,,,,,,,,"Use config",,"has_options=1,quantity_and_stock_status=In Stock,required_options=11",2,0,1,0,0,1,1,0,0,1,1,,1,0,1,1,0,1,0,0,1,0,1,,,,,,,,,,,,,,,,,,,
HK400B-1090,,Default,simple,,base,"HELLO KITTY BACKPACK 15""","<p>HELLO KITTY (2550) BACKPACK 15&quot;</p>",,1,1,"Taxable Goods","Catalog, Search","BS-Hello Kitty",,109,,,,hellokitty-backpack-15,,,,,,,,"Block after Info Column",,,,,,,,,,,"Use config",,"has_options=1,quantity_and_stock_status=In Stock,required_options=14",10,0,1,0,0,1,1,0,0,1,1,,1,0,1,1,0,1,0,0,1,0,1,,,,,,,,,,,,,,,,,,,
HK400B-1090T,,Default,simple,,base,"HELLO KITTY TROLLEY BAG 15""","<p>HELLO KITTY (2598) TROLLEY BAG 15&quot;</p>",,1,1,"Taxable Goods","Catalog, Search","BS-Hello Kitty",,169,,,,hellokitty-trolley-bag-15,,,,,,,,"Block after Info Column",,,,,,,,,,,"Use config",,"has_options=1,quantity_and_stock_status=In Stock,required_options=10",10,0,1,0,0,1,1,0,0,1,1,,1,0,1,1,0,1,0,0,1,0,1,,,,,,,,,,,,,,,,,,,
HK400B-1091T,,Default,simple,,base,"HELLO KITTY  TROLLEY BAG 13""","<p>HELLO KITTY (2604) TROLLEY BAG 13&quot;</p>",,1,1,"Taxable Goods","Catalog, Search","BS-Hello Kitty",,129,,,,hellokitty-trolley-bag-13,,,,,,,,"Block after Info Column",,,,,,,,,,,"Use config",,"has_options=1,quantity_and_stock_status=In Stock,required_options=11",10,0,1,0,0,1,1,0,0,1,1,,1,0,1,1,0,1,0,0,1,0,1,,,,,,,,,,,,,,,,,,,
HK400B-1092,,Default,simple,,base,"HELLO KITTY BACKPACK 18""","<p>HELLO KITTY (2543) BACKPACK 18&quot;</p>",,1,1,"Taxable Goods","Catalog, Search","BS-Hello Kitty",,129,,,,hellokitty-backpack-18,,,,,,,,"Block after Info Column",,,,,,,,,,,"Use config",,"has_options=1,quantity_and_stock_status=In Stock,required_options=14",10,0,1,0,0,1,1,0,0,1,1,,1,0,1,1,0,1,0,0,1,0,1,,,,,,,,,,,,,,,,,,,
HK400B-1092T,,Default,simple,,base,"HELLO KITTY TROLLEY BAG 18""","<p>HELLO KITTY (2581) TROLLEY BAG 18&quot;</p>",,1,1,"Taxable Goods","Catalog, Search","BS-Hello Kitty",,199,,,,hellokitty-trolley-bag-18,,,,,,,,"Block after Info Column",,,,,,,,,,,"Use config",,"has_options=1,quantity_and_stock_status=In Stock,required_options=10",11,0,1,0,0,1,1,0,0,1,1,,1,0,1,1,0,1,0,0,1,0,1,,,,,,,,,,,,,,,,,,,
HK400B-240,,Default,simple,,base,"HELLO KITTY LUNCH BAG","<p>HELLO KITTY (7609) LUNCH BAG</p>",,1,1,"Taxable Goods","Catalog, Search","BS-Hello Kitty",,69,,,,hellokitty-lunch-bag,,,,,,,,"Block after Info Column",,,,,,,,,,,"Use config",,"has_options=1,quantity_and_stock_status=In Stock,required_options=11",19,0,1,0,0,1,1,0,0,1,1,,1,0,1,1,0,1,0,0,1,0,1,,,,,,,,,,,,,,,,,,,
HK400B-623,,Default,simple,,base,"HELLO KITTY ROUND PENCIL CASE","<p>HELLO KITTY (2628) ROUND PENCIL CASE</p>",,1,1,"Taxable Goods","Catalog, Search","BS-Hello Kitty",,29.25,,,,hello-kitty-round-pencil-case,,,,,,,,"Block after Info Column",,,,,,,,,,,"Use config",,"has_options=1,quantity_and_stock_status=In Stock,required_options=14",21,0,1,0,0,1,1,0,0,1,1,,1,0,1,1,0,1,0,0,1,0,1,,,,,,,,,,,,,,,,,,,
HK505-1090,,Default,simple,,base,"HELLO KITTY BACKPACK 15""","<p>HELLO KITTY (2710) BACKPACK 15&quot;</p>",,1,1,"Taxable Goods","Catalog, Search","BS-Hello Kitty",,109,,,,hello-kitty-backpack-15,,,,,,,,"Block after Info Column",,,,,,,,,,,"Use config",,"has_options=1,quantity_and_stock_status=In Stock,required_options=10",9,0,1,0,0,1,1,0,0,1,1,,1,0,1,1,0,1,0,0,1,0,1,,,,,,,,,,,,,,,,,,,
HK505-1090T,,Default,simple,,base,"HELLO KITTY TROLLEY BAG 15""","<p>HELLO KITTY (2758) TROLLEY BAG 15&quot;</p>",,1,1,"Taxable Goods","Catalog, Search","BS-Hello Kitty",,169,,,,hello-kitty-trolley-bag-15,,,,,,,,"Block after Info Column",,,,,,,,,,,"Use config",,"has_options=1,quantity_and_stock_status=In Stock,required_options=11",10,0,1,0,0,1,1,0,0,1,1,,1,0,1,1,0,1,0,0,1,0,1,,,,,,,,,,,,,,,,,,,
HK505-1091,,Default,simple,,base,"HELLO KITTY BACKPACK 13""","<p>HELLO KITTY (2727) BACKPACK 13&quot;</p>",,1,1,"Taxable Goods","Catalog, Search","BS-Hello Kitty",,99,,,,hellokitty-backpack-13,,,,,,,,"Block after Info Column",,,,,,,,,,,"Use config",,"has_options=1,quantity_and_stock_status=In Stock,required_options=14",1,0,1,0,0,1,1,0,0,1,1,,1,0,1,1,0,1,0,0,1,0,1,,,,,,,,,,,,,,,,,,,
HK505-1091T,,Default,simple,,base,"HELLO KITTY TROLLEY BAG 13""","<p>HELLO KITTY (2765) TROLLEY BAG 13&quot;</p>",,1,1,"Taxable Goods","Catalog, Search","BS-Hello Kitty",,129,,,,hello-kitty-trolley-bag-13,,,,,,,,"Block after Info Column",,,,,,,,,,,"Use config",,"has_options=1,quantity_and_stock_status=In Stock,required_options=10",10,0,1,0,0,1,1,0,0,1,1,,1,0,1,1,0,1,0,0,1,0,1,,,,,,,,,,,,,,,,,,,
HK505-1092,,Default,simple,,base,"HELLO KITTY BACKPACK 18""","<p>HELLO KITTY (2703) BACKPACK 18&quot;</p>",,1,1,"Taxable Goods","Catalog, Search","BS-Hello Kitty",,129,,,,hello-kitty-backpack-18,,,,,,,,"Block after Info Column",,,,,,,,,,,"Use config",,"has_options=1,quantity_and_stock_status=In Stock,required_options=11",16,0,1,0,0,1,1,0,0,1,1,,1,0,1,1,0,1,0,0,1,0,1,,,,,,,,,,,,,,,,,,,
HK505-1092T,,Default,simple,,base,"HELLO KITTY TROLLEY BAG 18""","<p>HELLO KITTY (2741) TROLLEY BAG 18&quot;</p>",,1,1,"Taxable Goods","Catalog, Search","BS-Hello Kitty",,199,,,,hello-kitty-trolley-bag-18-1,,,,,,,,"Block after Info Column",,,,,,,,,,,"Use config",,"has_options=1,quantity_and_stock_status=In Stock,required_options=14",10,0,1,0,0,1,1,0,0,1,1,,1,0,1,1,0,1,0,0,1,0,1,,,,,,,,,,,,,,,,,,,
HK505-230,,Default,simple,,base,"HELLO KITTY LUNCH BAG","<p>HELLO KITTY (2772) LUNCH BAG</p>",,1,1,"Taxable Goods","Catalog, Search","BS-Hello Kitty",,49,,,,hello-kitty-lunch-bag-1,,,,,,,,"Block after Info Column",,,,,,,,,,,"Use config",,"has_options=1,quantity_and_stock_status=In Stock,required_options=10",10,0,1,0,0,1,1,0,0,1,1,,1,0,1,1,0,1,0,0,1,0,1,,,,,,,,,,,,,,,,,,,
HK505-623,,Default,simple,,base,"HELLO KITTY ROUND PENCIL CASE","<p>HELLO KITTY (2789) ROUND PENCIL CASE</p>",,1,1,"Taxable Goods","Catalog, Search","BS-Hello Kitty",,29.25,,,,hello-kitty-round-pencil-case-,,,,,,,,"Block after Info Column",,,,,,,,,,,"Use config",,"has_options=1,quantity_and_stock_status=In Stock,required_options=11",20,0,1,0,0,1,1,0,0,1,1,,1,0,1,1,0,1,0,0,1,0,1,,,,,,,,,,,,,,,,,,,
HK510-1090,,Default,simple,,base,"HELLO KITTY BACKPACK 15""","<p>HELLO KITTY (2802) BACKPACK 15&quot;</p>",,1,1,"Taxable Goods","Catalog, Search","BS-Hello Kitty",,119.25,,,,hello-kitty-backpack-15-2,,,,,,,,"Block after Info Column",,,,,,,,,,,"Use config",,"has_options=1,quantity_and_stock_status=In Stock,required_options=14",10,0,1,0,0,1,1,0,0,1,1,,1,0,1,1,0,1,0,0,1,0,1,,,,,,,,,,,,,,,,,,,
HK510-1090T,,Default,simple,,base,"HELLO KITTY TROLLEY BAG 15""","<p>HELLO KITTY (2840) TROLLEY BAG 15&quot;</p>",,1,1,"Taxable Goods","Catalog, Search","BS-Hello Kitty",,179.25,,,,hello-kitty-trolley-bag-15-2,,,,,,,,"Block after Info Column",,,,,,,,,,,"Use config",,"has_options=1,quantity_and_stock_status=In Stock,required_options=10",9,0,1,0,0,1,1,0,0,1,1,,1,0,1,1,0,1,0,0,1,0,1,,,,,,,,,,,,,,,,,,,
HK510-1092T,,Default,simple,,base,"HELLO KITTY TROLLEY BAG 18""","<p>HELLO KITTY (2833) TROLLEY BAG 18&quot;</p>",,1,1,"Taxable Goods","Catalog, Search","BS-Hello Kitty",,199,,,,hello-kitty-trolley-bag-18-2,,,,,,,,"Block after Info Column",,,,,,,,,,,"Use config",,"has_options=1,quantity_and_stock_status=In Stock,required_options=11",10,0,1,0,0,1,1,0,0,1,1,,1,0,1,1,0,1,0,0,1,0,1,,,,,,,,,,,,,,,,,,,
HK510-230,,Default,simple,,base,"HELLO KITTY LUNCH BAG","<p>HELLO KITTY (2864) LUNCH BAG</p>",,1,1,"Taxable Goods","Catalog, Search","BS-Hello Kitty",,49,,,,hello-kitty-lunch-bag-2,,,,,,,,"Block after Info Column",,,,,,,,,,,"Use config",,"has_options=1,quantity_and_stock_status=In Stock,required_options=14",20,0,1,0,0,1,1,0,0,1,1,,1,0,1,1,0,1,0,0,1,0,1,,,,,,,,,,,,,,,,,,,
HK510-623,,Default,simple,,base,"HELLO KITTY PENCIL CASE","<p>HELLO KITTY (2871) PENCIL CASE</p>",,1,1,"Taxable Goods","Catalog, Search","BS-Hello Kitty",,29.25,,,,hellokitty-pencil-case-5,,,,,,,,"Block after Info Column",,,,,,,,,,,"Use config",,"has_options=1,quantity_and_stock_status=In Stock,required_options=10",20,0,1,0,0,1,1,0,0,1,1,,1,0,1,1,0,1,0,0,1,0,1,,,,,,,,,,,,,,,,,,,
HK511-1002,,Default,simple,,base,"HELLO KITTY TROLLEY BAG 17""","<p>HELLO KITTY (7630) TROLLEY BAG 17&quot;</p>",,1,1,"Taxable Goods","Catalog, Search","BS-Hello Kitty",,189,,,,hello-kitty-trolley-bag-17-3,,,,,,,,"Block after Info Column",,,,,,,,,,,"Use config",,"has_options=1,quantity_and_stock_status=In Stock,required_options=11",6,0,1,0,0,1,1,0,0,1,1,,1,0,1,1,0,1,0,0,1,0,1,,,,,,,,,,,,,,,,,,,
HK511-1014,,Default,simple,,base,"Hello Kitty KINDER B-PACK WATER BOTTLE LUNCHBOX FORK and SPOON 11""","<p>HK (2918) KINDER B-PACK WATER BOTTLE LUNCHBOX FORK and SPOON 11&quot;</p>",,1,1,"Taxable Goods","Catalog, Search","BS-Hello Kitty",,89.25,,,,hello-kitty-kinder-b-pack-water-bottle-lunchbox-fork-and-spoon-11-3,,,,,,,,"Block after Info Column",,,,,,,,,,,"Use config",,"has_options=1,quantity_and_stock_status=In Stock,required_options=14",14,0,1,0,0,1,1,0,0,1,1,,1,0,1,1,0,1,0,0,1,0,1,,,,,,,,,,,,,,,,,,,
HK511-1090,,Default,simple,,base,"HELLO KITTY  BACKPACK 15""","<p>HELLO KITTY (2895) BACKPACK 15&quot;</p>",,1,1,"Taxable Goods","Catalog, Search","BS-Hello Kitty",,109,,,,hello-kitty-backpack-15-3,,,,,,,,"Block after Info Column",,,,,,,,,,,"Use config",,"has_options=1,quantity_and_stock_status=In Stock,required_options=10",10,0,1,0,0,1,1,0,0,1,1,,1,0,1,1,0,1,0,0,1,0,1,,,,,,,,,,,,,,,,,,,
HK511-1090T,,Default,simple,,base,"HELLO KITTY TROLLEY BAG 15""","<p>HELLO KITTY (2932) TROLLEY BAG 15&quot;</p>",,1,1,"Taxable Goods","Catalog, Search","BS-Hello Kitty",,169,,,,hello-kitty-trolley-bag-15-3,,,,,,,,"Block after Info Column",,,,,,,,,,,"Use config",,"has_options=1,quantity_and_stock_status=In Stock,required_options=11",10,0,1,0,0,1,1,0,0,1,1,,1,0,1,1,0,1,0,0,1,0,1,,,,,,,,,,,,,,,,,,,
HK511-1091T,,Default,simple,,base,"HELLO KITTY TROLLEY BAG 13""","<p>HELLO KITTY (2949) TROLLEY BAG 13&quot;</p>",,1,1,"Taxable Goods","Catalog, Search","BS-Hello Kitty",,129,,,,hello-kitty-trolley-bag-13-3,,,,,,,,"Block after Info Column",,,,,,,,,,,"Use config",,"has_options=1,quantity_and_stock_status=In Stock,required_options=14",10,0,1,0,0,1,1,0,0,1,1,,1,0,1,1,0,1,0,0,1,0,1,,,,,,,,,,,,,,,,,,,
HK511-1092,,Default,simple,,base,"HELLO KITTY BACKPACK 18""","<p>HELLO KITTY (2888) BACKPACK 18&quot;</p>",,1,1,"Taxable Goods","Catalog, Search","BS-Hello Kitty",,129,,,,hello-kitty-backpack-18-4,,,,,,,,"Block after Info Column",,,,,,,,,,,"Use config",,"has_options=1,quantity_and_stock_status=In Stock,required_options=10",10,0,1,0,0,1,1,0,0,1,1,,1,0,1,1,0,1,0,0,1,0,1,,,,,,,,,,,,,,,,,,,
HK511-1092T,,Default,simple,,base,"HELLO KITTY TROLLEY BAG 18""","<p>HELLO KITTY (2925) TROLLEY BAG 18&quot;</p>",,1,1,"Taxable Goods","Catalog, Search","BS-Hello Kitty",,199,,,,hello-kitty-trolley-bag-18-4,,,,,,,,"Block after Info Column",,,,,,,,,,,"Use config",,"has_options=1,quantity_and_stock_status=In Stock,required_options=11",10,0,1,0,0,1,1,0,0,1,1,,1,0,1,1,0,1,0,0,1,0,1,,,,,,,,,,,,,,,,,,,
HK511-240,,Default,simple,,base,"HELLO KITTY LUNCH BAG","<p>HELLO KITTY (7647) LUNCH BAG</p>",,1,1,"Taxable Goods","Catalog, Search","BS-Hello Kitty",,69,,,,hello-kitty-lunch-bag-4,,,,,,,,"Block after Info Column",,,,,,,,,,,"Use config",,"has_options=1,quantity_and_stock_status=In Stock,required_options=14",20,0,1,0,0,1,1,0,0,1,1,,1,0,1,1,0,1,0,0,1,0,1,,,,,,,,,,,,,,,,,,,
HK511-623,,Default,simple,,base,"HELLO KITTY ROUND PENCIL CASE","<p>HELLO KITTY (2963) ROUND PENCIL CASE</p>",,1,1,"Taxable Goods","Catalog, Search","BS-Hello Kitty",,29.25,,,,hello-kitty-round-pencil-case-4,,,,,,,,"Block after Info Column",,,,,,,,,,,"Use config",,"has_options=1,quantity_and_stock_status=In Stock,required_options=10",20,0,1,0,0,1,1,0,0,1,1,,1,0,1,1,0,1,0,0,1,0,1,,,,,,,,,,,,,,,,,,,
HKU402-1012,,Default,simple,,base,"HELLO KITTY  TROLLEY 16""","<p>HELLO KITTY (2666) TROLLEY 16&quot;</p>",,1,1,"Taxable Goods","Catalog, Search","BS-Hello Kitty",,189,,,,hello-kitty-trolley-16-1,,,,,,,,"Block after Info Column",,,,,,,,,,,"Use config",,"has_options=1,quantity_and_stock_status=In Stock,required_options=11",28,0,1,0,0,1,1,0,0,1,1,,1,0,1,1,0,1,0,0,1,0,1,,,,,,,,,,,,,,,,,,,
HKU402-1013,,Default,simple,,base,"HELLO KITTY  LUNCH BAG","<p>HELLO KITTY (2680) LUNCH BAG</p>",,1,1,"Taxable Goods","Catalog, Search","BS-Hello Kitty",,69,,,,hellokitty-lunch-bag-11,,,,,,,,"Block after Info Column",,,,,,,,,,,"Use config",,"has_options=1,quantity_and_stock_status=In Stock,required_options=14",20,0,1,0,0,1,1,0,0,1,1,,1,0,1,1,0,1,0,0,1,0,1,,,,,,,,,,,,,,,,,,,
HKU402-1095,,Default,simple,,base,"HELLO KITTY BACKPACK 16""","<p>HELLO KITTY (2659) BACKPACK 16&quot;</p>",,1,1,"Taxable Goods","Catalog, Search","BS-Hello Kitty",,119.25,,,,hello-kitty-backpack-16,,,,,,,,"Block after Info Column",,,,,,,,,,,"Use config",,"has_options=1,quantity_and_stock_status=In Stock,required_options=10",10,0,1,0,0,1,1,0,0,1,1,,1,0,1,1,0,1,0,0,1,0,1,,,,,,,,,,,,,,,,,,,
HKU402-503,,Default,simple,,base,"HELLO KITTY  BACKPACK 18""","<p>HELLO KITTY (2642) BACKPACK 18&quot;</p>",,1,1,"Taxable Goods","Catalog, Search","BS-Hello Kitty",,149.25,,,,hello-kitty-backpack-18-1,,,,,,,,"Block after Info Column",,,,,,,,,,,"Use config",,"has_options=1,quantity_and_stock_status=In Stock,required_options=11",10,0,1,0,0,1,1,0,0,1,1,,1,0,1,1,0,1,0,0,1,0,1,,,,,,,,,,,,,,,,,,,
HKU402-56399,,Default,simple,,base,"HELLO KITTY BACKPACK 17""","<p>HELLO KITTY (2635) BACKPACK 17&quot;</p>",,1,1,"Taxable Goods","Catalog, Search","BS-Hello Kitty",,129,,,,hello-kitty-backpack-17,,,,,,,,"Block after Info Column",,,,,,,,,,,"Use config",,"has_options=1,quantity_and_stock_status=In Stock,required_options=14",10,0,1,0,0,1,1,0,0,1,1,,1,0,1,1,0,1,0,0,1,0,1,,,,,,,,,,,,,,,,,,,
HKU402-623,,Default,simple,,base,"HELLO KITTY PENCIL CASE","<p>HELLO KITTY (2697) PENCIL CASE</p>",,1,1,"Taxable Goods","Catalog, Search","BS-Hello Kitty",,29.25,,,,hello-kitty-pencil-case-21,,,,,,,,"Block after Info Column",,,,,,,,,,,"Use config",,"has_options=1,quantity_and_stock_status=In Stock,required_options=10",20,0,1,0,0,1,1,0,0,1,1,,1,0,1,1,0,1,0,0,1,0,1,,,,,,,,,,,,,,,,,,,
HKU402-806A,,Default,simple,,base,"HELLO KITTY TROLLEY BAG 18.5""","<p>HELLO KITTY (2673) TROLLEY BAG 18.5&quot;</p>",,1,1,"Taxable Goods","Catalog, Search","BS-Hello Kitty",,259,,,,hello-kitty-trolley-bag-19-1,,,,,,,,"Block after Info Column",,,,,,,,,,,"Use config",,"has_options=1,quantity_and_stock_status=In Stock,required_options=11",2,0,1,0,0,1,1,0,0,1,1,,1,0,1,1,0,1,0,0,1,0,1,,,,,,,,,,,,,,,,,,,
HKU403-1012,,Default,simple,,base,"HELLO KITTY TROLLEY 16""","<p>HELLO KITTY (3007) TROLLEY 16&quot;</p>",,1,1,"Taxable Goods","Catalog, Search","BS-Hello Kitty",,189,,,,hello-kitty-trolley-16-2,,,,,,,,"Block after Info Column",,,,,,,,,,,"Use config",,"has_options=1,quantity_and_stock_status=In Stock,required_options=14",9,0,1,0,0,1,1,0,0,1,1,,1,0,1,1,0,1,0,0,1,0,1,,,,,,,,,,,,,,,,,,,
HKU403-1013,,Default,simple,,base,"HELLO KITTY LUNCH BAG","<p>HELLO KITTY (3021) LUNCH BAG</p>",,1,1,"Taxable Goods","Catalog, Search","BS-Hello Kitty",,69,,,,hello-kitty-lunch-bag-2,,,,,,,,"Block after Info Column",,,,,,,,,,,"Use config",,"has_options=1,quantity_and_stock_status=In Stock,required_options=10",20,0,1,0,0,1,1,0,0,1,1,,1,0,1,1,0,1,0,0,1,0,1,,,,,,,,,,,,,,,,,,,"Url key: 'hello-kitty-lunch-bag-2' was already generated for an item with the SKU: 'HK510-230'. You need to specify the unique URL key manually"
HKU403-1095,,Default,simple,,base,"HELLO KITTY BACKPACK 16""","<p>HELLO KITTY (2994) BACKPACK 16&quot;</p>",,1,1,"Taxable Goods","Catalog, Search","BS-Hello Kitty",,119.25,,,,hello-kitty-backpack-16-3,,,,,,,,"Block after Info Column",,,,,,,,,,,"Use config",,"has_options=1,quantity_and_stock_status=In Stock,required_options=11",10,0,1,0,0,1,1,0,0,1,1,,1,0,1,1,0,1,0,0,1,0,1,,,,,,,,,,,,,,,,,,,
HKU403-503,,Default,simple,,base,"HELLO KITTY BACKPACK 18""","<p>HELLO KITTY (2987) BACKPACK 18&quot;</p>",,1,1,"Taxable Goods","Catalog, Search","BS-Hello Kitty",,149.25,,,,hello-kitty-backpack-18-22,,,,,,,,"Block after Info Column",,,,,,,,,,,"Use config",,"has_options=1,quantity_and_stock_status=In Stock,required_options=14",10,0,1,0,0,1,1,0,0,1,1,,1,0,1,1,0,1,0,0,1,0,1,,,,,,,,,,,,,,,,,,,
HKU403-56399,,Default,simple,,base,"HELLO KITTY BACKPACK 17""","<p>HELLO KITTY (2970) BACKPACK 17&quot;</p>",,1,1,"Taxable Goods","Catalog, Search","BS-Hello Kitty",,129,,,,hello-kitty-backpack-17-22,,,,,,,,"Block after Info Column",,,,,,,,,,,"Use config",,"has_options=1,quantity_and_stock_status=In Stock,required_options=10",10,0,1,0,0,1,1,0,0,1,1,,1,0,1,1,0,1,0,0,1,0,1,,,,,,,,,,,,,,,,,,,
HKU403-623,,Default,simple,,base,"HELLO KITTY PENCIL CASE","<p>HELLO KITTY (3038) PENCIL CASE</p>",,1,1,"Taxable Goods","Catalog, Search","BS-Hello Kitty",,29.25,,,,hello-kitty-pencil-case-22,,,,,,,,"Block after Info Column",,,,,,,,,,,"Use config",,"has_options=1,quantity_and_stock_status=In Stock,required_options=11",20,0,1,0,0,1,1,0,0,1,1,,1,0,1,1,0,1,0,0,1,0,1,,,,,,,,,,,,,,,,,,,
HKU403-806A,,Default,simple,,base,"HELLO KITTY TROLLEY BAG 18.5""","<p>HELLO KITTY (3014) TROLLEY BAG 18.5&quot;</p>",,1,1,"Taxable Goods","Catalog, Search","BS-Hello Kitty",,259,,,,hello-kitty-trolley-bag-18-6,,,,,,,,"Block after Info Column",,,,,,,,,,,"Use config",,"has_options=1,quantity_and_stock_status=In Stock,required_options=14",11,0,1,0,0,1,1,0,0,1,1,,1,0,1,1,0,1,0,0,1,0,1,,,,,,,,,,,,,,,,,,,
HPR-13A,,Default,simple,,base,"HELLO KITTY TROLLEY BAG 6 IN 1","<p>HELLO KITTY TROLLEY BAG 6 IN 1 (8088)</p>",,1,1,"Taxable Goods","Catalog, Search","BS-Hello Kitty",,189,,,,hello-kitty-trolley-bag-6-in-1,,,,,,,,"Block after Info Column",,,,,,,,,,,"Use config",,"has_options=1,quantity_and_stock_status=In Stock,required_options=10",2,0,1,0,0,1,1,0,0,1,1,,1,0,1,1,0,1,0,0,1,0,1,,,,,,,,,,,,,,,,,,,
HPR-14,,Default,simple,,base,"HELLO KITTY TROLLEY BAG 6 IN 1","<p>HELLO KITTY TROLLEY BAG 6 IN 1 (8095)</p>",,1,1,"Taxable Goods","Catalog, Search","BS-Hello Kitty",,189,,,,hello-kitty-trolley-bag-6-in-1-1,,,,,,,,"Block after Info Column",,,,,,,,,,,"Use config",,"has_options=1,quantity_and_stock_status=In Stock,required_options=11",6,0,1,0,0,1,1,0,0,1,1,,1,0,1,1,0,1,0,0,1,0,1,,,,,,,,,,,,,,,,,,,
LPR-11,,Default,simple,,base,"LULU CATY TROLLEY BAG 6 IN 1","<p>LULU CATY TROLLEY BAG 6 IN 1 (8019)</p>",,1,1,"Taxable Goods","Catalog, Search","BS-Lulu Catty",,189,,,,lulu-caty-trolley-bag-6-in-1,,,,,,,,"Block after Info Column",,,,,,,,,,,"Use config",,"has_options=1,quantity_and_stock_status=In Stock,required_options=14",11,0,1,0,0,1,1,0,0,1,1,,1,0,1,1,0,1,0,0,1,0,1,,,,,,,,,,,,,,,,,,,
MTPR-01,,Default,simple,,base,"MY LITTLE PONY TROLLEY BAG 6 IN 1 ","<p>MY LITTLE PONY TROLLEY BAG 6 IN 1 (8026)</p>",,1,1,"Taxable Goods","Catalog, Search","BS-My Little Pony",,189,,,,little-pony-trolley-bag-6-in-1,,,,,,,,"Block after Info Column",,,,,,,,,,,"Use config",,"has_options=1,quantity_and_stock_status=In Stock,required_options=10",10,0,1,0,0,1,1,0,0,1,1,,1,0,1,1,0,1,0,0,1,0,1,,,,,,,,,,,,,,,,,,,
SCPR-02,,Default,simple,,base,"SONIC TROLLEY BAG 6 IN 1","<p>SONIC TROLLEY BAG 6 IN 1 (8040)</p>",,1,1,"Taxable Goods","Catalog, Search",BS-SONIC,,189,,,,sonic-trolley-bag-6-in-1,,,,,,,,"Block after Info Column",,,,,,,,,,,"Use config",,"has_options=1,quantity_and_stock_status=In Stock,required_options=11",23,0,1,0,0,1,1,0,0,1,1,,1,0,1,1,0,1,0,0,1,0,1,,,,,,,,,,,,,,,,,,,
