sku,store_view_code,attribute_set_code,product_type,categories,product_websites,name,description,brand,short_description,base_image,small_image,thumbnail_image,additional_images_1,additional_images_2,additional_images_3,weight,product_online,tax_class_name,visibility,price,special_price,special_price_from_date,special_price_to_date,url_key,meta_title,meta_keywords,meta_description,created_at,updated_at,new_from_date,new_to_date,display_product_options_in,map_price,msrp_price,map_enabled,gift_message_available,custom_design,custom_design_from,custom_design_to,custom_layout_update,page_layout,product_options_container,msrp_display_actual_price_type,country_of_manufacture,additional_attributes,qty,out_of_stock_qty,use_config_min_qty,is_qty_decimal,allow_backorders,use_config_backorders,min_cart_qty,use_config_min_sale_qty,max_cart_qty,use_config_max_sale_qty,is_in_stock,notify_on_stock_below,use_config_notify_stock_qty,manage_stock,use_config_manage_stock,use_config_qty_increments,qty_increments,use_config_enable_qty_inc,enable_qty_increments,is_decimal_divided,website_id,deferred_stock_update,use_config_deferred_stock_update,related_skus,crosssell_skus,upsell_skus,hide_from_product_page,custom_options,bundle_price_type,bundle_sku_type,bundle_price_view,bundle_weight_type,bundle_values,associated_skus,errors
WK-HBS-BL,,Default,simple,,base,Belly and Hip Shaper Nude,,,,https://www.blushandbloom.com/shop/images/images_small/WK-HBS-N-a-80x120.jpg,https://www.blushandbloom.com/shop/images/images_small/WK-HBS-N-a-80x120.jpg,https://www.blushandbloom.com/shop/images/images_small/WK-HBS-N-a-80x120.jpg,https://www.blushandbloom.com/shop/images/images_small/WK-HBS-N-bb-80x120.jpg,https://www.blushandbloom.com/shop/images/images_small/WK-BL-ND-i-80x120.jpg,,0.65,1,Taxable Goods,"Catalog, Search",320,,,,belly-and-hip-shaper-nude,Belly and Hip Shaper Nude,,,,,,,Block after Info Column,,,,,,,,,,,Use config,,"has_options=0,quantity_and_stock_status=In Stock,required_options=0",20,0,1,0,0,1,1,0,0,1,1,,1,0,1,1,0,1,0,0,1,0,1,,,,,,,,,,,,
WK-BL-BLK,,Default,simple,,base,Original Bikini Post Natal Bikini Black  ,,,,https://www.blushandbloom.com/shop/images/images_small/Original_Bikini_Shapewear-80x120.jpg,https://www.blushandbloom.com/shop/images/images_small/Original_Bikini_Shapewear_2-80x120.jpg,https://www.blushandbloom.com/shop/images/images_small/Original_Bikini_Shapewear-80x120.jpg,https://www.blushandbloom.com/shop/images/images_small/Original_Bikini_Shapewear_3-80x120.jpg,https://www.blushandbloom.com/shop/images/images_small/WK-BL-ND-i-80x120.jpg,,0.65,1,Taxable Goods,"Catalog, Search",390,,,,original-bikini-post-natal-bikini-black,Original Bikini Post Natal Bikini Black  ,,,,,,,Block after Info Column,,,,,,,,,,,Use config,,"has_options=0,quantity_and_stock_status=In Stock,required_options=0",20,0,1,0,0,1,1,0,0,1,1,,1,1,1,1,0,1,0,0,1,0,1,,,,,,,,,,,,
WK-UBIK-NU,,Default,simple,,base,Original Bikini Post Natal Bikini Beige  ,,,,https://www.blushandbloom.com/shop/images/images_small/WK-BL-ND-a-80x120.jpg,https://www.blushandbloom.com/shop/images/images_small/lgpa2_beige2_v2_web_large-80x120.jpg,https://www.blushandbloom.com/shop/images/images_small/WK-BL-ND-a-80x120.jpg,https://www.blushandbloom.com/shop/images/images_small/lgpa2_beige3new_v2_web_large-80x120.jpg,https://www.blushandbloom.com/shop/images/images_small/YT-SLP-BLK-c2-80x120.jpg,,0.65,1,Taxable Goods,"Catalog, Search",390,,,,original-bikini-post-natal-bikini-beige,Original Bikini Post Natal Bikini Beige  ,,,,,,,Block after Info Column,,,,,,,,,,,Use config,,"has_options=0,quantity_and_stock_status=In Stock,required_options=0",20,0,1,0,0,1,1,0,0,1,1,,1,1.3,1,1,0,1,0,0,1,0,1,,,,,,,,,,,,
YT-S-BK,,Default,simple,,base,Slippie Black,,,,https://www.blushandbloom.com/shop/images/images_small/YT-SLP-BLK-a-80x120.jpg,https://www.blushandbloom.com/shop/images/images_small/YT-SLP-BLK-a-80x120.jpg,https://www.blushandbloom.com/shop/images/images_small/YT-SLP-BLK-a-80x120.jpg,https://www.blushandbloom.com/shop/images/images_small/YT-SLP-BLK-b2-80x120.jpg,https://www.blushandbloom.com/shop/images/images_small/YT-SLP-ND-b2-80x120.jpg,,0.2,1,Taxable Goods,"Catalog, Search",270,,,,slippie-black,Slippie Black,,,,,,,Block after Info Column,,,,,,,,,,,Use config,,"has_options=0,quantity_and_stock_status=In Stock,required_options=0",20,0,1,0,0,1,1,0,0,1,1,,1,1.9,1,1,0,1,0,0,1,0,1,,,,,,,,,,,,
YT-SS-NU,,Default,simple,,base,Strapless Slip Nude,,,,https://www.blushandbloom.com/shop/images/images_small/YT-STRL-ND-a-80x120.jpg,https://www.blushandbloom.com/shop/images/images_small/YT-STRL-ND-a-80x120.jpg,https://www.blushandbloom.com/shop/images/images_small/YT-STRL-ND-a-80x120.jpg,https://www.blushandbloom.com/shop/images/images_small/YT-STRL-ND-b-80x120.jpg,https://www.blushandbloom.com/shop/images/images_small/CL-SNT-BEI-d-80x120.jpg,,0.2,1,Taxable Goods,"Catalog, Search",290,,,,strapless-slip-nude,Strapless Slip Nude,,,,,,,Block after Info Column,,,,,,,,,,,Use config,,"has_options=1,quantity_and_stock_status=In Stock,required_options=3",20,0,1,0,0,1,1,0,0,1,1,,1,2.5,1,1,0,1,0,0,1,0,1,,,,,,,,,,,,
CL-SHNT-BEI,,Default,simple,,base,Shaping Nursing Tank Top Beige,,,,https://www.blushandbloom.com/shop/images/images_small/CL-SNT-BEI-a-80x120.jpg,https://www.blushandbloom.com/shop/images/images_small/CL-SNT-BEI-a-80x120.jpg,https://www.blushandbloom.com/shop/images/images_small/CL-SNT-BEI-a-80x120.jpg,https://www.blushandbloom.com/shop/images/images_small/CL-SNT-BEI-b-80x120.jpg,,,0.2,1,Taxable Goods,"Catalog, Search",230,,,,stshaping-nursing-tank-top-beige,Shaping Nursing Tank Top Beige,,,,,,,Block after Info Column,,,,,,,,,,,Use config,,"has_options=1,quantity_and_stock_status=In Stock,required_options=3",20,0,1,0,0,1,1,0,0,1,1,,1,2.5,1,1,0,1,0,0,1,0,1,,,,,,,,,,,,
