sku,name,price,weight,qty,attribute_set_code,product_type,categories,product_websites,base_image,small_image,thumbnail_image,description,short_description,product_online,tax_class_name,visibility,special_price,special_price_from_date,special_price_to_date,url_key,meta_title,meta_keywords,meta_description,created_at,updated_at,new_from_date,new_to_date,display_product_options_in,map_price,msrp_price,map_enabled,gift_message_available,custom_design,custom_design_from,custom_design_to,custom_layout_update,page_layout,product_options_container,msrp_display_actual_price_type,country_of_manufacture,additional_attributes,out_of_stock_qty,use_config_min_qty,is_qty_decimal,allow_backorders,use_config_backorders,min_cart_qty,use_config_min_sale_qty,max_cart_qty,use_config_max_sale_qty,is_in_stock,notify_on_stock_below,use_config_notify_stock_qty,manage_stock,use_config_manage_stock,use_config_qty_increments,qty_increments,use_config_enable_qty_inc,enable_qty_increments,is_decimal_divided,website_id,deferred_stock_update,use_config_deferred_stock_update,related_skus,crosssell_skus,upsell_skus,hide_from_product_page,custom_options,bundle_price_type,bundle_sku_type,bundle_price_view,bundle_weight_type,bundle_values,associated_skus
99600202945,Erbaviva Organic Baby Butter ,89.25,0.15,10,Default,simple,,base,https://cdn.shopify.com/s/files/1/1035/6955/products/Baby_Butter_214.jpg?v=1578508721,https://cdn.shopify.com/s/files/1/1035/6955/products/baby_butter_3.5_872.jpg?v=1578508720,https://cdn.shopify.com/s/files/1/1035/6955/products/baby_butter_562.jpg?v=1578508784,"<p>Organic Baby Butter is pure luxury for little ones. This unique formula is designed to comfort, moisturize, and protect delicate skin from winter dryness. Crafted with fair trade cocoa butter and calming and aromatic organic essential oils. Perfectly soothing after bath and anytime.<br /> <br /> SIZE: 1.75 oz<br /> <br /> INGREDIENTS:<br /> <br /> *helianthus annuus (sunflower) oil, *theobroma cacao (cocoa) seed butter, *cera alba (beeswax), *rosemarinus officinalis (rosemary) leaf extract, *lavandula angustifolia (lavender) oil, *anthemis nobilis (chamomile) oil, **linalool<br /> <br /> *denotes certified organic ingredient.<br /> **denotes component of certified organic ingredient.<br /> <br /> HERO INGREDIENTS: <br /> <br /> ORGANIC CHAMOMILE ESSENTIAL OIL<br /> <br /> Soothing to the body and the mind. Known to reduce inflammation and skin irritations.&nbsp;&nbsp; Aromatic effects support restfulness and tranquility.<br /> <br /> ORGANIC LAVENDER ESSENTIAL OIL<br /> <br /> Calms the mind and nurtures the skin. In Ancient Egypt and Ancient Rome lavender was&nbsp;&nbsp; used for bathing, scenting the home and treating ailments. Aromatic effects encourage a&nbsp;&nbsp; sense of calm.<br /> <br /> ORGANIC ROSEMARY CO2 EXTRACT<br /> <br /> Used as a natural antioxidant to help extend shelf life and freshness without the use of&nbsp;&nbsp; harmful preservatives.<br /> <br /> DIRECTIONS: Apply to baby&rsquo;s skin after bath or anytime extra moisture is needed. Apply liberally to dry and chapped areas. Use as often as needed.</p>",,1,Taxable Goods,"Catalog, Search",,,,,,,,,,,,Block after Info Column,,,,,,,,,,,Use config,,"has_options=1,quantity_and_stock_status=In Stock,required_options=30",0,1,0,0,1,1,0,0,1,1,,1,0,1,1,0,1,0,0,1,0,1,,,,,,,,,,,
99600202976,Erbaviva Baby Lip and Cheek Balm ,57.75,0.05,10,Default,simple,,base,https://cdn.shopify.com/s/files/1/1035/6955/products/lip2_992.jpg?v=1578508662,https://cdn.shopify.com/s/files/1/1035/6955/products/lip_492.jpg?v=1578508661,https://cdn.shopify.com/s/files/1/1035/6955/products/lip_and_cheek_1_866.jpg?v=1578508661,"<p>A signature favorite, the nourishing Erbaviva Organic Lip &amp; Cheek Balm is a go-to healing balm for dry and chapped lips, cheeks, and hands. Glide on an abundance of good with rich shea butter to emolliate skin and organic essential oils of lavender and chamomile to calm and soothe. Calendula and rosemary extracts infuse the balm with natural antioxidants and healing properties. Creates a beneficial barrier for baby from dry and cold weather.<br /> <br /> SIZE: 0.6 oz<br /> <br /> INGREDIENTS:<br /> <br /> *Butyrospermum parkii (shea butter), *cera alba (beeswax), *helianthus annuus (sunflower) seed oil, *ricinus communis (castor) seed oil, *simmondsia chinensis (jojoba) seed oil, *lavandula angustifolia (lavender) oil, *anthemis nobilis (chamomile) oil, *calendula officinalis extract, *rosmarinus officinalis (rosemary) leaf extract, **geraniol, **limonene, **linalool<br /> <br /> *denotes certified organic ingredient.<br /> **denotes component of certified organic ingredient.<br /> <br /> HERO INGREDIENTS:<br /> <br /> ORGANIC LAVENDER &amp; CHAMOMILE ESSENTIAL OIL<br /> <br /> Aromatic floral notes are blended to create a soothing, calm atmosphere. Both oils nourish the skin with anti inflammatory and antiseptic properties.<br /> <br /> ORGANIC SHEA BUTTER<br /> <br /> Made from the nut of an African shea tree, this thick luscious butter melts at body temperature. Natural vitamins and fatty acids are incredibly nourishing and moisturizing to skin. It is also known to reduce inflammation and acts as a protective barrier.<br /> <br /> ORGANIC CALENDULA ESSENTIAL OIL<br /> <br /> Great for healing dry chapped skin. Creates an effective barrier in dry or cold weather.</p>",,1,Taxable Goods,"Catalog, Search",,,,,,,,,,,,Block after Info Column,,,,,,,,,,,Use config,,"has_options=1,quantity_and_stock_status=In Stock,required_options=31",0,1,0,0,1,1,0,0,1,1,,1,0,1,1,0,1,0,0,1,0,1,,,,,,,,,,,
99600203089,Erbaviva Sniffles Baby Chest Balm,89.25,0.15,10,Default,simple,,base,https://cdn.shopify.com/s/files/1/1035/6955/products/Sniffles_w_Box_747.jpg?v=1578507398,https://cdn.shopify.com/s/files/1/1035/6955/products/Sniffles_w_Box_747.jpg?v=1578507398,https://cdn.shopify.com/s/files/1/1035/6955/products/Sniffles_Chest_Balm_936.jpg?v=1578507398,"<p>An organic natural alternative to ease baby through cough and cold season, Sniffles Organic Chest Balm is expertly formulated with essential oils of eucalyptus, tea tree, and myrrh, which are known to be immune boosting and lend powerful antiviral and antibacterial properties. Calendula, lavender and chamomile naturally comfort baby, while cypress and helichrysum essential oils effectively deliver healing and antiviral elements. Apply to baby&rsquo;s chest, back, neck and behind the ears to relax and soothe.&nbsp; Great smelling, purely natural and petroleum free.<br /> <br /> SIZE: 1.75 oz<br /> <br /> INGREDIENTS:<br /> <br /> *Helianthus annuus (sunflower) seed oil,*beeswax, *theobroma cacao (cocoa) seed butter,&nbsp;&nbsp; *simmondsia chinensis (jojoba) seed oil, *rosmarinus officilalis (rosemary) leaf extract,&nbsp;&nbsp; *eucalyptus radiata leaf oil, *lavandula hybrida oil, *cedrus atlantica bark oil, *citrus grandis&nbsp;&nbsp; (grapefruit) peel oil, *cupressus sempervirens leaf/nut/stem oil, *pelargonium graveolens oil,&nbsp;&nbsp; *melaleuca alternifolia (tea tree) leaf oil, *commiphora myrrha oil, *helichrysum italicum flower&nbsp;&nbsp; oil, *calendula officinalis flower extract<br /> <br /> *denotes certified organic ingredient.<br /> <br /> HERO INGREDIENTS:&nbsp; <br /> <br /> ORGANIC MYRHH ESSENTIAL OIL<br /> <br /> Throughout history myrrh has been used in traditional Chinese medicines to treat wounds and soothe respiratory issues. It is antioxidant rich and has a warm, earthy aroma.<br /> <br /> ORGANIC CALENDULA CO2<br /> <br /> This herbaceous extract has been used for medicinal purposes since the 12 century. It is known to soothe dry and chapped skin and is gentle enough to use for babies and children.<br /> <br /> ORGANIC EUCALYPTUS RADIATA<br /> <br /> Eucalyptus radiata is the the most gently species of Eucalyptus making it safe to use for baby. This essential oil has a strong affinity to the respiratory system, and is known for its&nbsp;&nbsp; decongestant, antibacterial, antiseptic and antiviral properties.<br /> <br /> DIRECTIONS:<br /> <br /> Rub onto baby&rsquo;s chest, back, neck and behind ears to help comfort them when they aren&rsquo;t&nbsp;&nbsp; feeling well.",,1,Taxable Goods,"Catalog, Search",,,,,,,,,,,,Block after Info Column,,,,,,,,,,,Use config,,"has_options=1,quantity_and_stock_status=In Stock,required_options=32",0,1,0,0,1,1,0,0,1,1,,1,0,1,1,0,1,0,0,1,0,1,,,,,,,,,,,
99600202938,Erbaviva Travel Baby Body Wash 2oz ,36.75,0.1,10,Default,simple,,base,https://cdn.shopify.com/s/files/1/1035/6955/products/Baby_Travel_Wash_957.jpg?v=1578508543,https://cdn.shopify.com/s/files/1/1035/6955/products/baby_wash_8oz_1_365.jpg?v=1578508606,https://cdn.shopify.com/s/files/1/1035/6955/products/1_884.png?v=1578508000,"<p>A gentle wash made with soothing chamomile and nourishing aloe, oat and calendula extracts, Baby Body Wash naturally nurtures and cleans even the most sensitive and delicate skin. Enhances baby&rsquo;s bath time with a subtle and calming chamomile and mandarin scent.&nbsp;&nbsp;&nbsp;&nbsp; SIZE: 2 fl oz</p>",,1,Taxable Goods,"Catalog, Search",,,,,,,,,,,,Block after Info Column,,,,,,,,,,,Use config,,"has_options=1,quantity_and_stock_status=In Stock,required_options=33",0,1,0,0,1,1,0,0,1,1,,1,0,1,1,0,1,0,0,1,0,1,,,,,,,,,,,
99600202914,Erbaviva Baby Body Wash 8oz,89.25,0.3,10,Default,simple,,base,https://cdn.shopify.com/s/files/1/1035/6955/products/Baby_Wash_16_oz_128.jpg?v=1578508605,https://cdn.shopify.com/s/files/1/1035/6955/products/baby_wash_8oz_1_365.jpg?v=1578508606,https://cdn.shopify.com/s/files/1/1035/6955/products/1_884.png?v=1578508000,"<p>A gentle wash made with soothing chamomile and nourishing aloe, oat and calendula extracts, Baby Body Wash naturally nurtures and cleans even the most sensitive and delicate skin. Enhances baby&rsquo;s bath time with a subtle and calming chamomile and mandarin scent.&nbsp;&nbsp;&nbsp;&nbsp; SIZE: 2 fl oz</p>",,1,Taxable Goods,"Catalog, Search",,,,,,,,,,,,Block after Info Column,,,,,,,,,,,Use config,,"has_options=1,quantity_and_stock_status=In Stock,required_options=34",0,1,0,0,1,1,0,0,1,1,,1,0,1,1,0,1,0,0,1,0,1,,,,,,,,,,,
99600202921,Erbaviva Baby Body Wash 16oz,157.5,0.6,10,Default,simple,,base,https://cdn.shopify.com/s/files/1/1035/6955/products/Baby_Wash_16_oz_128.jpg?v=1578508606,https://cdn.shopify.com/s/files/1/1035/6955/products/baby_wash_8oz_1_365.jpg?v=1578508607,https://cdn.shopify.com/s/files/1/1035/6955/products/1_884.png?v=1578508001,"<p>A gentle wash made with soothing chamomile and nourishing aloe, oat and calendula extracts, Baby Body Wash naturally nurtures and cleans even the most sensitive and delicate skin. Enhances baby&rsquo;s bath time with a subtle and calming chamomile and mandarin scent.&nbsp;&nbsp;&nbsp;&nbsp; SIZE: 2 fl oz</p>",,1,Taxable Goods,"Catalog, Search",,,,,,,,,,,,Block after Info Column,,,,,,,,,,,Use config,,"has_options=1,quantity_and_stock_status=In Stock,required_options=35",0,1,0,0,1,1,0,0,1,1,,1,0,1,1,0,1,0,0,1,0,1,,,,,,,,,,,
99600203003,Erbaviva Travel Baby Shampoo 2oz ,36.75,0.1,10,Default,simple,,base,https://cdn.shopify.com/s/files/1/1035/6955/products/Baby_Shampoo_2_oz_609.jpg?v=1578507458,https://cdn.shopify.com/s/files/1/1035/6955/products/1_547.png?v=1578507461,https://cdn.shopify.com/s/files/1/1035/6955/products/1_547.png?v=1578507461,"<p>Thoughtfully formulated from nature, Erbabiva Baby Shampoo nourishes the hair and scalp with a unique and ultra-mild blend of organic essential oils of lavender, chamomile and Oregon grape extract. Completely free of laurel sulfates and unwanted chemicals, Erbabiva Baby Shampoo effectively lathers without drying using Quillaja, a saponin tree bark extract. Ideal for newborns and the entire family. Gentle enough for anyone with sensitive skin. <br /> <br /> SIZE: 2 fl oz</p>",,1,Taxable Goods,"Catalog, Search",,,,,,,,,,,,Block after Info Column,,,,,,,,,,,Use config,,"has_options=1,quantity_and_stock_status=In Stock,required_options=36",0,1,0,0,1,1,0,0,1,1,,1,0,1,1,0,1,0,0,1,0,1,,,,,,,,,,,
99600202990,Erbaviva Baby Shampoo 8oz,89.25,0.3,10,Default,simple,,base,https://cdn.shopify.com/s/files/1/1035/6955/products/Baby_Shampoo_16_oz_804.jpg?v=1578507701,https://cdn.shopify.com/s/files/1/1035/6955/products/Baby_Shampoo_16_oz_804.jpg?v=1578507701,https://cdn.shopify.com/s/files/1/1035/6955/products/1_547.png?v=1578507461,"<p>Thoughtfully formulated from nature, Erbabiva Baby Shampoo nourishes the hair and scalp with a unique and ultra-mild blend of organic essential oils of lavender, chamomile and Oregon grape extract. Completely free of laurel sulfates and unwanted chemicals, Erbabiva Baby Shampoo effectively lathers without drying using Quillaja, a saponin tree bark extract. Ideal for newborns and the entire family. Gentle enough for anyone with sensitive skin. <br /> <br /> SIZE: 2 fl oz</p>",,1,Taxable Goods,"Catalog, Search",,,,,,,,,,,,Block after Info Column,,,,,,,,,,,Use config,,"has_options=1,quantity_and_stock_status=In Stock,required_options=37",0,1,0,0,1,1,0,0,1,1,,1,0,1,1,0,1,0,0,1,0,1,,,,,,,,,,,
99600204338,Erbaviva Baby Shampoo 16oz,157.5,0.6,10,Default,simple,,base,https://cdn.shopify.com/s/files/1/1035/6955/products/baby_shampoo_16oz_1_332.jpg?v=1578507701,https://cdn.shopify.com/s/files/1/1035/6955/products/baby_shampoo_16oz_1_332.jpg?v=1578507701,https://cdn.shopify.com/s/files/1/1035/6955/products/1_547.png?v=1578507461,"<p>Thoughtfully formulated from nature, Erbabiva Baby Shampoo nourishes the hair and scalp with a unique and ultra-mild blend of organic essential oils of lavender, chamomile and Oregon grape extract. Completely free of laurel sulfates and unwanted chemicals, Erbabiva Baby Shampoo effectively lathers without drying using Quillaja, a saponin tree bark extract. Ideal for newborns and the entire family. Gentle enough for anyone with sensitive skin. <br /> <br /> SIZE: 2 fl oz</p>",,1,Taxable Goods,"Catalog, Search",,,,,,,,,,,,Block after Info Column,,,,,,,,,,,Use config,,"has_options=1,quantity_and_stock_status=In Stock,required_options=38",0,1,0,0,1,1,0,0,1,1,,1,0,1,1,0,1,0,0,1,0,1,,,,,,,,,,,
99600203072,Erbaviva Travel Baby Lotion 2oz,36.75,0.1,10,Default,simple,,base,https://cdn.shopify.com/s/files/1/1035/6955/products/Baby_Lotion_2_oz_773.jpg?v=1578507577,https://cdn.shopify.com/s/files/1/1035/6955/products/Erbaviva-Lifestyle-Product8_815.png?v=1578507521,https://cdn.shopify.com/s/files/1/1035/6955/products/Erbaviva-Lifestyle-Product8_815.png?v=1578507521,"<p>A luxuriant and light lotion carefully crafted with natural emulsifiers and organic oils to moisturize tender and sensitive skin on babies and adults. Soothingly scented with Erbaviva&rsquo;s custom blend of organic mandarin and chamomile essential oils, Baby Lotion is a genuine treat for the senses after bath or anytime. Additional skin-enriching all natural premium ingredients include aloe, shea and cocoa butters.<br /> <br /> SIZE: 2 fl oz</p>",,1,Taxable Goods,"Catalog, Search",,,,,,,,,,,,Block after Info Column,,,,,,,,,,,Use config,,"has_options=1,quantity_and_stock_status=In Stock,required_options=39",0,1,0,0,1,1,0,0,1,1,,1,0,1,1,0,1,0,0,1,0,1,,,,,,,,,,,
99600203065,Erbaviva Baby Lotion 8oz,89.25,0.3,10,Default,simple,,base,https://cdn.shopify.com/s/files/1/1035/6955/products/baby_lotion_16_oz_342.jpg?v=1578507577,https://cdn.shopify.com/s/files/1/1035/6955/products/baby_lotion_8_oz_210.jpg?v=1578507576,https://cdn.shopify.com/s/files/1/1035/6955/products/Erbaviva-Lifestyle-Product8_815.png?v=1578507521,"<p>A luxuriant and light lotion carefully crafted with natural emulsifiers and organic oils to moisturize tender and sensitive skin on babies and adults. Soothingly scented with Erbaviva&rsquo;s custom blend of organic mandarin and chamomile essential oils, Baby Lotion is a genuine treat for the senses after bath or anytime. Additional skin-enriching all natural premium ingredients include aloe, shea and cocoa butters.<br /> <br /> SIZE: 2 fl oz</p>",,1,Taxable Goods,"Catalog, Search",,,,,,,,,,,,Block after Info Column,,,,,,,,,,,Use config,,"has_options=1,quantity_and_stock_status=In Stock,required_options=40",0,1,0,0,1,1,0,0,1,1,,1,0,1,1,0,1,0,0,1,0,1,,,,,,,,,,,
99600204345,Erbaviva Baby Lotion 16oz,157.5,0.6,10,Default,simple,,base,https://cdn.shopify.com/s/files/1/1035/6955/products/baby_lotion_16oz_1_730.jpg?v=1578507701,https://cdn.shopify.com/s/files/1/1035/6955/products/baby_lotion_16oz_1_730.jpg?v=1578507701,https://cdn.shopify.com/s/files/1/1035/6955/products/Erbaviva-Lifestyle-Product8_815.png?v=1578507521,"<p>A luxuriant and light lotion carefully crafted with natural emulsifiers and organic oils to moisturize tender and sensitive skin on babies and adults. Soothingly scented with Erbaviva&rsquo;s custom blend of organic mandarin and chamomile essential oils, Baby Lotion is a genuine treat for the senses after bath or anytime. Additional skin-enriching all natural premium ingredients include aloe, shea and cocoa butters.<br /> <br /> SIZE: 2 fl oz</p>",,1,Taxable Goods,"Catalog, Search",,,,,,,,,,,,Block after Info Column,,,,,,,,,,,Use config,,"has_options=1,quantity_and_stock_status=In Stock,required_options=41",0,1,0,0,1,1,0,0,1,1,,1,0,1,1,0,1,0,0,1,0,1,,,,,,,,,,,
99600202952,Erbaviva Organic Baby Cream,78.75,0.15,10,Default,simple,,base,https://cdn.shopify.com/s/files/1/1035/6955/products/Baby_Cream_974.jpg?v=1578515498,https://cdn.shopify.com/s/files/1/1035/6955/products/baby_cream_2_981.jpg?v=1578507518,https://cdn.shopify.com/s/files/1/1035/6955/products/baby_cream_1_773.jpg?v=1578507518,"<p>Completely nourishing and thoughtfully made with the highest quality natural emulsifiers and organic essential oils. Erbaviva Baby Cream moisturizes tender and sensitive skin with its super-clean and luxuriant blend of premium ingredients including aloe, shea and cocoa butters. Soothingly scented with Erbaviva&rsquo;s custom blend of organic lavender and chamomile essential oils. A purely perfect formula for body and face on both baby and sensitive adults.<br /> <br /> SIZE: 4 fl oz</p>",,1,Taxable Goods,"Catalog, Search",,,,,,,,,,,,Block after Info Column,,,,,,,,,,,Use config,,"has_options=1,quantity_and_stock_status=In Stock,required_options=42",0,1,0,0,1,1,0,0,1,1,,1,0,1,1,0,1,0,0,1,0,1,,,,,,,,,,,
99600203041,Erbaviva Diaper Cream,89.25,0.1,4,Default,simple,,base,https://cdn.shopify.com/s/files/1/1035/6955/products/Diaper_Cream_724.jpg?v=1578515439,https://cdn.shopify.com/s/files/1/1035/6955/products/diaper_cream_1_157.jpg?v=1578515498,https://cdn.shopify.com/s/files/1/1035/6955/products/diaper_cream_1_157.jpg?v=1578515498,"<p>Erbaviva Diaper Cream is made from an all-natural cream base formulated with soothing aloe and super-curative Echinacea, long used as an effective topical wound healer and aid to reduce redness, inflammation and pain. Organic essential oils of lavender and chamomile create a light and pleasant scent.<br /> <br /> SIZE: 2.5 oz</p>",,1,Taxable Goods,"Catalog, Search",,,,,,,,,,,,Block after Info Column,,,,,,,,,,,Use config,,"has_options=1,quantity_and_stock_status=In Stock,required_options=43",0,1,0,0,1,1,0,0,1,1,,1,0,1,1,0,1,0,0,1,0,1,,,,,,,,,,,
99600203096,Erbaviva Baby Sunscreen 2.5oz,105,0.1,10,Default,simple,,base,https://cdn.shopify.com/s/files/1/1035/6955/products/Baby_Sunscreen_703.jpg?v=1578515438,https://cdn.shopify.com/s/files/1/1035/6955/products/baby_sunscreen_1_216.jpg?v=1578515437,https://cdn.shopify.com/s/files/1/1035/6955/products/Erbaviva.April.1_261.jpg?v=1578515376,"<p>Naturally crafted with zinc oxide (a naturally occurring mineral), aloe, sunflower, olive and jojoba oils and infused with organic essential oils of chamomile and lavender, Erbaviva Sunscreen (SPF 30) effectively provides UVA and UVB and full spectrum sunscreen protection for the entire family.<br /> <br /> A light and silky cream that doesn&rsquo;t leave unsightly white residue, Erbaviva Sunscreen is perfect for applying to face and body and offers high possible SPF protection possible without use of unwanted chemicals.<br /> <br /> Water resistant for up to 80 minutes. Exceptional all natural sun protection.<br /> <br /> SIZE: 2.5 fl oz</p>",,1,Taxable Goods,"Catalog, Search",,,,,,,,,,,,Block after Info Column,,,,,,,,,,,Use config,,"has_options=1,quantity_and_stock_status=In Stock,required_options=44",0,1,0,0,1,1,0,0,1,1,,1,0,1,1,0,1,0,0,1,0,1,,,,,,,,,,,
99600203010,Erbaviva Baby Soap,78.75,0.15,10,Default,simple,,base,https://cdn.shopify.com/s/files/1/1035/6955/products/Baby_Soap_527.jpg?v=1578515197,https://cdn.shopify.com/s/files/1/1035/6955/products/baby_soap_2_700.jpg?v=1578515258,https://cdn.shopify.com/s/files/1/1035/6955/products/baby_soap_1_641.jpg?v=1578515196,"<p>Handcrafted with pure milk, honey and nutrient-rich oils, Erbaviva Baby Soap is completely natural and exceptionally mild.&nbsp; Specially formulated with olive and essential lavender oil to create a creamy, rich hydrating lather that is non-drying even to the most delicate skin.&nbsp;&nbsp; The softest soap to nourish baby and all skin-types. SIZE:<br /> <br /> 4 oz. bar</p>",,1,Taxable Goods,"Catalog, Search",,,,,,,,,,,,Block after Info Column,,,,,,,,,,,Use config,,"has_options=1,quantity_and_stock_status=In Stock,required_options=45",0,1,0,0,1,1,0,0,1,1,,1,0,1,1,0,1,0,0,1,0,1,,,,,,,,,,,
99600202983,Erbaviva Organic Baby Oil,78.75,0.3,10,Default,simple,,base,https://cdn.shopify.com/s/files/1/1035/6955/products/Baby_Oil_829.jpg?v=1578507640,https://cdn.shopify.com/s/files/1/1035/6955/products/baby_oil_1_119.jpg?v=1578507640,https://cdn.shopify.com/s/files/1/1035/6955/products/1_547_d07a9b63-2468-4fff-9879-53a711a9012b.png?v=1578515197,"<p>Specially crafted with only the purest and safest organic oils for baby, Erbaviva Organic Baby Oil is an emollient moisturizer and nourishing supplement for delicate and sensitive skin. Perfect for hydrating baby after bath or an anytime massage as part of a daily regimen of care &ndash; a proven healing and enriching bonding time for parent and baby.<br /> <br /> Infused with Vitamin E and rosemary extract in a base of almond, jojoba and safflower carrier oils, Organic Baby Oil is indispensible for protecting baby&rsquo;s bottom from diaper rash and tender face from drying in summer and winter months. Subtle, calming scents of organic essential oils of lavender, mandarin and chamomile bring baby enhanced bliss.<br /> <br /> SIZE: 4 fl oz</p>",,1,Taxable Goods,"Catalog, Search",,,,,,,,,,,,Block after Info Column,,,,,,,,,,,Use config,,"has_options=1,quantity_and_stock_status=In Stock,required_options=46",0,1,0,0,1,1,0,0,1,1,,1,0,1,1,0,1,0,0,1,0,1,,,,,,,,,,,
99600204277,Erbaviva Tummy Rub,89.25,0.15,10,Default,simple,,base,https://cdn.shopify.com/s/files/1/1035/6955/products/Tummy_Rub_889.jpg?v=1578515136,https://cdn.shopify.com/s/files/1/1035/6955/products/Turmmy_Rub_w_Box_339.jpg?v=1578515137,https://cdn.shopify.com/s/files/1/1035/6955/products/tummy_rub_284.jpg?v=1578515136,"<p>An organic way to ease and comfort baby&rsquo;s tummy.<br /> <br /> Crafted with beneficial organic essential oils to naturally calm and soothe baby&rsquo;s upset stomach. Tummy Rub has a soft, silky texture to massage baby&rsquo;s tummy with ease.<br /> <br /> SIZE: 1.75 oz</p>",,1,Taxable Goods,"Catalog, Search",,,,,,,,,,,,Block after Info Column,,,,,,,,,,,Use config,,"has_options=1,quantity_and_stock_status=In Stock,required_options=47",0,1,0,0,1,1,0,0,1,1,,1,0,1,1,0,1,0,0,1,0,1,,,,,,,,,,,
99600203133,Erbaviva Nighty Night Bath Essence Book,105,0.1,10,Default,simple,,base,https://cdn.shopify.com/s/files/1/1035/6955/products/night_night_bath_book_3e59e90a-e59f-47c8-8902-2c0a9e15138d.jpg?v=1578509260,https://cdn.shopify.com/s/files/1/1035/6955/products/night_night_bath_book_3e59e90a-e59f-47c8-8902-2c0a9e15138d.jpg?v=1578509260,https://cdn.shopify.com/s/files/1/1035/6955/products/nighty_night_bath_essence_80b8b2e5-8268-4777-bff3-f0385eb86a5a.jpg?v=1578509259,"<p>Soothingly scented and naturally relaxing organic essential oils of chamomile, lavender and sandalwood harmoniously come together in Erbaviva Nighty Night Bath Essence for an enchanting end to the day.<br /> <br /> Packaged in an adorable, FSC certified Baby Bath Time Book. A perfect gift for baby.<br /> <br /> SIZE: 0.33 fl oz</p>",,1,Taxable Goods,"Catalog, Search",,,,,,,,,,,,Block after Info Column,,,,,,,,,,,Use config,,"has_options=1,quantity_and_stock_status=In Stock,required_options=48",0,1,0,0,1,1,0,0,1,1,,1,0,1,1,0,1,0,0,1,0,1,,,,,,,,,,,
99600203737,Erbaviva Refreshing Foot Balm,89.25,0.15,10,Default,simple,,base,https://cdn.shopify.com/s/files/1/1035/6955/products/Refreshing_Foot_Balm_160.jpg?v=1578514477,https://cdn.shopify.com/s/files/1/1035/6955/products/refreshing_foot_balm_2_504.jpg?v=1578514537,https://cdn.shopify.com/s/files/1/1035/6955/products/refreshing_foot_balm_402.jpg?v=1578514536,"<p>With a warming and beneficial blend of organic essential oils, Erbaviva Refreshing Foot Balm luxuriously soothes while aiding in the release of tension and swelling. Ginger and lavender assist sore muscles and comfort aching feet, ankles and legs while grapefruit and cypress help reduce water retention and stimulate circulation. Sublimely scented.<br /> <br /> Completely free from petroleum and other unwanted ingredients.<br /> <br /> SIZE: 1.75 oz</p>",,1,Taxable Goods,"Catalog, Search",,,,,,,,,,,,Block after Info Column,,,,,,,,,,,Use config,,"has_options=1,quantity_and_stock_status=In Stock,required_options=49",0,1,0,0,1,1,0,0,1,1,,1,0,1,1,0,1,0,0,1,0,1,,,,,,,,,,,
99600203683,Erbaviva Organic Belly Butter,120.75,0.15,10,Default,simple,,base,https://cdn.shopify.com/s/files/1/1035/6955/products/Belly_Butter_650.jpg?v=1578514840,https://cdn.shopify.com/s/files/1/1035/6955/products/Belly_Butter_w_Box_816.jpg?v=1578514840,https://cdn.shopify.com/s/files/1/1035/6955/products/belly_butter_739.jpg?v=1578514897,"<p>Combining the highly moisturizing properties of cocoa butter and the beneficial qualities of carrot seed oil, Erbaviva Organic Belly Butter is the ultimate in protecting and pampering the belly during pregnancy.<br /> <br /> Expertly formulated with enriching organic essential oils of lavender, mandarin, sandalwood and rose to reduce the effects of stretch marks and ease itchiness. A luxuriously rich butter that caresses the skin, leaving it soft, smooth and well nourished.<br /> <br /> SIZE: 1.75 oz</p>",,1,Taxable Goods,"Catalog, Search",,,,,,,,,,,,Block after Info Column,,,,,,,,,,,Use config,,"has_options=1,quantity_and_stock_status=In Stock,required_options=50",0,1,0,0,1,1,0,0,1,1,,1,0,1,1,0,1,0,0,1,0,1,,,,,,,,,,,
99600203751,Erbaviva Travel Stretch Mark Cream,52.5,0.1,10,Default,simple,,base,https://cdn.shopify.com/s/files/1/1035/6955/products/Stretch_Mark_Cream_4_oz_650.jpg?v=1578507820,https://cdn.shopify.com/s/files/1/1035/6955/products/stretch_mark_cream_324.jpg?v=1578507819,https://cdn.shopify.com/s/files/1/1035/6955/products/Erbaviva.January12_821.jpg?v=1578507757,"<p>A nutritive, organic essential oil-infused cream for growing tummies. Erbaviva's Stretch Mark Cream with cocoa butter and sea buckthorn extract actively aids in keeping skin hydrated and elastic. For best results use in conjunction with Erbaviva Stretch Mark Oil.<br /> <br /> SIZE: 2 fl oz</p>",,1,Taxable Goods,"Catalog, Search",,,,,,,,,,,,Block after Info Column,,,,,,,,,,,Use config,,"has_options=1,quantity_and_stock_status=In Stock,required_options=51",0,1,0,0,1,1,0,0,1,1,,1,0,1,1,0,1,0,0,1,0,1,,,,,,,,,,,
99600203744,Erbaviva Stretch Mark Cream,131.25,0.15,10,Default,simple,,base,https://cdn.shopify.com/s/files/1/1035/6955/products/Stretch_Mark_Cream_2_oz_859.jpg?v=1578507757,https://cdn.shopify.com/s/files/1/1035/6955/products/stretch_mark_cream_travel_1_989.jpg?v=1578507818,https://cdn.shopify.com/s/files/1/1035/6955/products/20190404-Stretch_Mark_Cream_16oz_116.jpg?v=1578507756,"<p>A nutritive, organic essential oil-infused cream for growing tummies. Erbaviva's Stretch Mark Cream with cocoa butter and sea buckthorn extract actively aids in keeping skin hydrated and elastic.<br /> <br /> For best results use in conjunction with Erbaviva Stretch Mark Oil.<br /> <br /> SIZE: 4 fl oz</p>",,1,Taxable Goods,"Catalog, Search",,,,,,,,,,,,Block after Info Column,,,,,,,,,,,Use config,,"has_options=1,quantity_and_stock_status=In Stock,required_options=52",0,1,0,0,1,1,0,0,1,1,,1,0,1,1,0,1,0,0,1,0,1,,,,,,,,,,,
99600203775,Erbaviva Travel Stretch Mark Oil ,52.5,0.1,10,Default,simple,,base,https://cdn.shopify.com/s/files/1/1035/6955/products/Stretch_Mark_Oil_2_oz_144.jpg?v=1578514717,https://cdn.shopify.com/s/files/1/1035/6955/products/stretch_mark_oil_2_794.jpg?v=1578514777,https://cdn.shopify.com/s/files/1/1035/6955/products/stretch_mark_oil_895.jpg?v=1578514840,"<p>With nutrient-rich organic essential oils including rose, sandalwood and safflower, Erbaviva Stretch Mark Oil keeps mother&rsquo;s stressed skin soft, soothed and hydrated. Carrot seed oil boosts elasticity allowing skin to stretch smoothly, while rosemary, rosehip and vitamin E aid as anti-inflammatory skin rejuvenators. Delightfully aromatic.<br /> <br /> For greatest benefit, massage oil on belly, breasts, thighs and hips at nighttime; supplement with Erbaviva Stretch Mark Cream in the mornings.<br /> <br /> SIZE: 2 fl oz</p>",,1,Taxable Goods,"Catalog, Search",,,,,,,,,,,,Block after Info Column,,,,,,,,,,,Use config,,"has_options=1,quantity_and_stock_status=In Stock,required_options=53",0,1,0,0,1,1,0,0,1,1,,1,0,1,1,0,1,0,0,1,0,1,,,,,,,,,,,
99600203768,Erbaviva Stretch Mark Oil,141.75,0.3,10,Default,simple,,base,https://cdn.shopify.com/s/files/1/1035/6955/products/20190404-Stretch_Mark_Oil_16oz_420.jpg?v=1578514717,https://cdn.shopify.com/s/files/1/1035/6955/products/Stretch_Mark_Oil_w_Box_789.jpg?v=1578514778,https://cdn.shopify.com/s/files/1/1035/6955/products/stretch_mark_oil_travel_1_245.jpg?v=1578514718,"<p>With nutrient rich organic essential oils including rose, sandalwood and safflower, Erbaviva Stretch Mark Oil keeps mother&rsquo;s stressed skin soft, soothed and hydrated. Carrot seed oil boosts elasticity allowing skin to stretch smoothly, while rosemary, rosehip and vitamin E aid as anti-inflammatory skin rejuvenators. Delightfully aromatic.<br /> <br /> For greatest benefit, massage oil on belly, breasts, thighs and hips at nighttime; supplement with Erbaviva Stretch Mark Cream in the mornings.<br /> <br /> SIZE: 4 fl oz</p>",,1,Taxable Goods,"Catalog, Search",,,,,,,,,,,,Block after Info Column,,,,,,,,,,,Use config,,"has_options=1,quantity_and_stock_status=In Stock,required_options=54",0,1,0,0,1,1,0,0,1,1,,1,0,1,1,0,1,0,0,1,0,1,,,,,,,,,,,
99600204239,Erbaviva Nursing Balm ,89.25,0.15,10,Default,simple,,base,https://cdn.shopify.com/s/files/1/1035/6955/products/Nursing_Balm_319.jpg?v=1578514897,https://cdn.shopify.com/s/files/1/1035/6955/products/Nursing_Balm_w_Box_954.jpg?v=1578514897,https://cdn.shopify.com/s/files/1/1035/6955/products/nursing_balm_108.jpg?v=1578514957,"<p>An organic solution to safely hydrate dry, cracked, sore skin for better breast feeding. No need to rinse-off prior to breastfeeding.<br /> <br /> SIZE: 1.75 oz</p>",,1,Taxable Goods,"Catalog, Search",,,,,,,,,,,,Block after Info Column,,,,,,,,,,,Use config,,"has_options=1,quantity_and_stock_status=In Stock,required_options=55",0,1,0,0,1,1,0,0,1,1,,1,0,1,1,0,1,0,0,1,0,1,,,,,,,,,,,
99600203676,Erbaviva Pregnancy Massage Oil ,99.75,0.3,10,Default,simple,,base,https://cdn.shopify.com/s/files/1/1035/6955/products/20190404-Mama_Relax_Oil_Bottle_Only_530.jpg?v=1578514597,https://cdn.shopify.com/s/files/1/1035/6955/products/Erbaviva.April.46_524.jpg?v=1578514597,https://cdn.shopify.com/s/files/1/1035/6955/products/Erbaviva.April.48_916.jpg?v=1578514537,"<p>A soothing organic massage oil with calming essential oils of Roman Chamomile, geranium, and lavender, Erbaviva Pregnancy Massage Oil assists in bringing relaxation to both tired minds and sore muscles. An uplifting and highly beneficial part of pre-natal care.<br /> <br /> SIZE: 4 fl oz</p>",,1,Taxable Goods,"Catalog, Search",,,,,,,,,,,,Block after Info Column,,,,,,,,,,,Use config,,"has_options=1,quantity_and_stock_status=In Stock,required_options=56",0,1,0,0,1,1,0,0,1,1,,1,0,1,1,0,1,0,0,1,0,1,,,,,,,,,,,
