sku,name,price,weight,qty,attribute_set_code,product_type,categories,product_websites,short_description,product_online,tax_class_name,visibility,special_price,special_price_from_date,special_price_to_date,url_key,meta_title,meta_keywords,meta_description,created_at,updated_at,new_from_date,new_to_date,display_product_options_in,map_price,msrp_price,map_enabled,gift_message_available,custom_design,custom_design_from,custom_design_to,custom_layout_update,page_layout,product_options_container,msrp_display_actual_price_type,country_of_manufacture,additional_attributes,out_of_stock_qty,use_config_min_qty,is_qty_decimal,allow_backorders,use_config_backorders,min_cart_qty,use_config_min_sale_qty,max_cart_qty,use_config_max_sale_qty,is_in_stock,notify_on_stock_below,use_config_notify_stock_qty,manage_stock,use_config_manage_stock,use_config_qty_increments,qty_increments,use_config_enable_qty_inc,enable_qty_increments,is_decimal_divided,website_id,deferred_stock_update,use_config_deferred_stock_update,related_skus,crosssell_skus,upsell_skus,hide_from_product_page,custom_options,bundle_price_type,bundle_sku_type,bundle_price_view,bundle_weight_type,bundle_values,associated_skus,base_image,small_image,thumbnail_image,errors
7072223135602,"bbhugme Pregnancy Pillow in Eucalyptus / Coral",838.95,1.98,10,Default,simple,,base,,1,"Taxable Goods","Catalog, Search",,,,,,,,,,,,"Block after Info Column",,,,,,,,,,,"Use config",,"has_options=1,quantity_and_stock_status=In Stock,required_options=10",0,1,0,0,1,1,0,0,1,1,,1,0,1,1,0,1,0,0,1,0,1,,,,,,,,,,,,https://www.babyshop.com/images/369202/x_large.jpg,https://www.babyshop.com/images/478151/x_large.jpg,https://www.babyshop.com/images/478151/x_large.jpg,
7072223135701,"bbhugme Pregnancy Pillow in Stone / Plum",838.95,1.98,10,Default,simple,,base,,2,"Taxable Goods","Catalog, Search",,,,,,,,,,,,"Block after Info Column",,,,,,,,,,,"Use config",,"has_options=1,quantity_and_stock_status=In Stock,required_options=11",0,1,0,0,1,1,0,0,1,1,,1,0,1,1,0,1,0,0,1,0,1,,,,,,,,,,,,https://static2.mumzworld.com/media/catalog/product/r/b/rbt-7072223145106-bbhugme-nursing-pillow-stone-plum-1527072554.jpg,https://static2.mumzworld.com/media/catalog/product/r/b/rbt-7072223145106-bbhugme-nursing-pillow-stone-plum-15270725540.jpg,https://static2.mumzworld.com/media/catalog/product/r/b/rbt-7072223145106-bbhugme-nursing-pillow-stone-plum-15270725541.jpg,
7072223135800,"bbhugme Pregnancy Pillow in Dusty Pink / Vanilla",838.95,1.98,10,Default,simple,,base,,3,"Taxable Goods","Catalog, Search",,,,,,,,,,,,"Block after Info Column",,,,,,,,,,,"Use config",,"has_options=1,quantity_and_stock_status=In Stock,required_options=12",0,1,0,0,1,1,0,0,1,1,,1,0,1,1,0,1,0,0,1,0,1,,,,,,,,,,,,https://momzlove.com/media/catalog/product/cache/1/image/700x700/9df78eab33525d08d6e5fb8d27136e95/b/b/bbhugme_pregnancy_pillow_in_dusty_pink_vanilla.jpg,https://momzlove.com/media/catalog/product/cache/1/image/700x700/9df78eab33525d08d6e5fb8d27136e95/b/b/bbhugme_pregnancy_pillow_in_dusty_pink_vanilla_2.jpg,https://cdn.shopify.com/s/files/1/0838/5929/products/bbhugme_pillow_pink_4_400x.png?v=1596622524,
7.07E+12,"bbhugme Pregnancy Pillow in Marble / Vanilla",838.95,1.98,10,Default,simple,,base,,4,"Taxable Goods","Catalog, Search",,,,,,,,,,,,"Block after Info Column",,,,,,,,,,,"Use config",,"has_options=1,quantity_and_stock_status=In Stock,required_options=13",0,1,0,0,1,1,0,0,1,1,,1,0,1,1,0,1,0,0,1,0,1,,,,,,,,,,,,https://static2.mumzworld.com/media/catalog/product/r/b/rbt-7072223131222-bbhugme-pregnancy-pillow-marble-vanilla-1578763759.jpg,https://static2.mumzworld.com/media/catalog/product/r/b/rbt-7072223131222-bbhugme-pregnancy-pillow-marble-vanilla-15787637590.jpg,https://static2.mumzworld.com/media/catalog/product/r/b/rbt-7072223131222-bbhugme-pregnancy-pillow-marble-vanilla-15787637591.jpg,
7.07E+12,"bbhugme Pregnancy Pillow in Green Leaf / Vanilla",838.95,1.98,10,Default,simple,,base,,5,"Taxable Goods","Catalog, Search",,,,,,,,,,,,"Block after Info Column",,,,,,,,,,,"Use config",,"has_options=1,quantity_and_stock_status=In Stock,required_options=14",0,1,0,0,1,1,0,0,1,1,,1,0,1,1,0,1,0,0,1,0,1,,,,,,,,,,,,https://static2.mumzworld.com/media/catalog/product/r/b/rbt-7072223131239-bbhugme-pregnancy-pillow-green-leaf-vanilla-1578763763.jpg,https://static2.mumzworld.com/media/catalog/product/r/b/rbt-7072223131239-bbhugme-pregnancy-pillow-green-leaf-vanilla-15787637630.jpg,https://static2.mumzworld.com/media/catalog/product/r/b/rbt-7072223131239-bbhugme-pregnancy-pillow-green-leaf-vanilla-15787637631.jpg,
7072223105308,"bbhugme Pregnancy Pillow Cover - Eucalyptus",262.5,0.4,10,Default,simple,,base,,6,"Taxable Goods","Catalog, Search",,,,,,,,,,,,"Block after Info Column",,,,,,,,,,,"Use config",,"has_options=1,quantity_and_stock_status=In Stock,required_options=15",0,1,0,0,1,1,0,0,1,1,,1,0,1,1,0,1,0,0,1,0,1,,,,,,,,,,,,https://www.blushandbloom.com/shop/images/images_big/7072223105308_bbhugme_pregnancy_pillow_cover_-_eucalyptus_1.png,https://www.blushandbloom.com/shop/images/images_big/7072223105308_bbhugme_pregnancy_pillow_cover_-_eucalyptus.jpg,https://www.blushandbloom.com/shop/images/images_big/bbhugme_eucalyptus_coral_pregnancy_pillow_5.jpg,
7072223125306,"bbhugme Pregnancy Pillow Cover - Stone",262.5,0.4,10,Default,simple,,base,,7,"Taxable Goods","Catalog, Search",,,,,,,,,,,,"Block after Info Column",,,,,,,,,,,"Use config",,"has_options=1,quantity_and_stock_status=In Stock,required_options=16",0,1,0,0,1,1,0,0,1,1,,1,0,1,1,0,1,0,0,1,0,1,,,,,,,,,,,,https://www.blushandbloom.com/shop/images/images_big/7072223125306_bbhugme_pregnancy_pillow_cover_-_stone_1.png,https://www.blushandbloom.com/shop/images/images_big/7072223125306_bbhugme_pregnancy_pillow_cover_-_stone.jpg,https://www.blushandbloom.com/shop/images/images_big/rsz_bbhugme_pregnancy_sleep_pillow_maternity_stone_1.jpg,
7072223125504,"bbhugme Pregnancy Pillow Cover - Dusty Pink",262.5,0.4,10,Default,simple,,base,,8,"Taxable Goods","Catalog, Search",,,,,,,,,,,,"Block after Info Column",,,,,,,,,,,"Use config",,"has_options=1,quantity_and_stock_status=In Stock,required_options=17",0,1,0,0,1,1,0,0,1,1,,1,0,1,1,0,1,0,0,1,0,1,,,,,,,,,,,,https://www.blushandbloom.com/shop/images/images_big/7072223125504_bbhugme_pregnancy_pillow_cover_-_dusty_pink_1.png,https://www.blushandbloom.com/shop/images/images_big/7072223125504_bbhugme_pregnancy_pillow_cover_-_dusty_pink.jpg,https://www.blushandbloom.com/shop/images/images_big/rsz_bbhugme_dusty_pink_pregnancy_pregnant_pillow_vanilla_pebbles.jpg,
7.07E+12,"bbhugme Pregnancy Pillow Cover Deep - Ocean Blue",262.5,0.4,10,Default,simple,,base,,9,"Taxable Goods","Catalog, Search",,,,,,,,,,,,"Block after Info Column",,,,,,,,,,,"Use config",,"has_options=1,quantity_and_stock_status=In Stock,required_options=18",0,1,0,0,1,1,0,0,1,1,,1,0,1,1,0,1,0,0,1,0,1,,,,,,,,,,,,https://www.blushandbloom.com/shop/images/images_big/bbhugme_nursing_pillow_cover_-_ocean_blue.jpg,https://www.blushandbloom.com/shop/images/images_big/bbhugme-Nursing-Pillow-ocean_blue.jpg,https://www.blushandbloom.com/shop/images/images_big/rsz_bbhugme_pregnancy_belly_deep_ocean_blue_pillow_1_(1).jpg,
7.07E+12,"bbhugme Pregnancy Pillow Cover Marble",262.5,0.4,10,Default,simple,,base,,10,"Taxable Goods","Catalog, Search",,,,,,,,,,,,"Block after Info Column",,,,,,,,,,,"Use config",,"has_options=1,quantity_and_stock_status=In Stock,required_options=19",0,1,0,0,1,1,0,0,1,1,,1,0,1,1,0,1,0,0,1,0,1,,,,,,,,,,,,https://www.blushandbloom.com/shop/images/images_big/bbhugme-nursing_pillow-marble.jpg,https://www.blushandbloom.com/shop/images/images_big/bbhugme-nursing_pillow_cover_marble.jpg,https://www.blushandbloom.com/shop/images/images_big/bbhugme-nursing_pillow_cover_-_marble.jpg,
7.07E+12,"bbhugme Pregnancy Pillow Cover Green Leaf",262.5,0.4,10,Default,simple,,base,,11,"Taxable Goods","Catalog, Search",,,,,,,,,,,,"Block after Info Column",,,,,,,,,,,"Use config",,"has_options=1,quantity_and_stock_status=In Stock,required_options=20",0,1,0,0,1,1,0,0,1,1,,1,0,1,1,0,1,0,0,1,0,1,,,,,,,,,,,,https://www.blushandbloom.com/shop/images/images_big/bbhugme_nursing_pillow_cover_-_green_leaf.jpg,https://www.blushandbloom.com/shop/images/images_big/bbhugme_nursing_pillow_cover_-_green_leaf.jpg,https://www.blushandbloom.com/shop/images/images_big/rsz_bbhugme_green_leaf_pregnancy_pillow_cover_coral_pebbles.jpg,
7072223155105,"bbhugme Baby Pod - Stone",208.95,0.4,10,Default,simple,,base,,12,"Taxable Goods","Catalog, Search",,,,,,,,,,,,"Block after Info Column",,,,,,,,,,,"Use config",,"has_options=1,quantity_and_stock_status=In Stock,required_options=21",0,1,0,0,1,1,0,0,1,1,,1,0,1,1,0,1,0,0,1,0,1,,,,,,,,,,,,https://static2.mumzworld.com/media/catalog/product/r/b/rbt-7072223155105-bbhugme-baby-pod-stone-1527072554.jpg,https://static2.mumzworld.com/media/catalog/product/r/b/rbt-7072223155105-bbhugme-baby-pod-stone-15270725541.jpg,https://static2.mumzworld.com/media/catalog/product/r/b/rbt-7072223155105-bbhugme-baby-pod-stone-15270725542.jpg,
7072223145106,"bbhugme Nursing Pillow Stone/Plum",481.95,1,10,Default,simple,,base,,13,"Taxable Goods","Catalog, Search",,,,,,,,,,,,"Block after Info Column",,,,,,,,,,,"Use config",,"has_options=1,quantity_and_stock_status=In Stock,required_options=22",0,1,0,0,1,1,0,0,1,1,,1,0,1,1,0,1,0,0,1,0,1,,,,,,,,,,,,https://cdn.shopify.com/s/files/1/2592/1194/products/rbt-7072223145106-bbhugme-nursing-pillow-stone-plum-1527072554.jpg?v=1582544147,https://cdn.shopify.com/s/files/1/2592/1194/products/rbt-7072223145106-bbhugme-nursing-pillow-stone-plum-15270725540.jpg?v=1582544147,https://cdn.shopify.com/s/files/1/2592/1194/products/rbt-7072223145106-bbhugme-nursing-pillow-stone-plum-15270725541.jpg?v=1582544147,
7072223145205,"bbhugme Nursing Pillow Dusty Pink/Vanilla",481.95,1,10,Default,simple,,base,,14,"Taxable Goods","Catalog, Search",,,,,,,,,,,,"Block after Info Column",,,,,,,,,,,"Use config",,"has_options=1,quantity_and_stock_status=In Stock,required_options=23",0,1,0,0,1,1,0,0,1,1,,1,0,1,1,0,1,0,0,1,0,1,,,,,,,,,,,,https://media.babystore.ae/catalog/product/cache/49dcd5d85f0fa4d590e132d0368d8132/r/b/rbt-7072223145205-bbhugme-nursing-pillow-dusty-pink-vanilla-1527072554.jpg,https://media.babystore.ae/catalog/product/cache/49dcd5d85f0fa4d590e132d0368d8132/r/b/rbt-7072223145205-bbhugme-nursing-pillow-dusty-pink-vanilla-1527072554.jpg,https://media.babystore.ae/catalog/product/cache/49dcd5d85f0fa4d590e132d0368d8132/r/b/rbt-7072223145205-bbhugme-nursing-pillow-dusty-pink-vanilla-1527072554.jpg,"Url key: 'bbhugme-nursing-pillow-dusty-pink-vanilla.html' was already generated for an item with the SKU: '7.07222E+12'. You need to specify the unique URL key manually"
7.07E+12,"bbhugme Nursing Pillow Cover - Dusty Pink (2-pack)",294,0.4,5,Default,simple,,base,,15,"Taxable Goods","Catalog, Search",,,,,,,,,,,,"Block after Info Column",,,,,,,,,,,"Use config",,"has_options=1,quantity_and_stock_status=In Stock,required_options=24",0,1,0,0,1,1,0,0,1,1,,1,0,1,1,0,1,0,0,1,0,1,,,,,,,,,,,,https://www.blushandbloom.com/shop/images/images_big/pink_dust.jpg,https://www.blushandbloom.com/shop/images/images_big/pink_dust.jpg,https://www.blushandbloom.com/shop/images/images_big/dusty_pink.jpg,
7.07E+12,"bbhugme Nursing Pillow Cover - Forest Green (1-pack)",241.5,0.4,5,Default,simple,,base,,16,"Taxable Goods","Catalog, Search",,,,,,,,,,,,"Block after Info Column",,,,,,,,,,,"Use config",,"has_options=1,quantity_and_stock_status=In Stock,required_options=25",0,1,0,0,1,1,0,0,1,1,,1,0,1,1,0,1,0,0,1,0,1,,,,,,,,,,,,https://www.blushandbloom.com/shop/images/images_big/bbhugme-nursing_pillow_-_forest_green.jpg,https://www.blushandbloom.com/shop/images/images_big/bbhugme-nursing_pillow_-_forest_green.jpg,,
7.07E+12,"bbhugme Nursing Pillow Cover - Deep Ocean Blue (1-pack)",241.5,0.4,5,Default,simple,,base,,17,"Taxable Goods","Catalog, Search",,,,,,,,,,,,"Block after Info Column",,,,,,,,,,,"Use config",,"has_options=1,quantity_and_stock_status=In Stock,required_options=26",0,1,0,0,1,1,0,0,1,1,,1,0,1,1,0,1,0,0,1,0,1,,,,,,,,,,,,https://www.blushandbloom.com/shop/images/images_big/bbhugme_nursing_pillow_cover_-_ocean_blue.jpg,https://www.blushandbloom.com/shop/images/images_big/bbhugme_nursing_pillow_cover_-_ocean_blue.jpg,,
7.07E+12,"bbhugme Nursing Pillow Cover - Stone (2-pack)",294,0.4,5,Default,simple,,base,,18,"Taxable Goods","Catalog, Search",,,,,,,,,,,,"Block after Info Column",,,,,,,,,,,"Use config",,"has_options=1,quantity_and_stock_status=In Stock,required_options=27",0,1,0,0,1,1,0,0,1,1,,1,0,1,1,0,1,0,0,1,0,1,,,,,,,,,,,,https://www.blushandbloom.com/shop/images/images_big/stone.jpg,https://www.blushandbloom.com/shop/images/images_big/stone_nursing_pillow.jpg,https://www.blushandbloom.com/shop/images/images_big/nursing_pillow_cover_stone.jpg,
7.07E+12,"bbhugme Nursing Pillow Cover - Marble",241.5,0.4,5,Default,simple,,base,,19,"Taxable Goods","Catalog, Search",,,,,,,,,,,,"Block after Info Column",,,,,,,,,,,"Use config",,"has_options=1,quantity_and_stock_status=In Stock,required_options=28",0,1,0,0,1,1,0,0,1,1,,1,0,1,1,0,1,0,0,1,0,1,,,,,,,,,,,,https://www.blushandbloom.com/shop/images/images_big/bbhugme-nursing_pillow_cover_marble.jpg,https://www.blushandbloom.com/shop/images/images_big/nursing_pillow_marble.jpg,https://www.blushandbloom.com/shop/images/images_big/bbhugme-nursing_pillow_cover_-_marble.jpg,
7.07E+12,"bbhugme Nursing Pillow Cover - Green Leaf",241.5,0.4,5,Default,simple,,base,,20,"Taxable Goods","Catalog, Search",,,,,,,,,,,,"Block after Info Column",,,,,,,,,,,"Use config",,"has_options=1,quantity_and_stock_status=In Stock,required_options=29",0,1,0,0,1,1,0,0,1,1,,1,0,1,1,0,1,0,0,1,0,1,,,,,,,,,,,,https://www.blushandbloom.com/shop/images/images_big/bbhugme_nursing_pillow_cover_-_green_leaf_2.jpg,https://www.blushandbloom.com/shop/images/images_big/nursing_pillow_cover_-_green_leaf.jpg,https://www.blushandbloom.com/shop/images/images_big/nursing_pillow_cover_-_green_leaf_2.jpg,
