sku,store_view_code,attribute_set_code,product_type,categories,product_websites,name,description,short_description,weight,product_online,tax_class_name,visibility,price,special_price,special_price_from_date,special_price_to_date,url_key,meta_title,meta_keywords,meta_description,created_at,updated_at,new_from_date,new_to_date,display_product_options_in,map_price,msrp_price,map_enabled,gift_message_available,custom_design,custom_design_from,custom_design_to,custom_layout_update,page_layout,product_options_container,msrp_display_actual_price_type,country_of_manufacture,additional_attributes,qty,out_of_stock_qty,use_config_min_qty,is_qty_decimal,allow_backorders,use_config_backorders,min_cart_qty,use_config_min_sale_qty,max_cart_qty,use_config_max_sale_qty,is_in_stock,notify_on_stock_below,use_config_notify_stock_qty,manage_stock,use_config_manage_stock,use_config_qty_increments,qty_increments,use_config_enable_qty_inc,enable_qty_increments,is_decimal_divided,website_id,deferred_stock_update,use_config_deferred_stock_update,related_skus,crosssell_skus,upsell_skus,hide_from_product_page,custom_options,bundle_price_type,bundle_sku_type,bundle_price_view,bundle_weight_type,bundle_values,associated_skus,base_image,small_image,thumbnail_image,additional_image_1,additional_image_2,additional_image_3,errors
LV-LMN-PPL,,Default,simple,"Default Category/Lingerie,Default Category/Lingerie/Sleepwear",base,"Lisa Maternity and Nursing Nightie Purple and Black Stripe",,,1,1,"Taxable Goods","Catalog, Search",265,,,,Lisa-Maternity-and-Nursing-Nightie-Purple-and-Black-Stripe,,,,,,,,"Block after Info Column",,,,,,,,,,,"Use config",UK,"has_options=1,quantity_and_stock_status=In Stock,required_options=0",20,0,1,0,0,1,1,0,0,1,1,,1,0,1,1,0,1,0,0,1,0,1,,,,,,,,,,,,,,,,,,"Value for 'country_of_manufacture' attribute contains incorrect value, see acceptable values on settings specified for Admin,Url key: 'lisa-maternity-and-nursing-nightie-purple-and-black-stripe.html' was already generated for an item with the SKU: 'Lisa Maternity And Nursing Nightie Purple And Black Stripe'. You need to specify the unique URL key manually"
878982009140,,Default,simple,"Default Category/Nursing,Default Category/Nursing/Nursing Covers",base,"Sakura Cotton Nursing Cover",,,1,1,"Taxable Goods","Catalog, Search",180,,,,sakura-cotton-nursing-cover,,,,,,,,"Block after Info Column",,,,,,,,,,,"Use config",china,"has_options=0,quantity_and_stock_status=In Stock,required_options=0",20,0,1,0,0,1,1,0,0,1,1,,1,0,1,1,0,1,0,0,1,0,1,,,,,,,,,,,,,,,,,,"Url key: 'sakura-cotton-nursing-cover.html' was already generated for an item with the SKU: 'Sakura Cotton Nursing Cover'. You need to specify the unique URL key manually"
878982003476,,Default,simple,"Default Category/Nursing,Default Category/Nursing/Nursing Covers",base,"Chateau Silver Bebe Nursing Cover ",,,1,1,"Taxable Goods","Catalog, Search",180,,,,chateau-silver-nursing-cover,,,,,,,,"Block after Info Column",,,,,,,,,,,"Use config",china,"has_options=0,quantity_and_stock_status=In Stock,required_options=0",20,0,1,0,0,1,1,0,0,1,1,,1,0,1,1,0,1,0,0,1,0,1,,,,,,,,,,,,,,,,,,"Url key: 'chateau-silver-nursing-cover.html' was already generated for an item with the SKU: 'Chateau Silver Nursing Cover'. You need to specify the unique URL key manually"
878982003643,,Default,simple,"Default Category/Nursing,Default Category/Nursing/Nursing Covers",base,"Nest Bebe Au Lait Nursing Cover",,,1,1,"Taxable Goods","Catalog, Search",180,,,,nest-bebe-au-lait-nursing-cover,,,,,,,,"Block after Info Column",,,,,,,,,,,"Use config",china,"has_options=1,shipment_type=together,quantity_and_stock_status=In Stock,required_options=0",20,0,1,0,0,1,1,0,0,1,1,,1,0,1,1,0,1,0,0,1,0,1,,,,,,,,,,,,,,,,,,
878982006521,,Default,simple,"Default Category/Nursing,Default Category/Nursing/Nursing Covers",base," Atherton Muslin Nursing Cover",,,1,1,"Taxable Goods","Catalog, Search",180,,,,atherton-muslin-nursing-cover,,,,,,,,"Block after Info Column",,,,,,,,,,,"Use config",china,"has_options=0,quantity_and_stock_status=In Stock,required_options=0",20,0,1,0,0,1,1,0,0,1,1,,1,0,1,1,0,1,0,0,1,0,1,,,,,,,,,,,,,,,,,,"Url key: 'atherton-muslin-nursing-cover.html' was already generated for an item with the SKU: 'Atherton Muslin Nursing Cover'. You need to specify the unique URL key manually"
878982007788,,Default,simple,"Default Category/Nursing,Default Category/Nursing/Nursing Covers",base,"Carousel Blue Muslin Bebe Nursing Cover ",,,1,1,"Taxable Goods","Catalog, Search",180,,,,carousel-muslin-blue-nursing-cover,,,,,,,,"Block after Info Column",,,,,,,,,,,"Use config",china,"has_options=1,quantity_and_stock_status=In Stock,required_options=3",20,0,1,0,0,1,1,0,0,1,1,,1,0,1,1,0,1,0,0,1,0,1,,,,,,,,,,,,,,,,,,"Url key: 'carousel-muslin-blue-nursing-cover.html' was already generated for an item with the SKU: 'Carousel Muslin Blue Nursing Cover'. You need to specify the unique URL key manually"
878982007764,,Default,simple,"Default Category/Nursing,Default Category/Nursing/Nursing Covers",base,"Carousel Pink Muslin Bebe Nursing Cover ",,,1,1,"Taxable Goods","Catalog, Search",180,,,,carousel-pink-muslin-nursing-cover,,,,,,,,"Block after Info Column",,,,,,,,,,,"Use config",china,"has_options=0,quantity_and_stock_status=In Stock,required_options=0",20,0,1,0,0,1,1,0,0,1,1,,1,0,1,1,0,1,0,0,1,0,1,,,,,,,,,,,,,,,,,,
878982006019,,Default,simple,"Default Category/Nursing,Default Category/Nursing/Nursing Covers",base,"Montecito Bebe Nursing Cover",,,1,1,"Taxable Goods","Catalog, Search",180,,,,montecito-premium-cotton-nursing-cover,,,,,,,,"Block after Info Column",,,,,,,,,,,"Use config",china,"has_options=0,quantity_and_stock_status=In Stock,required_options=0",20,0,1,0,0,1,1,0,0,1,1,,1,0,1,1,0,1,0,0,1,0,1,,,,,,,,,,,,,,,,,,
AM-LUNANB-PPNK,,Default,simple,"Default Category/Nursing,Default Category/Nursing/Nursing Bras",base,"Luna Padded Flexi Wired Nursing Bra Powder Pink",,,1,1,"Taxable Goods","Catalog, Search",220,,,,luna-padded-nursing-bra-powder-pink,,,,,,,,"Block after Info Column",,,,,,,,,,,"Use config",China,"has_options=0,quantity_and_stock_status=In Stock,required_options=0",20,0,1,0,0,1,1,0,0,1,1,,1,0,1,1,0,1,0,0,1,0,1,,,,,,,,,,,,,,,,,,
AM-SSNB-BLK,,Default,simple,"Default Category/Nursing,Default Category/Nursing/Nursing Bras",base,"Second Skin Nursing Bra Black",,,1,1,"Taxable Goods","Catalog, Search",120,,,,Second-Skin-Nursing-Bra-Black,,,,,,,,"Block after Info Column",,,,,,,,,,,"Use config",China,"has_options=1,quantity_and_stock_status=In Stock,required_options=1",20,0,1,0,0,1,1,0,0,1,1,,1,0,1,1,0,1,0,0,1,0,1,,,,,,,,,,,,,,,,,,
CC-3DLNB-W,,Default,simple,"Default Category/Nursing,Default Category/Nursing/Nursing Bras",base,"3D Light Nursing Bra with Contour Spacer White",,,1,1,"Taxable Goods","Catalog, Search",220,,,,3d-light-nursing-bra-with-contour-spacer-white,,,,,,,,"Block after Info Column",,,,,,,,,,,"Use config",Thailand,"has_options=1,quantity_and_stock_status=In Stock,required_options=1",20,0,1,0,0,1,1,0,0,1,1,,1,0,1,1,0,1,0,0,1,0,1,,,,,,,,,,,,,,,,,,"Url key: '3d-light-nursing-bra-with-contour-spacer-white.html' was already generated for an item with the SKU: '3D Light Nursing Bra With Contour Spacer White'. You need to specify the unique URL key manually"
CC-DMNB-IVRY,,Default,simple,"Default Category/Nursing,Default Category/Nursing/Nursing Bras",base,"Diamond Nursing Bra Ivory",,,1,1,"Taxable Goods","Catalog, Search",245,,,,diamond-nursing-bra-ivory,,,,,,,,"Block after Info Column",,,,,,,,,,,"Use config",Thailand,"has_options=0,quantity_and_stock_status=In Stock,required_options=0",20,0,1,0,0,1,1,0,0,1,1,,1,0,1,1,0,1,0,0,1,0,1,,,,,,,,,,,,,,,,,,"Url key: 'diamond-nursing-bra-ivory.html' was already generated for an item with the SKU: 'Diamond Nursing Bra Ivory'. You need to specify the unique URL key manually"
CC-LNB-RSE,,Default,simple,"Default Category/Nursing,Default Category/Nursing/Nursing Bras",base,"Lisa Flexi-wire Nursing Bra Rose",,,1,1,"Taxable Goods","Catalog, Search",160,,,,lisa-flexi-wire-nursing-bra-rose,,,,,,,,"Block after Info Column",,,,,,,,,,,"Use config",Thailand,"has_options=0,quantity_and_stock_status=In Stock,required_options=0",20,0,1,0,0,1,1,0,0,1,1,,1,0,1,1,0,1,0,0,1,0,1,,,,,,,,,,,,,,,,,,
CC-MNB-NOIR,,Default,simple,"Default Category/Nursing,Default Category/Nursing/Nursing Bras",base,"Magic Flexi-wire Contoured Cup Nursing Bra Noir",,,1,1,"Taxable Goods","Catalog, Search",270,,,,magic-flexi-wire-contoured-cup-nursing-bra-noir,,,,,,,,"Block after Info Column",,,,,,,,,,,"Use config",Thailand,"has_options=1,shipment_type=together,quantity_and_stock_status=In Stock,required_options=0",20,0,1,0,0,1,1,0,0,1,1,,1,0,1,1,0,1,0,0,1,0,1,,,,,,,,,,,,,,,,,,"Url key: 'magic-flexi-wire-contoured-cup-nursing-bra-noir.html' was already generated for an item with the SKU: 'Magic Flexi-Wire Contoured Cup Nursing Bra Noir'. You need to specify the unique URL key manually"
CC-MNB-PETAL,,Default,simple,"Default Category/Nursing,Default Category/Nursing/Nursing Bras",base,"Magic Flexi-wire Contoured Cup Nursing Bra Petal",,,1,1,"Taxable Goods","Catalog, Search",270,,,,magic-flexi-wire-contoured-cup-nursing-bra-petal,,,,,,,,"Block after Info Column",,,,,,,,,,,"Use config",Thailand,"has_options=1,shipment_type=together,quantity_and_stock_status=In Stock,required_options=0",20,0,1,0,0,1,1,0,0,1,1,,1,0,1,1,0,1,0,0,1,0,1,,,,,,,,,,,,,,,,,,
CC-LPNB-NDE,,Default,simple,"Default Category/Nursing,Default Category/Nursing/Nursing Bras",base,"Lollypop Nursing Bra Nude",,,1,1,"Taxable Goods","Catalog, Search",195,,,,Lolly-Pop-Nursing-Bra,,,,,,,,"Block after Info Column",,,,,,,,,,,"Use config",Thailand,"has_options=0,quantity_and_stock_status=In Stock,required_options=0",20,0,1,0,0,1,1,0,0,1,1,,1,0,1,1,0,1,0,0,1,0,1,,,,,,,,,,,,,,,,,,"Url key: 'lolly-pop-nursing-bra.html' was already generated for an item with the SKU: 'Lolly Pop Nursing Bra'. You need to specify the unique URL key manually"
CC-MNB-BLK,,Default,simple,"Default Category/Nursing,Default Category/Nursing/Nursing Bras",base,"Mosaic Nursing Bra Black",,,1,1,"Taxable Goods","Catalog, Search",195,,,,Mosaic-Nursing-Bra-Black,,,,,,,,"Block after Info Column",,,,,,,,,,,"Use config",Thailand,"has_options=0,quantity_and_stock_status=In Stock,required_options=0",20,0,1,0,0,1,1,0,0,1,1,,1,0,1,1,0,1,0,0,1,0,1,,,,,,,,,,,,,,,,,,
CC-3DLNB-N,,Default,simple,"Default Category/Nursing,Default Category/Nursing/Nursing Bras",base,"3D Light Nursing Bra Nude",,,1,1,"Taxable Goods","Catalog, Search",220,,,,3d-light-nursing-bra-nude,,,,,,,,"Block after Info Column",,,,,,,,,,,"Use config",Thailand,"has_options=1,shipment_type=together,quantity_and_stock_status=In Stock,required_options=1",20,0,1,0,0,1,1,0,0,1,1,,1,0,1,1,0,1,0,0,1,0,1,,,,,,,,,,,,,,,,,,"Url key: '3d-light-nursing-bra-nude.html' was already generated for an item with the SKU: '3D Light Nursing Bra Nude'. You need to specify the unique URL key manually"
CC-DMNB-BLK,,Default,simple,"Default Category/Nursing,Default Category/Nursing/Nursing Bras",base,"Diamond Nursing Bra ",,,1,1,"Taxable Goods","Catalog, Search",245,,,,diamond-nursing-bra-black,,,,,,,,"Block after Info Column",,,,,,,,,,,"Use config",Thailand,"has_options=0,quantity_and_stock_status=In Stock,required_options=1",20,0,1,0,0,1,1,0,0,1,1,,1,0,1,1,0,1,0,0,1,0,1,,,,,,,,,,,,,,,,,,
CL-CTNB-T,,Default,simple,"Default Category/Nursing,Default Category/Nursing/Nursing Bras",base,"Convertible T- Shirt Nursing Bra Toffee",,,1,1,"Taxable Goods","Catalog, Search",195,,,,convertible-t-shirt-nursing-bra-toffee,,,,,,,,"Block after Info Column",,,,,,,,,,,"Use config",China,"has_options=1,quantity_and_stock_status=In Stock,required_options=4",20,0,1,0,0,1,1,0,0,1,1,,1,0,1,1,0,1,0,0,1,0,1,,,,,,,,,,,,,,,,,,"Url key: 'convertible-t-shirt-nursing-bra-toffee.html' was already generated for an item with the SKU: 'Convertible T- Shirt Nursing Bra Toffee'. You need to specify the unique URL key manually"
CL-PRONB-LEMZ,,Default,simple,"Default Category/Nursing,Default Category/Nursing/Nursing Bras",base,"Pro Impact Flexi-wire Nursing Sports Bra Lemon Zest",,,1,1,"Taxable Goods","Catalog, Search",315,,,,pro-impact-flexi-wire-nursing-sports-bra-lemon-zest,,,,,,,,"Block after Info Column",,,,,,,,,,,"Use config",China,"has_options=0,quantity_and_stock_status=In Stock,required_options=0",20,0,1,0,0,1,1,0,0,1,1,,1,0,1,1,0,1,0,0,1,0,1,,,,,,,,,,,,,,,,,,"Url key: 'pro-impact-flexi-wire-nursing-sports-bra-lemon-zest.html' was already generated for an item with the SKU: 'Pro Impact Flexi-Wire Nursing Sports Bra Lemon Zest'. You need to specify the unique URL key manually"
CK-MOUSSE-SLATE,,Default,simple,"Default Category/Nursing,Default Category/Nursing/Nursing Bras",base,"Mousse Padded Plunge Wireless Nursing Bra Slate",,,1,1,"Taxable Goods","Catalog, Search",240,,,,mousse-padded-plunge-wireless-nursing-bra-slate,,,,,,,,"Block after Info Column",,,,,,,,,,,"Use config",China,"has_options=0,quantity_and_stock_status=In Stock,required_options=0",20,0,1,0,0,1,1,0,0,1,1,,1,0,1,1,0,1,0,0,1,0,1,,,,,,,,,,,,,,,,,,
CK-CROISSANT-RAISIN,,Default,simple,"Default Category/Nursing,Default Category/Nursing/Nursing Bras",base,"Croissant Smoothing Flexi Wire Spacer Nursing Bra Raisin",,,1,1,"Taxable Goods","Catalog, Search",295,,,,croissant-smoothing-flexi-wire-spacer-nursing-bra-raisin,,,,,,,,"Block after Info Column",,,,,,,,,,,"Use config",China,"has_options=0,quantity_and_stock_status=In Stock,required_options=0",20,0,1,0,0,1,1,0,0,1,1,,1,0,1,1,0,1,0,0,1,0,1,,,,,,,,,,,,,,,,,,
CK-CROISSANT-RAISIN,,Default,simple,"Default Category/Nursing,Default Category/Nursing/Nursing Bras",base,"Croissant Smoothing Flexi Wire Spacer Nursing Bra Raisin",,,1,1,"Taxable Goods","Catalog, Search",295,,,,croissant-smoothing-flexi-wire-spacer-nursing-bra-raisin,,,,,,,,"Block after Info Column",,,,,,,,,,,"Use config",China,"has_options=1,quantity_and_stock_status=In Stock,required_options=2",20,0,1,0,0,1,1,0,0,1,1,,1,0,1,1,0,1,0,0,1,0,1,,,,,,,,,,,,,,,,,,"Url key: 'croissant-smoothing-flexi-wire-spacer-nursing-bra-raisin.html' was already generated for an item with the SKU: 'Croissant Smoothing Flexi Wire Spacer Nursing Bra Raisin'. You need to specify the unique URL key manually"
CK-TRUFFLE-BROWN,,Default,simple,"Default Category/Nursing,Default Category/Nursing/Nursing Bras",base,"Truffles Moulded Lace Cup Plunge Nursing Bra Brown",,,1,1,"Taxable Goods","Catalog, Search",255,,,,Truffles-Moulded-Lace-Cup-Plunge-Nursing-Bra-Brown,,,,,,,,"Block after Info Column",,,,,,,,,,,"Use config",China,"has_options=1,quantity_and_stock_status=In Stock,required_options=2",20,0,1,0,0,1,1,0,0,1,1,,1,0,1,1,0,1,0,0,1,0,1,,,,,,,,,,,,,,,,,,"Url key: 'truffles-moulded-lace-cup-plunge-nursing-bra-brown.html' was already generated for an item with the SKU: 'Truffles Moulded Lace Cup Plunge Nursing Bra Brown'. You need to specify the unique URL key manually"
EMI-CSNB-AUB,,Default,simple,"Default Category/Nursing,Default Category/Nursing/Nursing Bras",base,"Cloud Swing Nursing Bra Aubergine & Cream",,,1,1,"Taxable Goods","Catalog, Search",160,,,,Cloud-Swing-Nursing-Bra-Aubergine-&-Cream,,,,,,,,"Block after Info Column",,,,,,,,,,,"Use config",Italy,"has_options=0,quantity_and_stock_status=In Stock,required_options=0",20,0,1,0,0,1,1,0,0,1,1,,1,0,1,1,0,1,0,0,1,0,1,,,,,,,,,,,,,,,,,,
HM-ABHDNB,,Default,simple,"Default Category/Nursing,Default Category/Nursing/Nursing Bras",base,"Awakened By Her Desire Nursing Bra",,,1,1,"Taxable Goods","Catalog, Search",220,,,,Awakened-By-Her-Desire-Nursing-Bra,,,,,,,,"Block after Info Column",,,,,,,,,,,"Use config",China,"has_options=0,quantity_and_stock_status=In Stock,required_options=0",20,0,1,0,0,1,1,0,0,1,1,,1,0,1,1,0,1,0,0,1,0,1,,,,,,,,,,,,,,,,,,"Url key: 'awakened-by-her-desire-nursing-bra.html' was already generated for an item with the SKU: 'Awakened By Her Desire Nursing Bra'. You need to specify the unique URL key manually"
HM-HMCNB,,Default,simple,"Default Category/Nursing,Default Category/Nursing/Nursing Bras",base,"Her Midnight Charm Was Striking Nursing Bra",,,1,1,"Taxable Goods","Catalog, Search",220,,,,Her-Midnight-Charm-Was-Striking-Nursing-Bra,,,,,,,,"Block after Info Column",,,,,,,,,,,"Use config",China,"has_options=1,shipment_type=together,quantity_and_stock_status=In Stock,required_options=0",20,0,1,0,0,1,1,0,0,1,1,,1,0,1,1,0,1,0,0,1,0,1,,,,,,,,,,,,,,,,,,"Url key: 'her-midnight-charm-was-striking-nursing-bra.html' was already generated for an item with the SKU: 'Her Midnight Charm Was Striking Nursing Bra'. You need to specify the unique URL key manually"
HM-RIHRNB,,Default,simple,"Default Category/Nursing,Default Category/Nursing/Nursing Bras",base,"Radiant In Her Rescue Nursing Bra",,,1,1,"Taxable Goods","Catalog, Search",220,,,,Radiant-In-Her-Rescue-Nursing-Bra,,,,,,,,"Block after Info Column",,,,,,,,,,,"Use config",China,"has_options=1,shipment_type=together,quantity_and_stock_status=In Stock,required_options=0",20,0,1,0,0,1,1,0,0,1,1,,1,0,1,1,0,1,0,0,1,0,1,,,,,,,,,,,,,,,,,,"Url key: 'radiant-in-her-rescue-nursing-bra.html' was already generated for an item with the SKU: 'Radiant In Her Rescue Nursing Bra'. You need to specify the unique URL key manually"
HM-TBHSNB,,Default,simple,"Default Category/Nursing,Default Category/Nursing/Nursing Bras",base,"Tamed by Her Sensuality Nursing Bra Black",,,1,1,"Taxable Goods","Catalog, Search",220,,,,Tamed-by-Her-Sensuality-Nursing-Bra-Black,,,,,,,,"Block after Info Column",,,,,,,,,,,"Use config",China,"has_options=0,quantity_and_stock_status=In Stock,required_options=0",20,0,1,0,0,1,1,0,0,1,1,,1,0,1,1,0,1,0,0,1,0,1,,,,,,,,,,,,,,,,,,"Url key: 'tamed-by-her-sensuality-nursing-bra-black.html' was already generated for an item with the SKU: 'Tamed By Her Sensuality Nursing Bra Black'. You need to specify the unique URL key manually"
SM-ELNB-PRM,,Default,simple,"Default Category/Nursing,Default Category/Nursing/Nursing Bras",base,"Elsa Endearing Nursing Bra Primrose",,,1,1,"Taxable Goods","Catalog, Search",315,,,,Elsa-Endearing-Nursing-Bra-Primrose,,,,,,,,"Block after Info Column",,,,,,,,,,,"Use config",China,"has_options=0,quantity_and_stock_status=In Stock,required_options=0",20,0,1,0,0,1,1,0,0,1,1,,1,0,1,1,0,1,0,0,1,0,1,,,,,,,,,,,,,,,,,,"Url key: 'elsa-endearing-nursing-bra-primrose.html' was already generated for an item with the SKU: 'Elsa Endearing Nursing Bra Primrose'. You need to specify the unique URL key manually"
8.46464E+11,,Default,simple,"Default Category/Nursing,Default Category/Nursing/Nursing Bras",base,"Mousse Padded Plunge Non Wire Nursing Bra Beige 34B",,,1,1,"Taxable Goods","Catalog, Search",255,,,,mousse-padded-plunge-wireless-nursing-bra-beige,,,,,,,,"Block after Info Column",,,,,,,,,,,"Use config",Australia,"has_options=1,shipment_type=together,quantity_and_stock_status=In Stock,required_options=2",20,0,1,0,0,1,1,0,0,1,1,,1,0,1,1,0,1,0,0,1,0,1,,,,,,,,,,,,,,,,,,
8.46464E+11,,Default,simple,"Default Category/Nursing,Default Category/Nursing/Nursing Bras",base,"Mousse Padded Plunge Non Wire Nursing Bra Beige 34D",,,1,1,"Taxable Goods","Catalog, Search",255,,,,mousse-padded-plunge-wireless-nursing-bra-beige,,,,,,,,"Block after Info Column",,,,,,,,,,,"Use config",Australia,"has_options=0,quantity_and_stock_status=In Stock,required_options=2",20,0,1,0,0,1,1,0,0,1,1,,1,0,1,1,0,1,0,0,1,0,1,,,,,,,,,,,,,,,,,,
8.46464E+11,,Default,simple,"Default Category/Nursing,Default Category/Nursing/Nursing Bras",base,"Mousse Padded Plunge Non Wire Nursing Bra Beige 34DD",,,1,1,"Taxable Goods","Catalog, Search",255,,,,mousse-padded-plunge-wireless-nursing-bra-beige,,,,,,,,"Block after Info Column",,,,,,,,,,,"Use config",Australia,"has_options=1,quantity_and_stock_status=In Stock,required_options=5",20,0,1,0,0,1,1,0,0,1,1,,1,0,1,1,0,1,0,0,1,0,1,,,,,,,,,,,,,,,,,,
8.46464E+11,,Default,simple,"Default Category/Nursing,Default Category/Nursing/Nursing Bras",base,"Mousse Padded Plunge Non Wire Nursing Bra Beige 36B",,,1,1,"Taxable Goods","Catalog, Search",255,,,,mousse-padded-plunge-wireless-nursing-bra-beige,,,,,,,,"Block after Info Column",,,,,,,,,,,"Use config",Australia,"has_options=0,quantity_and_stock_status=In Stock,required_options=0",20,0,1,0,0,1,1,0,0,1,1,,1,0,1,1,0,1,0,0,1,0,1,,,,,,,,,,,,,,,,,,
8.46464E+11,,Default,simple,"Default Category/Nursing,Default Category/Nursing/Nursing Bras",base,"Mousse Padded Plunge Non Wire Nursing Bra Beige 36C",,,1,1,"Taxable Goods","Catalog, Search",255,,,,mousse-padded-plunge-wireless-nursing-bra-beige/,,,,,,,,"Block after Info Column",,,,,,,,,,,"Use config",Australia,"has_options=0,quantity_and_stock_status=In Stock,required_options=0",20,0,1,0,0,1,1,0,0,1,1,,1,0,1,1,0,1,0,0,1,0,1,,,,,,,,,,,,,,,,,,
8.46464E+11,,Default,simple,"Default Category/Nursing,Default Category/Nursing/Nursing Bras",base,"Mousse Padded Plunge Non Wire Nursing Bra Beige 36D",,,1,1,"Taxable Goods","Catalog, Search",255,,,,mousse-padded-plunge-wireless-nursing-bra-beige,,,,,,,,"Block after Info Column",,,,,,,,,,,"Use config",Australia,"has_options=0,quantity_and_stock_status=In Stock,required_options=0",20,0,1,0,0,1,1,0,0,1,1,,1,0,1,1,0,1,0,0,1,0,1,,,,,,,,,,,,,,,,,,
8.46464E+11,,Default,simple,"Default Category/Nursing,Default Category/Nursing/Nursing Bras",base,"Mousse Padded Plunge Non Wire Nursing Bra Beige 38C",,,1,1,"Taxable Goods","Catalog, Search",255,,,,mousse-padded-plunge-wireless-nursing-bra-beige,,,,,,,,"Block after Info Column",,,,,,,,,,,"Use config",Australia,"has_options=1,quantity_and_stock_status=In Stock,required_options=3",20,0,1,0,0,1,1,0,0,1,1,,1,0,1,1,0,1,0,0,1,0,1,,,,,,,,,,,,,,,,,,
8.46464E+11,,Default,simple,"Default Category/Nursing,Default Category/Nursing/Nursing Bras",base,"Mousse Padded Plunge Non Wire Nursing Bra Beige 38D",,,1,1,"Taxable Goods","Catalog, Search",255,,,,mousse-padded-plunge-wireless-nursing-bra-black,,,,,,,,"Block after Info Column",,,,,,,,,,,"Use config",Australia,"has_options=1,quantity_and_stock_status=In Stock,required_options=3",20,0,1,0,0,1,1,0,0,1,1,,1,0,1,1,0,1,0,0,1,0,1,,,,,,,,,,,,,,,,,,
8.46464E+11,,Default,simple,"Default Category/Nursing,Default Category/Nursing/Nursing Bras",base,"Mousse Padded Plunge Non Wire Nursing Bra Rose 34B",,,1,1,"Taxable Goods","Catalog, Search",255,,,,mousse-padded-plunge-wireless-nursing-bra-pink,,,,,,,,"Block after Info Column",,,,,,,,,,,"Use config",Australia,"has_options=0,quantity_and_stock_status=In Stock,required_options=0",20,0,1,0,0,1,1,0,0,1,1,,1,0,1,1,0,1,0,0,1,0,1,,,,,,,,,,,,,,,,,,
8.46464E+11,,Default,simple,"Default Category/Nursing,Default Category/Nursing/Nursing Bras",base,"Mousse Padded Plunge Non Wire Nursing Bra Rose 34C",,,1,1,"Taxable Goods","Catalog, Search",255,,,,mousse-padded-plunge-wireless-nursing-bra-pink,,,,,,,,"Block after Info Column",,,,,,,,,,,"Use config",Australia,"has_options=0,quantity_and_stock_status=In Stock,required_options=0",20,0,1,0,0,1,1,0,0,1,1,,1,0,1,1,0,1,0,0,1,0,1,,,,,,,,,,,,,,,,,,
8.46464E+11,,Default,simple,"Default Category/Nursing,Default Category/Nursing/Nursing Bras",base,"Mousse Padded Plunge Non Wire Nursing Bra Rose 34D",,,1,1,"Taxable Goods","Catalog, Search",255,,,,mousse-padded-plunge-wireless-nursing-bra-pink,,,,,,,,"Block after Info Column",,,,,,,,,,,"Use config",Australia,"has_options=1,shipment_type=together,quantity_and_stock_status=In Stock,required_options=0",20,0,1,0,0,1,1,0,0,1,1,,1,0,1,1,0,1,0,0,1,0,1,,,,,,,,,,,,,,,,,,
8.46464E+11,,Default,simple,"Default Category/Nursing,Default Category/Nursing/Nursing Bras",base,"Mousse Padded Plunge Non Wire Nursing Bra Rose 34DD",,,1,1,"Taxable Goods","Catalog, Search",255,,,,mousse-padded-plunge-wireless-nursing-bra-pink,,,,,,,,"Block after Info Column",,,,,,,,,,,"Use config",Australia,"has_options=1,shipment_type=together,quantity_and_stock_status=In Stock,required_options=0",20,0,1,0,0,1,1,0,0,1,1,,1,0,1,1,0,1,0,0,1,0,1,,,,,,,,,,,,,,,,,,
8.46464E+11,,Default,simple,"Default Category/Nursing,Default Category/Nursing/Nursing Bras",base,"Mousse Padded Plunge Non Wire Nursing Bra Rose 36B",,,1,1,"Taxable Goods","Catalog, Search",255,,,,mousse-padded-plunge-wireless-nursing-bra-pink,,,,,,,,"Block after Info Column",,,,,,,,,,,"Use config",Australia,"has_options=0,quantity_and_stock_status=In Stock,required_options=0",20,0,1,0,0,1,1,0,0,1,1,,1,0,1,1,0,1,0,0,1,0,1,,,,,,,,,,,,,,,,,,
8.46464E+11,,Default,simple,"Default Category/Nursing,Default Category/Nursing/Nursing Bras",base,"Mousse Padded Plunge Non Wire Nursing Bra Rose 36C",,,1,1,"Taxable Goods","Catalog, Search",255,,,,mousse-padded-plunge-wireless-nursing-bra-pink,,,,,,,,"Block after Info Column",,,,,,,,,,,"Use config",Australia,"has_options=0,quantity_and_stock_status=In Stock,required_options=0",20,0,1,0,0,1,1,0,0,1,1,,1,0,1,1,0,1,0,0,1,0,1,,,,,,,,,,,,,,,,,,
8.46464E+11,,Default,simple,"Default Category/Nursing,Default Category/Nursing/Nursing Bras",base,"Mousse Padded Plunge Non Wire Nursing Bra Rose 36D",,,1,1,"Taxable Goods","Catalog, Search",255,,,,mousse-padded-plunge-wireless-nursing-bra-pink,,,,,,,,"Block after Info Column",,,,,,,,,,,"Use config",Australia,"has_options=1,shipment_type=together,quantity_and_stock_status=In Stock,required_options=3",20,0,1,0,0,1,1,0,0,1,1,,1,0,1,1,0,1,0,0,1,0,1,,,,,,,,,,,,,,,,,,
8.46464E+11,,Default,simple,"Default Category/Nursing,Default Category/Nursing/Nursing Bras",base,"Mousse Padded Plunge Non Wire Nursing Bra Rose 36DD",,,1,1,"Taxable Goods","Catalog, Search",255,,,,mousse-padded-plunge-wireless-nursing-bra-pink,,,,,,,,"Block after Info Column",,,,,,,,,,,"Use config",Australia,"has_options=0,quantity_and_stock_status=In Stock,required_options=3",20,0,1,0,0,1,1,0,0,1,1,,1,0,1,1,0,1,0,0,1,0,1,,,,,,,,,,,,,,,,,,
8.46464E+11,,Default,simple,"Default Category/Nursing,Default Category/Nursing/Nursing Bras",base,"Mousse Padded Plunge Non Wire Nursing Bra Rose 38C",,,1,1,"Taxable Goods","Catalog, Search",255,,,,mousse-padded-plunge-wireless-nursing-bra-pink,,,,,,,,"Block after Info Column",,,,,,,,,,,"Use config",Australia,"has_options=1,quantity_and_stock_status=In Stock,required_options=6",20,0,1,0,0,1,1,0,0,1,1,,1,0,1,1,0,1,0,0,1,0,1,,,,,,,,,,,,,,,,,,
8.46464E+11,,Default,simple,"Default Category/Nursing,Default Category/Nursing/Nursing Bras",base,"Mousse Padded Plunge Non Wire Nursing Bra Rose 38D",,,1,1,"Taxable Goods","Catalog, Search",255,,,,mousse-padded-plunge-wireless-nursing-bra-pink,,,,,,,,"Block after Info Column",,,,,,,,,,,"Use config",Australia,"has_options=0,quantity_and_stock_status=In Stock,required_options=0",20,0,1,0,0,1,1,0,0,1,1,,1,0,1,1,0,1,0,0,1,0,1,,,,,,,,,,,,,,,,,,
8.46464E+11,,Default,simple,"Default Category/Nursing,Default Category/Nursing/Nursing Bras",base,"Mousse Padded Plunge Non Wire Nursing Bra Black 34B",,,1,1,"Taxable Goods","Catalog, Search",255,,,,mousse-padded-plunge-wireless-nursing-bra-black,,,,,,,,"Block after Info Column",,,,,,,,,,,"Use config",Australia,"has_options=0,quantity_and_stock_status=In Stock,required_options=0",20,0,1,0,0,1,1,0,0,1,1,,1,0,1,1,0,1,0,0,1,0,1,,,,,,,,,,,,,,,,,,
8.46464E+11,,Default,simple,"Default Category/Nursing,Default Category/Nursing/Nursing Bras",base,"Mousse Padded Plunge Non Wire Nursing Bra Black 34D",,,1,1,"Taxable Goods","Catalog, Search",255,,,,mousse-padded-plunge-wireless-nursing-bra-black,,,,,,,,"Block after Info Column",,,,,,,,,,,"Use config",Australia,"has_options=0,quantity_and_stock_status=In Stock,required_options=0",20,0,1,0,0,1,1,0,0,1,1,,1,0,1,1,0,1,0,0,1,0,1,,,,,,,,,,,,,,,,,,
8.46464E+11,,Default,simple,"Default Category/Nursing,Default Category/Nursing/Nursing Bras",base,"Mousse Padded Plunge Non Wire Nursing Bra Black 34DD",,,1,1,"Taxable Goods","Catalog, Search",255,,,,mousse-padded-plunge-wireless-nursing-bra-black,,,,,,,,"Block after Info Column",,,,,,,,,,,"Use config",Australia,"has_options=1,quantity_and_stock_status=In Stock,required_options=4",20,0,1,0,0,1,1,0,0,1,1,,1,0,1,1,0,1,0,0,1,0,1,,,,,,,,,,,,,,,,,,
8.46464E+11,,Default,simple,"Default Category/Nursing,Default Category/Nursing/Nursing Bras",base,"Mousse Padded Plunge Non Wire Nursing Bra Black 36B",,,1,1,"Taxable Goods","Catalog, Search",255,,,,mousse-padded-plunge-wireless-nursing-bra-black,,,,,,,,"Block after Info Column",,,,,,,,,,,"Use config",Australia,"has_options=1,quantity_and_stock_status=In Stock,required_options=4",20,0,1,0,0,1,1,0,0,1,1,,1,0,1,1,0,1,0,0,1,0,1,,,,,,,,,,,,,,,,,,
8.46464E+11,,Default,simple,"Default Category/Nursing,Default Category/Nursing/Nursing Bras",base,"Mousse Padded Plunge Non Wire Nursing Bra Black 36C",,,1,1,"Taxable Goods","Catalog, Search",255,,,,mousse-padded-plunge-wireless-nursing-bra-black,,,,,,,,"Block after Info Column",,,,,,,,,,,"Use config",Australia,"has_options=0,quantity_and_stock_status=In Stock,required_options=0",20,0,1,0,0,1,1,0,0,1,1,,1,0,1,1,0,1,0,0,1,0,1,,,,,,,,,,,,,,,,,,
8.46464E+11,,Default,simple,"Default Category/Nursing,Default Category/Nursing/Nursing Bras",base,"Mousse Padded Plunge Non Wire Nursing Bra Black 36D",,,1,1,"Taxable Goods","Catalog, Search",255,,,,mousse-padded-plunge-wireless-nursing-bra-black,,,,,,,,"Block after Info Column",,,,,,,,,,,"Use config",Australia,"has_options=0,quantity_and_stock_status=In Stock,required_options=0",20,0,1,0,0,1,1,0,0,1,1,,1,0,1,1,0,1,0,0,1,0,1,,,,,,,,,,,,,,,,,,
8.46464E+11,,Default,simple,"Default Category/Nursing,Default Category/Nursing/Nursing Bras",base,"Mousse Padded Plunge Non Wire Nursing Bra Black 38C",,,1,1,"Taxable Goods","Catalog, Search",255,,,,mousse-padded-plunge-wireless-nursing-bra-black,,,,,,,,"Block after Info Column",,,,,,,,,,,"Use config",Australia,"has_options=1,shipment_type=together,quantity_and_stock_status=In Stock,required_options=0",20,0,1,0,0,1,1,0,0,1,1,,1,0,1,1,0,1,0,0,1,0,1,,,,,,,,,,,,,,,,,,
8.46464E+11,,Default,simple,"Default Category/Nursing,Default Category/Nursing/Nursing Bras",base,"Waffles Bra Oyster Pink 34B",,,1,1,"Taxable Goods","Catalog, Search",280,,,,waffles-3d-spacer-contour-nursing-bra-pink,,,,,,,,"Block after Info Column",,,,,,,,,,,"Use config",Australia,"has_options=1,shipment_type=together,quantity_and_stock_status=In Stock,required_options=0",20,0,1,0,0,1,1,0,0,1,1,,1,0,1,1,0,1,0,0,1,0,1,,,,,,,,,,,,,,,,,,
8.46464E+11,,Default,simple,"Default Category/Nursing,Default Category/Nursing/Nursing Bras",base,"Waffles Bra Oyster Pink 36B",,,1,1,"Taxable Goods","Catalog, Search",280,,,,waffles-3d-spacer-contour-nursing-bra-pink,,,,,,,,"Block after Info Column",,,,,,,,,,,"Use config",Australia,"has_options=0,quantity_and_stock_status=In Stock,required_options=0",20,0,1,0,0,1,1,0,0,1,1,,1,0,1,1,0,1,0,0,1,0,1,,,,,,,,,,,,,,,,,,
8.46464E+11,,Default,simple,"Default Category/Nursing,Default Category/Nursing/Nursing Bras",base,"Waffles Bra Oyster Pink 36C",,,1,1,"Taxable Goods","Catalog, Search",280,,,,waffles-3d-spacer-contour-nursing-bra-pink,,,,,,,,"Block after Info Column",,,,,,,,,,,"Use config",Australia,"has_options=0,quantity_and_stock_status=In Stock,required_options=0",20,0,1,0,0,1,1,0,0,1,1,,1,0,1,1,0,1,0,0,1,0,1,,,,,,,,,,,,,,,,,,
8.46464E+11,,Default,simple,"Default Category/Nursing,Default Category/Nursing/Nursing Bras",base,"Waffles Bra Oyster Pink 36D",,,1,1,"Taxable Goods","Catalog, Search",280,,,,waffles-3d-spacer-contour-nursing-bra-pink,,,,,,,,"Block after Info Column",,,,,,,,,,,"Use config",Australia,"has_options=1,shipment_type=together,quantity_and_stock_status=In Stock,required_options=4",20,0,1,0,0,1,1,0,0,1,1,,1,0,1,1,0,1,0,0,1,0,1,,,,,,,,,,,,,,,,,,
8.46464E+11,,Default,simple,"Default Category/Nursing,Default Category/Nursing/Nursing Bras",base,"Waffles Bra Oyster Pink 38C",,,1,1,"Taxable Goods","Catalog, Search",280,,,,waffles-3d-spacer-contour-nursing-bra-pink,,,,,,,,"Block after Info Column",,,,,,,,,,,"Use config",Australia,"has_options=0,quantity_and_stock_status=In Stock,required_options=4",20,0,1,0,0,1,1,0,0,1,1,,1,0,1,1,0,1,0,0,1,0,1,,,,,,,,,,,,,,,,,,
8.46464E+11,,Default,simple,"Default Category/Nursing,Default Category/Nursing/Nursing Bras",base,"Waffles Bra Oyster Pink 38D",,,1,1,"Taxable Goods","Catalog, Search",280,,,,waffles-3d-spacer-contour-nursing-bra-pink,,,,,,,,"Block after Info Column",,,,,,,,,,,"Use config",Australia,"has_options=1,quantity_and_stock_status=In Stock,required_options=7",20,0,1,0,0,1,1,0,0,1,1,,1,0,1,1,0,1,0,0,1,0,1,,,,,,,,,,,,,,,,,,"Url key: 'waffles-3d-spacer-contour-nursing-bra-pink.html' was already generated for an item with the SKU: 'Waffles 3d Spacer Contour Nursing Bra (Pink)'. You need to specify the unique URL key manually"
8.46464E+11,,Default,simple,"Default Category/Nursing,Default Category/Nursing/Nursing Bras",base,"Waffles Bra Buttermilk 34B",,,1,1,"Taxable Goods","Catalog, Search",280,,,,waffles-3d-spacer-contour-nursing-bra-beige,,,,,,,,"Block after Info Column",,,,,,,,,,,"Use config",Australia,"has_options=0,quantity_and_stock_status=In Stock,required_options=0",20,0,1,0,0,1,1,0,0,1,1,,1,0,1,1,0,1,0,0,1,0,1,,,,,,,,,,,,,,,,,,
8.46464E+11,,Default,simple,"Default Category/Nursing,Default Category/Nursing/Nursing Bras",base,"Waffles Bra Buttermilk 34C",,,1,1,"Taxable Goods","Catalog, Search",280,,,,waffles-3d-spacer-contour-nursing-bra-beige,,,,,,,,"Block after Info Column",,,,,,,,,,,"Use config",Australia,"has_options=0,quantity_and_stock_status=In Stock,required_options=0",20,0,1,0,0,1,1,0,0,1,1,,1,0,1,1,0,1,0,0,1,0,1,,,,,,,,,,,,,,,,,,
8.46464E+11,,Default,simple,"Default Category/Nursing,Default Category/Nursing/Nursing Bras",base,"Waffles Bra Buttermilk 34D",,,1,1,"Taxable Goods","Catalog, Search",280,,,,waffles-3d-spacer-contour-nursing-bra-beige,,,,,,,,"Block after Info Column",,,,,,,,,,,"Use config",Australia,"has_options=0,quantity_and_stock_status=In Stock,required_options=0",20,0,1,0,0,1,1,0,0,1,1,,1,0,1,1,0,1,0,0,1,0,1,,,,,,,,,,,,,,,,,,
8.46464E+11,,Default,simple,"Default Category/Nursing,Default Category/Nursing/Nursing Bras",base,"Waffles Bra Buttermilk 36B",,,1,1,"Taxable Goods","Catalog, Search",280,,,,waffles-3d-spacer-contour-nursing-bra-beige,,,,,,,,"Block after Info Column",,,,,,,,,,,"Use config",Australia,"has_options=1,quantity_and_stock_status=In Stock,required_options=5",20,0,1,0,0,1,1,0,0,1,1,,1,0,1,1,0,1,0,0,1,0,1,,,,,,,,,,,,,,,,,,"Url key: 'waffles-3d-spacer-contour-nursing-bra-beige.html' was already generated for an item with the SKU: 'Waffles 3d Spacer Contour Nursing Bra (Beige)'. You need to specify the unique URL key manually"
8.46464E+11,,Default,simple,"Default Category/Nursing,Default Category/Nursing/Nursing Bras",base,"Waffles Bra Black 34B",,,1,1,"Taxable Goods","Catalog, Search",280,,,,waffles-3d-spacer-contour-nursing-bra-black,,,,,,,,"Block after Info Column",,,,,,,,,,,"Use config",Australia,"has_options=1,quantity_and_stock_status=In Stock,required_options=5",20,0,1,0,0,1,1,0,0,1,1,,1,0,1,1,0,1,0,0,1,0,1,,,,,,,,,,,,,,,,,,
8.46464E+11,,Default,simple,"Default Category/Nursing,Default Category/Nursing/Nursing Bras",base,"Waffles Bra Black 34D",,,1,1,"Taxable Goods","Catalog, Search",280,,,,waffles-3d-spacer-contour-nursing-bra-black,,,,,,,,"Block after Info Column",,,,,,,,,,,"Use config",Australia,"has_options=0,quantity_and_stock_status=In Stock,required_options=0",20,0,1,0,0,1,1,0,0,1,1,,1,0,1,1,0,1,0,0,1,0,1,,,,,,,,,,,,,,,,,,
8.46464E+11,,Default,simple,"Default Category/Nursing,Default Category/Nursing/Nursing Bras",base,"Waffles Bra Black 36B",,,1,1,"Taxable Goods","Catalog, Search",280,,,,waffles-3d-spacer-contour-nursing-bra-black,,,,,,,,"Block after Info Column",,,,,,,,,,,"Use config",Australia,"has_options=0,quantity_and_stock_status=In Stock,required_options=0",20,0,1,0,0,1,1,0,0,1,1,,1,0,1,1,0,1,0,0,1,0,1,,,,,,,,,,,,,,,,,,
8.46464E+11,,Default,simple,"Default Category/Nursing,Default Category/Nursing/Nursing Bras",base,"Waffles Bra Black 36D",,,1,1,"Taxable Goods","Catalog, Search",280,,,,waffles-3d-spacer-contour-nursing-bra-black,,,,,,,,"Block after Info Column",,,,,,,,,,,"Use config",Australia,"has_options=1,shipment_type=together,quantity_and_stock_status=In Stock,required_options=0",20,0,1,0,0,1,1,0,0,1,1,,1,0,1,1,0,1,0,0,1,0,1,,,,,,,,,,,,,,,,,,
8.46464E+11,,Default,simple,"Default Category/Nursing,Default Category/Nursing/Nursing Bras",base,"Waffles Bra Black 38D",,,1,1,"Taxable Goods","Catalog, Search",280,,,,waffles-3d-spacer-contour-nursing-bra-black,,,,,,,,"Block after Info Column",,,,,,,,,,,"Use config",Australia,"has_options=1,shipment_type=together,quantity_and_stock_status=In Stock,required_options=0",20,0,1,0,0,1,1,0,0,1,1,,1,0,1,1,0,1,0,0,1,0,1,,,,,,,,,,,,,,,,,,"Url key: 'waffles-3d-spacer-contour-nursing-bra-black.html' was already generated for an item with the SKU: 'Waffles 3d Spacer Contour Nursing Bra (Black)'. You need to specify the unique URL key manually"
SF1210,,Default,simple,"Default Category/Lingerie,Default Category/Lingerie/Maternity Bras",base,"Seamless Maternity and Nursing Bra Illusion - Black",,,1,1,"Taxable Goods","Catalog, Search",210,,,,seamless-maternity-and-nursing-bra-illusion-black,,,,,,,,"Block after Info Column",,,,,,,,,,,"Use config",,"has_options=0,quantity_and_stock_status=In Stock,required_options=0",20,0,1,0,0,1,1,0,0,1,1,,1,0,1,1,0,1,0,0,1,0,1,,,,,,,,,,,,,,,,,,"Url key: 'seamless-maternity-and-nursing-bra-illusion-black.html' was already generated for an item with the SKU: 'Seamless Maternity And Nursing Bra Illusion - Black'. You need to specify the unique URL key manually"
"EP800EN   ",,Default,simple,"Default Category/Nursing,Default Category/Nursing/Nursing Accessories",base,"4 Essential Plus Day Washable Nursing Pads",,,1,1,"Taxable Goods","Catalog, Search",105,,,,4-essential-plus-day-washable-nursing-pads,,,,,,,,"Block after Info Column",,,,,,,,,,,"Use config",,"has_options=0,quantity_and_stock_status=In Stock,required_options=0",20,0,1,0,0,1,1,0,0,1,1,,1,0,1,1,0,1,0,0,1,0,1,,,,,,,,,,,,,,,,,,"Url key: '4-essential-plus-day-washable-nursing-pads.html' was already generated for an item with the SKU: '4 Essential Plus Day Washable Nursing Pads'. You need to specify the unique URL key manually"
SF1610,,Default,simple,"Default Category/Lingerie,Default Category/Lingerie/Maternity Bras",base,"Maternity and Nursing Bra Serenity - Black",,,1,1,"Taxable Goods","Catalog, Search",185,,,,maternity-and-nursing-bra-serenity-black,,,,,,,,"Block after Info Column",,,,,,,,,,,"Use config",,"has_options=1,shipment_type=together,quantity_and_stock_status=In Stock,required_options=5",20,0,1,0,0,1,1,0,0,1,1,,1,0,1,1,0,1,0,0,1,0,1,,,,,,,,,,,,,,,,,,"Url key: 'maternity-and-nursing-bra-serenity-black.html' was already generated for an item with the SKU: 'Maternity And Nursing Bra Serenity - Black'. You need to specify the unique URL key manually"
SF510,,Default,simple,"Default Category/Lingerie,Default Category/Lingerie/Maternity Bras",base,"Maternity and Nursing Bra Mosaic - Mandarine",,,1,1,"Taxable Goods","Catalog, Search",245,,,,maternity-and-nursing-bra-mosaic-mandarine,,,,,,,,"Block after Info Column",,,,,,,,,,,"Use config",,"has_options=0,quantity_and_stock_status=In Stock,required_options=5",20,0,1,0,0,1,1,0,0,1,1,,1,0,1,1,0,1,0,0,1,0,1,,,,,,,,,,,,,,,,,,"Url key: 'maternity-and-nursing-bra-mosaic-mandarine.html' was already generated for an item with the SKU: 'Maternity And Nursing Bra Mosaic - Mandarine'. You need to specify the unique URL key manually"
SF811,,Default,simple,"Default Category/Lingerie,Default Category/Lingerie/Maternity Bras",base,"Serena Maternity and Nursing Bra  - Blush",,,1,1,"Taxable Goods","Catalog, Search",250,,,,serena-maternity-and-nursing-bra-blush,,,,,,,,"Block after Info Column",,,,,,,,,,,"Use config",,"has_options=1,quantity_and_stock_status=In Stock,required_options=8",20,0,1,0,0,1,1,0,0,1,1,,1,0,1,1,0,1,0,0,1,0,1,,,,,,,,,,,,,,,,,,"Url key: 'serena-maternity-and-nursing-bra-blush.html' was already generated for an item with the SKU: 'Serena Maternity And Nursing Bra - Blush'. You need to specify the unique URL key manually"
SF704,,Default,simple,"Default Category/Lingerie,Default Category/Lingerie/Maternity Bras",base,"Maternity and Nursing Bra Iris - Black",,,1,1,"Taxable Goods","Catalog, Search",265,,,,maternity-and-nursing-bra-iris-black,,,,,,,,"Block after Info Column",,,,,,,,,,,"Use config",,"has_options=0,quantity_and_stock_status=In Stock,required_options=0",20,0,1,0,0,1,1,0,0,1,1,,1,0,1,1,0,1,0,0,1,0,1,,,,,,,,,,,,,,,,,,"Url key: 'maternity-and-nursing-bra-iris-black.html' was already generated for an item with the SKU: 'Maternity And Nursing Bra Iris - Black'. You need to specify the unique URL key manually"
SG910,,Default,simple,"Default Category/Lingerie,Default Category/Lingerie/Maternity Bras",base,"Maternity and Nursing Bra Lisa - Black",,,1,1,"Taxable Goods","Catalog, Search",260,,,,maternity-and-nursing-bra-lisa-black,,,,,,,,"Block after Info Column",,,,,,,,,,,"Use config",,"has_options=0,quantity_and_stock_status=In Stock,required_options=0",20,0,1,0,0,1,1,0,0,1,1,,1,0,1,1,0,1,0,0,1,0,1,,,,,,,,,,,,,,,,,,"Url key: 'maternity-and-nursing-bra-lisa-black.html' was already generated for an item with the SKU: 'Maternity And Nursing Bra Lisa - Black'. You need to specify the unique URL key manually"
SF1220,,Default,simple,"Default Category/Lingerie,Default Category/Lingerie/Maternity Bras",base,"Maternity and Nursing Bra Signature - Natural",,,1,1,"Taxable Goods","Catalog, Search",225,,,,maternity-and-nursing-bra-signature-natural,,,,,,,,"Block after Info Column",,,,,,,,,,,"Use config",,"has_options=0,quantity_and_stock_status=In Stock,required_options=0",20,0,1,0,0,1,1,0,0,1,1,,1,0,1,1,0,1,0,0,1,0,1,,,,,,,,,,,,,,,,,,"Url key: 'maternity-and-nursing-bra-signature-natural.html' was already generated for an item with the SKU: 'Maternity And Nursing Bra Signature - Natural'. You need to specify the unique URL key manually"
SF1901,,Default,simple,"Default Category/Lingerie,Default Category/Lingerie/Maternity Bras",base,"Maternity and Nursing Seemless Bra Milk - Bordeaux",,,1,1,"Taxable Goods","Catalog, Search",225,,,,maternity-and-nursing-seemless-bra-milk-bordeaux,,,,,,,,"Block after Info Column",,,,,,,,,,,"Use config",,"has_options=1,quantity_and_stock_status=In Stock,required_options=6",20,0,1,0,0,1,1,0,0,1,1,,1,0,1,1,0,1,0,0,1,0,1,,,,,,,,,,,,,,,,,,
SG1901,,Default,simple,"Default Category/Lingerie,Default Category/Lingerie/Maternity Bras",base,"Maternity and Nursing Bra Milk - Green",,,1,1,"Taxable Goods","Catalog, Search",250,,,,maternity-and-nursing-bra-milk-green,,,,,,,,"Block after Info Column",,,,,,,,,,,"Use config",,"has_options=1,quantity_and_stock_status=In Stock,required_options=6",20,0,1,0,0,1,1,0,0,1,1,,1,0,1,1,0,1,0,0,1,0,1,,,,,,,,,,,,,,,,,,"Url key: 'maternity-and-nursing-bra-milk-green.html' was already generated for an item with the SKU: 'Maternity And Nursing Bra Milk - Green'. You need to specify the unique URL key manually"
