sku,name,description,short_description,price,weight,qty,base_image,small_image,thumbnail_image,store_view_code,attribute_set_code,product_type,categories,product_websites,product_online,tax_class_name,visibility,special_price,special_price_from_date,special_price_to_date,url_key,meta_title,meta_keywords,meta_description,created_at,updated_at,new_from_date,new_to_date,display_product_options_in,map_price,msrp_price,map_enabled,gift_message_available,custom_design,custom_design_from,custom_design_to,custom_layout_update,page_layout,product_options_container,msrp_display_actual_price_type,country_of_manufacture,additional_attributes,out_of_stock_qty,use_config_min_qty,is_qty_decimal,allow_backorders,use_config_backorders,min_cart_qty,use_config_min_sale_qty,max_cart_qty,use_config_max_sale_qty,is_in_stock,notify_on_stock_below,use_config_notify_stock_qty,manage_stock,use_config_manage_stock,use_config_qty_increments,qty_increments,use_config_enable_qty_inc,enable_qty_increments,is_decimal_divided,website_id,deferred_stock_update,use_config_deferred_stock_update,related_skus,crosssell_skus,upsell_skus,hide_from_product_page,custom_options,bundle_price_type,bundle_sku_type,bundle_price_view,bundle_weight_type,bundle_values,associated_skus
OOPAJNAT,Olen Organic Piha Footed Pajama - Natural ,<p>Olen Organic Piha Pajama - Natural&nbsp; (for boys and girls)</p>,<p>100% GOTS-certified organic cotton printed with gentle water-based inks and finished with nickel-free snaps. Made in California</p>,157.5,0.1,10,https://www.blushandbloom.com/shop/images/images_big/Olen_Organics_Piha_Pajama_-_Natural.jpg,https://www.blushandbloom.com/shop/images/images_big/Olen_Organics_Piha_Pajama_-_Natural.jpg,https://www.blushandbloom.com/shop/images/images_big/Olen_Organics_Piha_Pajama_-_Natural.jpg,,Default,simple,,base,1,Taxable Goods,"Catalog, Search",,,,,,,,,,,,Block after Info Column,,,,,,,,,,,Use config,,"has_options=1,quantity_and_stock_status=In Stock,required_options=10",0,1,0,0,1,1,0,0,1,1,,1,0,1,1,0,1,0,0,1,0,1,,,,,,,,,,,
OOPAJGRN,Olen Organic Piha Footed Pajama - Tea Green ,<p>Olen Organic Piha Pajama - Tea Green (for boys and girls)</p>,<p>100% GOTS-certified organic cotton printed with gentle water-based inks and finished with nickel-free snaps. Made in California</p>,157.5,0.1,10,https://www.blushandbloom.com/shop/images/images_big/Olen_Organics_Piha_Pajama_-_Tea_Green.jpg,https://www.blushandbloom.com/shop/images/images_big/Olen_Organics_Piha_Pajama_-_Tea_Green.jpg,https://www.blushandbloom.com/shop/images/images_big/Olen_Organics_Piha_Pajama_-_Tea_Green.jpg,,Default,simple,,base,1,Taxable Goods,"Catalog, Search",,,,,,,,,,,,Block after Info Column,,,,,,,,,,,Use config,,"has_options=1,quantity_and_stock_status=In Stock,required_options=11",0,1,0,0,1,1,0,0,1,1,,1,0,1,1,0,1,0,0,1,0,1,,,,,,,,,,,
OOPAJAPR,Olen Organic Piha Footed Pajama - Apricot ,<p>Olen Organic Piha Pajama - Apricot&nbsp; (for boys and girls)</p>,<p>100% GOTS-certified organic cotton printed with gentle water-based inks and finished with nickel-free snaps. Made in California</p>,157.5,0.1,10,https://www.blushandbloom.com/shop/images/images_big/Olen_Organics_Piha_Pajama_-_Apricot.jpg,https://www.blushandbloom.com/shop/images/images_big/Olen_Organics_Piha_Pajama_-_Apricot.jpg,https://www.blushandbloom.com/shop/images/images_big/Olen_Organics_Piha_Pajama_-_Apricot.jpg,,Default,simple,,base,1,Taxable Goods,"Catalog, Search",,,,,,,,,,,,Block after Info Column,,,,,,,,,,,Use config,,"has_options=1,quantity_and_stock_status=In Stock,required_options=12",0,1,0,0,1,1,0,0,1,1,,1,0,1,1,0,1,0,0,1,0,1,,,,,,,,,,,
OOTEENAT,Olen Organic On the Go Tee - Natural ,<p>Olen Organic On the Go Tee - Natural (for boys and girl)</p>,<p>100% GOTS-certified organic cotton printed with gentle water-based inks and finished with nickel-free snaps. Made in California</p>,126,0.1,10,https://www.blushandbloom.com/shop/images/images_big/Olen_Organics_Piha_Tee_-_Natural.jpg,https://www.blushandbloom.com/shop/images/images_big/Olen_Organics_Piha_Tee_-_Natural.jpg,https://www.blushandbloom.com/shop/images/images_big/Olen_Organics_Piha_Tee_-_Natural.jpg,,Default,simple,,base,1,Taxable Goods,"Catalog, Search",,,,,,,,,,,,Block after Info Column,,,,,,,,,,,Use config,,"has_options=1,quantity_and_stock_status=In Stock,required_options=13",0,1,0,0,1,1,0,0,1,1,,1,0,1,1,0,1,0,0,1,0,1,,,,,,,,,,,
OOTEEGRN,Olen Organic On the Go Tee - Tea Green ,<p>Olen Organic On the Go Tee - Tea Green (for boys and girl)</p>,<p>100% GOTS-certified organic cotton printed with gentle water-based inks and finished with nickel-free snaps. Made in California</p>,126,0.1,10,https://www.blushandbloom.com/shop/images/images_big/Olen_Organics_Piha_Tee_-_Tea_Green.jpg,https://www.blushandbloom.com/shop/images/images_big/Olen_Organics_Piha_Tee_-_Tea_Green.jpg,https://www.blushandbloom.com/shop/images/images_big/Olen_Organics_Piha_Tee_-_Tea_Green.jpg,,Default,simple,,base,1,Taxable Goods,"Catalog, Search",,,,,,,,,,,,Block after Info Column,,,,,,,,,,,Use config,,"has_options=1,quantity_and_stock_status=In Stock,required_options=14",0,1,0,0,1,1,0,0,1,1,,1,0,1,1,0,1,0,0,1,0,1,,,,,,,,,,,
OOTEEAPR,Olen Organic On the Go Tee - Apricot ,<p>Olen Organic On the Go Tee - Apricot (for boys and girl)</p>,<p>100% GOTS-certified organic cotton printed with gentle water-based inks and finished with nickel-free snaps. Made in California</p>,126,0.1,10,https://www.blushandbloom.com/shop/images/images_big/Olen_Organics_Piha_Tee_-_Apricot.jpg,https://www.blushandbloom.com/shop/images/images_big/Olen_Organics_Piha_Tee_-_Apricot.jpg,https://www.blushandbloom.com/shop/images/images_big/Olen_Organics_Piha_Tee_-_Apricot.jpg,,Default,simple,,base,1,Taxable Goods,"Catalog, Search",,,,,,,,,,,,Block after Info Column,,,,,,,,,,,Use config,,"has_options=1,quantity_and_stock_status=In Stock,required_options=15",0,1,0,0,1,1,0,0,1,1,,1,0,1,1,0,1,0,0,1,0,1,,,,,,,,,,,
OOLEGNAT,Olen Organic On the Go Legging - Natural ,<p>Olen Organic On the Go Legging - Natural (for boys and girl)</p>,<p>100% GOTS-certified organic cotton printed with gentle water-based inks and finished with nickel-free snaps. Made in California</p>,126,0.1,10,https://www.blushandbloom.com/shop/images/images_big/Olen_Organics_Piha_Legging_-_Natural.jpg,https://www.blushandbloom.com/shop/images/images_big/Olen_Organics_Piha_Legging_-_Natural.jpg,https://www.blushandbloom.com/shop/images/images_big/Olen_Organics_Piha_Legging_-_Natural.jpg,,Default,simple,,base,1,Taxable Goods,"Catalog, Search",,,,,,,,,,,,Block after Info Column,,,,,,,,,,,Use config,,"has_options=1,quantity_and_stock_status=In Stock,required_options=16",0,1,0,0,1,1,0,0,1,1,,1,0,1,1,0,1,0,0,1,0,1,,,,,,,,,,,
OOLEGGRN,Olen Organic On the Go Legging - Tea Green ,<p>Olen Organic On the Go Legging - Tea Green (for boys and girl)</p>,<p>100% GOTS-certified organic cotton printed with gentle water-based inks and finished with nickel-free snaps. Made in California</p>,126,0.1,10,https://www.blushandbloom.com/shop/images/images_big/Olen_Organics_Piha_Legging_-_Tea_Green.jpg,https://www.blushandbloom.com/shop/images/images_big/Olen_Organics_Piha_Legging_-_Tea_Green.jpg,https://www.blushandbloom.com/shop/images/images_big/Olen_Organics_Piha_Legging_-_Tea_Green.jpg,,Default,simple,,base,1,Taxable Goods,"Catalog, Search",,,,,,,,,,,,Block after Info Column,,,,,,,,,,,Use config,,"has_options=1,quantity_and_stock_status=In Stock,required_options=17",0,1,0,0,1,1,0,0,1,1,,1,0,1,1,0,1,0,0,1,0,1,,,,,,,,,,,
OOLEGAPR,Olen Organic On the Go Legging - Apricot ,<p>Olen Organic On the Go Legging - Apricot (for boys and girl)</p>,<p>100% GOTS-certified organic cotton printed with gentle water-based inks and finished with nickel-free snaps. Made in California</p>,126,0.1,10,https://www.blushandbloom.com/shop/images/images_big/Olen_Organics_Piha_Legging_-_Apricot.jpg,https://www.blushandbloom.com/shop/images/images_big/Olen_Organics_Piha_Legging_-_Apricot.jpg,https://www.blushandbloom.com/shop/images/images_big/Olen_Organics_Piha_Legging_-_Apricot.jpg,,Default,simple,,base,1,Taxable Goods,"Catalog, Search",,,,,,,,,,,,Block after Info Column,,,,,,,,,,,Use config,,"has_options=1,quantity_and_stock_status=In Stock,required_options=18",0,1,0,0,1,1,0,0,1,1,,1,0,1,1,0,1,0,0,1,0,1,,,,,,,,,,,
OOBLNKTNAT,Snuggling Artist Blanket - Natural - ,<p>Olen Organic Snuggling Artist Blanket - Natural</p>,<p>100% GOTS-certified organic cotton printed with gentle water-based inks and finished with nickel-free snaps. Made in California</p>,157.5,0.15,10,https://www.blushandbloom.com/shop/images/images_big/Olen_Organics_Piha_Blanket_-_Natural.jpg,https://www.blushandbloom.com/shop/images/images_big/Olen_Organics_Piha_Blanket_-_Natural.jpg,https://www.blushandbloom.com/shop/images/images_big/Olen_Organics_Piha_Blanket_-_Natural.jpg,,Default,simple,,base,1,Taxable Goods,"Catalog, Search",,,,,,,,,,,,Block after Info Column,,,,,,,,,,,Use config,,"has_options=1,quantity_and_stock_status=In Stock,required_options=19",0,1,0,0,1,1,0,0,1,1,,1,0,1,1,0,1,0,0,1,0,1,,,,,,,,,,,
OOBLNKTGRN,Snuggling Artist Blanket - Tea Green - ,<p>Olen Organic Snuggling Artist Blanket - Tea Green</p>,<p>100% GOTS-certified organic cotton printed with gentle water-based inks and finished with nickel-free snaps. Made in California</p>,157.5,0.15,10,https://www.blushandbloom.com/shop/images/images_big/Olen_Organics_Piha_Blanket_-_Tea_Green.jpg,https://www.blushandbloom.com/shop/images/images_big/Olen_Organics_Piha_Blanket_-_Tea_Green.jpg,https://www.blushandbloom.com/shop/images/images_big/Olen_Organics_Piha_Blanket_-_Tea_Green.jpg,,Default,simple,,base,1,Taxable Goods,"Catalog, Search",,,,,,,,,,,,Block after Info Column,,,,,,,,,,,Use config,,"has_options=1,quantity_and_stock_status=In Stock,required_options=20",0,1,0,0,1,1,0,0,1,1,,1,0,1,1,0,1,0,0,1,0,1,,,,,,,,,,,
OOBLNKTAPR,Snuggling Artist Blanket - Apricot - ,<p>Olen Organic Snuggling Artist Blanket - Apricot</p>,<p>100% GOTS-certified organic cotton printed with gentle water-based inks and finished with nickel-free snaps. Made in California</p>,157.5,0.15,10,https://www.blushandbloom.com/shop/images/images_big/Olen_Organics_Piha_Blanket_-_Apricot.jpg,https://www.blushandbloom.com/shop/images/images_big/Olen_Organics_Piha_Blanket_-_Apricot.jpg,https://www.blushandbloom.com/shop/images/images_big/Olen_Organics_Piha_Blanket_-_Apricot.jpg,,Default,simple,,base,1,Taxable Goods,"Catalog, Search",,,,,,,,,,,,Block after Info Column,,,,,,,,,,,Use config,,"has_options=1,quantity_and_stock_status=In Stock,required_options=21",0,1,0,0,1,1,0,0,1,1,,1,0,1,1,0,1,0,0,1,0,1,,,,,,,,,,,
OOPAJMER,Olen Organic Meri Print Footed Pajama ,<p>Olen Organic Footed Pajama - Meri Print&nbsp; (for boys and girls)</p>,<p>100% GOTS-certified organic cotton printed with gentle water-based inks and finished with nickel-free snaps. Made in California</p>,157.5,0.1,10,https://www.blushandbloom.com/shop/images/images_big/Olen_Organic_Footed_Pajama_-_Meri_Print.PNG,https://www.blushandbloom.com/shop/images/images_big/Olen_Organic_Footed_Pajama_-_Meri_Print.PNG,https://www.blushandbloom.com/shop/images/images_big/Olen_Organic_Footed_Pajama_-_Meri_Print.PNG,,Default,simple,,base,1,Taxable Goods,"Catalog, Search",,,,,,,,,,,,Block after Info Column,,,,,,,,,,,Use config,,"has_options=1,quantity_and_stock_status=In Stock,required_options=22",0,1,0,0,1,1,0,0,1,1,,1,0,1,1,0,1,0,0,1,0,1,,,,,,,,,,,
OOLEGMER,Olen Organic On the Go Legging - Meri ,<p>Olen Organic On the Go Legging - Meri Print (for boys and girl)</p>,<p>100% GOTS-certified organic cotton printed with gentle water-based inks and finished with nickel-free snaps. Made in California</p>,126,0.1,10,https://www.blushandbloom.com/shop/images/images_big/Olen_Organic_On_the_Go_Legging_-_Meri_Print.PNG,https://www.blushandbloom.com/shop/images/images_big/Olen_Organic_On_the_Go_Legging_-_Meri_Print.PNG,https://www.blushandbloom.com/shop/images/images_big/Olen_Organic_On_the_Go_Legging_-_Meri_Print.PNG,,Default,simple,,base,1,Taxable Goods,"Catalog, Search",,,,,,,,,,,,Block after Info Column,,,,,,,,,,,Use config,,"has_options=1,quantity_and_stock_status=In Stock,required_options=22",0,1,0,0,1,1,0,0,1,1,,1,0,1,1,0,1,0,0,1,0,1,,,,,,,,,,,
