sku,name,attribute_set_code,product_type,categories,product_websites,short_description,weight,product_online,tax_class_name,visibility,price,special_price,special_price_from_date,special_price_to_date,url_key,meta_title,meta_keywords,meta_description,created_at,updated_at,new_from_date,new_to_date,display_product_options_in,map_price,msrp_price,map_enabled,gift_message_available,custom_design,custom_design_from,custom_design_to,custom_layout_update,page_layout,product_options_container,msrp_display_actual_price_type,country_of_manufacture,additional_attributes,qty,out_of_stock_qty,use_config_min_qty,is_qty_decimal,allow_backorders,use_config_backorders,min_cart_qty,use_config_min_sale_qty,max_cart_qty,use_config_max_sale_qty,is_in_stock,notify_on_stock_below,use_config_notify_stock_qty,manage_stock,use_config_manage_stock,use_config_qty_increments,qty_increments,use_config_enable_qty_inc,enable_qty_increments,is_decimal_divided,website_id,deferred_stock_update,use_config_deferred_stock_update,related_skus,crosssell_skus,upsell_skus,hide_from_product_page,custom_options,bundle_price_type,bundle_sku_type,bundle_price_view,bundle_weight_type,bundle_values,associated_skus,base_image,big_image,thumbnail_image,additional_images_1,errors
TK_A1_GR,,Default,simple,,base,,7.9,1,"Taxable Goods","Catalog, Search",999.0015,,,,,,,,,,,,"Block after Info Column",,,,,,,,,,,"Use config",,"has_options=1,quantity_and_stock_status=In Stock,required_options=10",10,0,1,0,0,1,1,0,0,1,1,,1,0,1,1,0,1,0,0,1,0,1,,,,,,,,,,,,,,,,"Please make sure attribute ""name"" is not empty."
TK_A1_LP,,Default,simple,,base,,7.9,1,"Taxable Goods","Catalog, Search",999.0015,,,,,,,,,,,,"Block after Info Column",,,,,,,,,,,"Use config",,"has_options=1,quantity_and_stock_status=In Stock,required_options=11",10,0,1,0,0,1,1,0,0,1,1,,1,0,1,1,0,1,0,0,1,0,1,,,,,,,,,,,,,,,,"Please make sure attribute ""name"" is not empty."
TK_661_WN,,Default,simple,,base,,18,1,"Taxable Goods","Catalog, Search",848.9985,,,,,,,,,,,,"Block after Info Column",,,,,,,,,,,"Use config",,"has_options=1,quantity_and_stock_status=In Stock,required_options=14",10,0,1,0,0,1,1,0,0,1,1,,1,0,1,1,0,1,0,0,1,0,1,,,,,,,,,,,,,,,,"Please make sure attribute ""name"" is not empty."
TK_661_KH,,Default,simple,,base,,18,1,"Taxable Goods","Catalog, Search",848.9985,,,,,,,,,,,,"Block after Info Column",,,,,,,,,,,"Use config",,"has_options=1,quantity_and_stock_status=In Stock,required_options=10",10,0,1,0,0,1,1,0,0,1,1,,1,0,1,1,0,1,0,0,1,0,1,,,,,,,,,,,,,,,,"Please make sure attribute ""name"" is not empty."
TK_661_BL,,Default,simple,,base,,18,1,"Taxable Goods","Catalog, Search",848.9985,,,,,,,,,,,,"Block after Info Column",,,,,,,,,,,"Use config",,"has_options=1,quantity_and_stock_status=In Stock,required_options=11",10,0,1,0,0,1,1,0,0,1,1,,1,0,1,1,0,1,0,0,1,0,1,,,,,,,,,,,,,,,,"Please make sure attribute ""name"" is not empty."
TK_661_PI,,Default,simple,,base,,18,1,"Taxable Goods","Catalog, Search",848.9985,,,,,,,,,,,,"Block after Info Column",,,,,,,,,,,"Use config",,"has_options=1,quantity_and_stock_status=In Stock,required_options=14",10,0,1,0,0,1,1,0,0,1,1,,1,0,1,1,0,1,0,0,1,0,1,,,,,,,,,,,,,,,,"Please make sure attribute ""name"" is not empty."
TK_661_PU,,Default,simple,,base,,18,1,"Taxable Goods","Catalog, Search",848.9985,,,,,,,,,,,,"Block after Info Column",,,,,,,,,,,"Use config",,"has_options=1,quantity_and_stock_status=In Stock,required_options=10",10,0,1,0,0,1,1,0,0,1,1,,1,0,1,1,0,1,0,0,1,0,1,,,,,,,,,,,,,,,,"Please make sure attribute ""name"" is not empty."
TK_YF001_GN,,Default,simple,,base,,5.9,1,"Taxable Goods","Catalog, Search",949.2,,,,,,,,,,,,"Block after Info Column",,,,,,,,,,,"Use config",,"has_options=1,quantity_and_stock_status=In Stock,required_options=11",10,0,1,0,0,1,1,0,0,1,1,,1,0,1,1,0,1,0,0,1,0,1,,,,,,,,,,,,,,,,"Please make sure attribute ""name"" is not empty."
TK_YF001_SI,,Default,simple,,base,,5.9,1,"Taxable Goods","Catalog, Search",949.2,,,,,,,,,,,,"Block after Info Column",,,,,,,,,,,"Use config",,"has_options=1,quantity_and_stock_status=In Stock,required_options=14",10,0,1,0,0,1,1,0,0,1,1,,1,0,1,1,0,1,0,0,1,0,1,,,,,,,,,,,,,,,,"Please make sure attribute ""name"" is not empty."
TK_YF001_GY,,Default,simple,,base,,5.9,1,"Taxable Goods","Catalog, Search",949.2,,,,,,,,,,,,"Block after Info Column",,,,,,,,,,,"Use config",,"has_options=1,quantity_and_stock_status=In Stock,required_options=10",10,0,1,0,0,1,1,0,0,1,1,,1,0,1,1,0,1,0,0,1,0,1,,,,,,,,,,,,,,,,"Please make sure attribute ""name"" is not empty."
TK_YF001_YE,,Default,simple,,base,,5.9,1,"Taxable Goods","Catalog, Search",949.2,,,,,,,,,,,,"Block after Info Column",,,,,,,,,,,"Use config",,"has_options=1,quantity_and_stock_status=In Stock,required_options=11",10,0,1,0,0,1,1,0,0,1,1,,1,0,1,1,0,1,0,0,1,0,1,,,,,,,,,,,,,,,,"Please make sure attribute ""name"" is not empty."
TK_YF001_RD,,Default,simple,,base,,5.9,1,"Taxable Goods","Catalog, Search",949.2,,,,,,,,,,,,"Block after Info Column",,,,,,,,,,,"Use config",,"has_options=1,quantity_and_stock_status=In Stock,required_options=14",10,0,1,0,0,1,1,0,0,1,1,,1,0,1,1,0,1,0,0,1,0,1,,,,,,,,,,,,,,,,"Please make sure attribute ""name"" is not empty."
TK_YF001_NB,,Default,simple,,base,,5.9,1,"Taxable Goods","Catalog, Search",949.2,,,,,,,,,,,,"Block after Info Column",,,,,,,,,,,"Use config",,"has_options=1,quantity_and_stock_status=In Stock,required_options=10",10,0,1,0,0,1,1,0,0,1,1,,1,0,1,1,0,1,0,0,1,0,1,,,,,,,,,,,,,,,,"Please make sure attribute ""name"" is not empty."
TK_YF001_KH,,Default,simple,,base,,5.9,1,"Taxable Goods","Catalog, Search",949.2,,,,,,,,,,,,"Block after Info Column",,,,,,,,,,,"Use config",,"has_options=1,quantity_and_stock_status=In Stock,required_options=11",10,0,1,0,0,1,1,0,0,1,1,,1,0,1,1,0,1,0,0,1,0,1,,,,,,,,,,,,,,,,"Please make sure attribute ""name"" is not empty."
TK_YF001_BL,,Default,simple,,base,,5.9,1,"Taxable Goods","Catalog, Search",949.2,,,,,,,,,,,,"Block after Info Column",,,,,,,,,,,"Use config",,"has_options=1,quantity_and_stock_status=In Stock,required_options=14",10,0,1,0,0,1,1,0,0,1,1,,1,0,1,1,0,1,0,0,1,0,1,,,,,,,,,,,,,,,,"Please make sure attribute ""name"" is not empty."
CM_TKSN_661WNGY,,Default,simple,,base,,18,1,"Taxable Goods","Catalog, Search",1099.0035,,,,,,,,,,,,"Block after Info Column",,,,,,,,,,,"Use config",,"has_options=1,quantity_and_stock_status=In Stock,required_options=10",10,0,1,0,0,1,1,0,0,1,1,,1,0,1,1,0,1,0,0,1,0,1,,,,,,,,,,,,,,,,"Please make sure attribute ""name"" is not empty."
CM_TKSN_661KHGY,,Default,simple,,base,,18,1,"Taxable Goods","Catalog, Search",1099.0035,,,,,,,,,,,,"Block after Info Column",,,,,,,,,,,"Use config",,"has_options=1,quantity_and_stock_status=In Stock,required_options=11",10,0,1,0,0,1,1,0,0,1,1,,1,0,1,1,0,1,0,0,1,0,1,,,,,,,,,,,,,,,,"Please make sure attribute ""name"" is not empty."
CM_TKSN_661WNBL,,Default,simple,,base,,18,1,"Taxable Goods","Catalog, Search",1099.0035,,,,,,,,,,,,"Block after Info Column",,,,,,,,,,,"Use config",,"has_options=1,quantity_and_stock_status=In Stock,required_options=14",10,0,1,0,0,1,1,0,0,1,1,,1,0,1,1,0,1,0,0,1,0,1,,,,,,,,,,,,,,,,"Please make sure attribute ""name"" is not empty."
CM_TKSN_661KHBL,,Default,simple,,base,,18,1,"Taxable Goods","Catalog, Search",1099.0035,,,,,,,,,,,,"Block after Info Column",,,,,,,,,,,"Use config",,"has_options=1,quantity_and_stock_status=In Stock,required_options=10",10,0,1,0,0,1,1,0,0,1,1,,1,0,1,1,0,1,0,0,1,0,1,,,,,,,,,,,,,,,,"Please make sure attribute ""name"" is not empty."
CM_TKSN_A1GRGY,,Default,simple,,base,,7.9,1,"Taxable Goods","Catalog, Search",1148.994,,,,,,,,,,,,"Block after Info Column",,,,,,,,,,,"Use config",,"has_options=1,quantity_and_stock_status=In Stock,required_options=11",10,0,1,0,0,1,1,0,0,1,1,,1,0,1,1,0,1,0,0,1,0,1,,,,,,,,,,,,,,,,"Please make sure attribute ""name"" is not empty."
CM_TKSN_A1PIGY,,Default,simple,,base,,7.9,1,"Taxable Goods","Catalog, Search",1148.994,,,,,,,,,,,,"Block after Info Column",,,,,,,,,,,"Use config",,"has_options=1,quantity_and_stock_status=In Stock,required_options=14",10,0,1,0,0,1,1,0,0,1,1,,1,0,1,1,0,1,0,0,1,0,1,,,,,,,,,,,,,,,,"Please make sure attribute ""name"" is not empty."
CB_TKSN_A1GN,,Default,simple,,base,,7.9,1,"Taxable Goods","Catalog, Search",1149.0045,,,,,,,,,,,,"Block after Info Column",,,,,,,,,,,"Use config",,"has_options=1,quantity_and_stock_status=In Stock,required_options=10",10,0,1,0,0,1,1,0,0,1,1,,1,0,1,1,0,1,0,0,1,0,1,,,,,,,,,,,,,,,,"Please make sure attribute ""name"" is not empty."
CM_TKSN_A1LP,,Default,simple,,base,,7.9,1,"Taxable Goods","Catalog, Search",1149.0045,,,,,,,,,,,,"Block after Info Column",,,,,,,,,,,"Use config",,"has_options=1,quantity_and_stock_status=In Stock,required_options=14",10,0,1,0,0,1,1,0,0,1,1,,1,0,1,1,0,1,0,0,1,0,1,,,,,,,,,,,,,,,,"Please make sure attribute ""name"" is not empty."
CM_TKSN_YF001GYYW,,Default,simple,,base,,5.9,1,"Taxable Goods","Catalog, Search",1054.2,,,,,,,,,,,,"Block after Info Column",,,,,,,,,,,"Use config",,"has_options=1,quantity_and_stock_status=In Stock,required_options=10",10,0,1,0,0,1,1,0,0,1,1,,1,0,1,1,0,1,0,0,1,0,1,,,,,,,,,,,,,,,,"Please make sure attribute ""name"" is not empty."
CM_TKSN_YF001GYPI2in1,,Default,simple,,base,,5.9,1,"Taxable Goods","Catalog, Search",1294.65,,,,,,,,,,,,"Block after Info Column",,,,,,,,,,,"Use config",,"has_options=1,quantity_and_stock_status=In Stock,required_options=11",10,0,1,0,0,1,1,0,0,1,1,,1,0,1,1,0,1,0,0,1,0,1,,,,,,,,,,,,,,,,"Please make sure attribute ""name"" is not empty."
CM_TKSN_V8KHRR,,Default,simple,,base,,18.8,1,"Taxable Goods","Catalog, Search",1836.45,,,,,,,,,,,,"Block after Info Column",,,,,,,,,,,"Use config",,"has_options=1,quantity_and_stock_status=In Stock,required_options=14",10,0,1,0,0,1,1,0,0,1,1,,1,0,1,1,0,1,0,0,1,0,1,,,,,,,,,,,,,,,,"Please make sure attribute ""name"" is not empty."
CM_TKSN_YF001GNPI2in1,,Default,simple,,base,,5.9,1,"Taxable Goods","Catalog, Search",1294.65,,,,,,,,,,,,"Block after Info Column",,,,,,,,,,,"Use config",,"has_options=1,quantity_and_stock_status=In Stock,required_options=10",10,0,1,0,0,1,1,0,0,1,1,,1,0,1,1,0,1,0,0,1,0,1,,,,,,,,,,,,,,,,"Please make sure attribute ""name"" is not empty."
CM_TKSN_YF001GNSTBYW,,Default,simple,,base,,5.9,1,"Taxable Goods","Catalog, Search",1054.2,,,,,,,,,,,,"Block after Info Column",,,,,,,,,,,"Use config",,"has_options=1,quantity_and_stock_status=In Stock,required_options=11",10,0,1,0,0,1,1,0,0,1,1,,1,0,1,1,0,1,0,0,1,0,1,,,,,,,,,,,,,,,,"Please make sure attribute ""name"" is not empty."
CM_TKSN_YF001SIPI2in1,,Default,simple,,base,,5.9,1,"Taxable Goods","Catalog, Search",1294.65,,,,,,,,,,,,"Block after Info Column",,,,,,,,,,,"Use config",,"has_options=1,quantity_and_stock_status=In Stock,required_options=14",10,0,1,0,0,1,1,0,0,1,1,,1,0,1,1,0,1,0,0,1,0,1,,,,,,,,,,,,,,,,"Please make sure attribute ""name"" is not empty."
CM_TKSN_YF001SISTBYW,,Default,simple,,base,,5.9,1,"Taxable Goods","Catalog, Search",1054.2,,,,,,,,,,,,"Block after Info Column",,,,,,,,,,,"Use config",,"has_options=1,quantity_and_stock_status=In Stock,required_options=10",10,0,1,0,0,1,1,0,0,1,1,,1,0,1,1,0,1,0,0,1,0,1,,,,,,,,,,,,,,,,"Please make sure attribute ""name"" is not empty."
CM_TKAL_YF001DPGY,,Default,simple,,base,,5.9,1,"Taxable Goods","Catalog, Search",1153.95,,,,,,,,,,,,"Block after Info Column",,,,,,,,,,,"Use config",,"has_options=1,quantity_and_stock_status=In Stock,required_options=6",10,0,1,0,0,1,1,0,0,1,1,,1,0,1,1,0,1,0,0,1,0,1,,,,,,,,,,,,,,,,"Please make sure attribute ""name"" is not empty."
CM_TKSN_YF001GYDPBL,,Default,simple,,base,,5.9,1,"Taxable Goods","Catalog, Search",1258.95,,,,,,,,,,,,"Block after Info Column",,,,,,,,,,,"Use config",,"has_options=1,quantity_and_stock_status=In Stock,required_options=2",10,0,1,0,0,1,1,0,0,1,1,,1,0,1,1,0,1,0,0,1,0,1,,,,,,,,,,,,,,,,"Please make sure attribute ""name"" is not empty."
TK_AM001_KH,,Default,simple,,base,,14,1,"Taxable Goods","Catalog, Search",1298.85,,,,,,,,,,,,"Block after Info Column",,,,,,,,,,,"Use config",,"has_options=1,quantity_and_stock_status=In Stock,required_options=2",10,0,1,0,0,1,1,0,0,1,1,,1,0,1,1,0,1,0,0,1,0,1,,,,,,,,,,,,,,,,"Please make sure attribute ""name"" is not empty."
TK_HC_H1B,,Default,simple,,base,,3.85,1,"Taxable Goods","Catalog, Search",198.45,,,,,,,,,,,,"Block after Info Column",,,,,,,,,,,"Use config",,"has_options=1,quantity_and_stock_status=In Stock,required_options=6",10,0,1,0,0,1,1,0,0,1,1,,1,0,1,1,0,1,0,0,1,0,1,,,,,,,,,,,,,,,,"Please make sure attribute ""name"" is not empty."
TK_HC_H1G,,Default,simple,,base,,3.85,1,"Taxable Goods","Catalog, Search",198.45,,,,,,,,,,,,"Block after Info Column",,,,,,,,,,,"Use config",,"has_options=1,quantity_and_stock_status=In Stock,required_options=10",10,0,1,0,0,1,1,0,0,1,1,,1,0,1,1,0,1,0,0,1,0,1,,,,,,,,,,,,,,,,"Please make sure attribute ""name"" is not empty."
CM_TKSN_YF001BLDPBL,,Default,simple,,base,,5.9,1,"Taxable Goods","Catalog, Search",1283.1,,,,,,,,,,,,"Block after Info Column",,,,,,,,,,,"Use config",,"has_options=1,quantity_and_stock_status=In Stock,required_options=14",10,0,1,0,0,1,1,0,0,1,1,,1,0,1,1,0,1,0,0,1,0,1,,,,,,,,,,,,,,,,"Please make sure attribute ""name"" is not empty."
CM_TKSN_YF001BLDPUBCLUB,,Default,simple,,base,,5.9,1,"Taxable Goods","Catalog, Search",1325.1,,,,,,,,,,,,"Block after Info Column",,,,,,,,,,,"Use config",,"has_options=1,quantity_and_stock_status=In Stock,required_options=18",10,0,1,0,0,1,1,0,0,1,1,,1,0,1,1,0,1,0,0,1,0,1,,,,,,,,,,,,,,,,"Please make sure attribute ""name"" is not empty."
CM_TKSN_YF001KHDPGDSCSGDS,,Default,simple,,base,,5.9,1,"Taxable Goods","Catalog, Search",1325.1,,,,,,,,,,,,"Block after Info Column",,,,,,,,,,,"Use config",,"has_options=1,quantity_and_stock_status=In Stock,required_options=22",10,0,1,0,0,1,1,0,0,1,1,,1,0,1,1,0,1,0,0,1,0,1,,,,,,,,,,,,,,,,"Please make sure attribute ""name"" is not empty."
CM_TKSN_YF001KHDPBE,,Default,simple,,base,,5.9,1,"Taxable Goods","Catalog, Search",1304.1,,,,,,,,,,,,"Block after Info Column",,,,,,,,,,,"Use config",,"has_options=1,quantity_and_stock_status=In Stock,required_options=26",10,0,1,0,0,1,1,0,0,1,1,,1,0,1,1,0,1,0,0,1,0,1,,,,,,,,,,,,,,,,"Please make sure attribute ""name"" is not empty."
TK_AM002_GY,,Default,simple,,base,,7.9,1,"Taxable Goods","Catalog, Search",1048.95,,,,,,,,,,,,"Block after Info Column",,,,,,,,,,,"Use config",,"has_options=1,quantity_and_stock_status=In Stock,required_options=30",10,0,1,0,0,1,1,0,0,1,1,,1,0,1,1,0,1,0,0,1,0,1,,,,,,,,,,,,,,,,"Please make sure attribute ""name"" is not empty."
TK_661_GY,,Default,simple,,base,,18,1,"Taxable Goods","Catalog, Search",846.3,,,,,,,,,,,,"Block after Info Column",,,,,,,,,,,"Use config",,"has_options=1,quantity_and_stock_status=In Stock,required_options=34",10,0,1,0,0,1,1,0,0,1,1,,1,0,1,1,0,1,0,0,1,0,1,,,,,,,,,,,,,,,,"Please make sure attribute ""name"" is not empty."
TK_661_BK,,Default,simple,,base,,18,1,"Taxable Goods","Catalog, Search",846.3,,,,,,,,,,,,"Block after Info Column",,,,,,,,,,,"Use config",,"has_options=1,quantity_and_stock_status=In Stock,required_options=38",10,0,1,0,0,1,1,0,0,1,1,,1,0,1,1,0,1,0,0,1,0,1,,,,,,,,,,,,,,,,"Please make sure attribute ""name"" is not empty."
TK_808_GY,,Default,simple,,base,,11.2,1,"Taxable Goods","Catalog, Search",1299.0075,,,,,,,,,,,,"Block after Info Column",,,,,,,,,,,"Use config",,"has_options=1,quantity_and_stock_status=In Stock,required_options=42",10,0,1,0,0,1,1,0,0,1,1,,1,0,1,1,0,1,0,0,1,0,1,,,,,,,,,,,,,,,,"Please make sure attribute ""name"" is not empty."
CM_TKSN_661KHDPNB,,Default,simple,,base,,18,1,"Taxable Goods","Catalog, Search",1098.993,,,,,,,,,,,,"Block after Info Column",,,,,,,,,,,"Use config",,"has_options=1,quantity_and_stock_status=In Stock,required_options=46",10,0,1,0,0,1,1,0,0,1,1,,1,0,1,1,0,1,0,0,1,0,1,,,,,,,,,,,,,,,,"Please make sure attribute ""name"" is not empty."
CM_TKSN_YF001DPNB,,Default,simple,,base,,5.9,1,"Taxable Goods","Catalog, Search",1258.95,,,,,,,,,,,,"Block after Info Column",,,,,,,,,,,"Use config",,"has_options=1,quantity_and_stock_status=In Stock,required_options=50",10,0,1,0,0,1,1,0,0,1,1,,1,0,1,1,0,1,0,0,1,0,1,,,,,,,,,,,,,,,,"Please make sure attribute ""name"" is not empty."
