sku,store_view_code,attribute_set_code,product_type,categories,product_websites,name,description,short_description,weight,product_online,tax_class_name,visibility,price,special_price,special_price_from_date,special_price_to_date,url_key,meta_title,meta_keywords,meta_description,created_at,updated_at,new_from_date,new_to_date,display_product_options_in,map_price,msrp_price,map_enabled,gift_message_available,custom_design,custom_design_from,custom_design_to,custom_layout_update,page_layout,product_options_container,msrp_display_actual_price_type,country_of_manufacture,additional_attributes,qty,out_of_stock_qty,use_config_min_qty,is_qty_decimal,allow_backorders,use_config_backorders,min_cart_qty,use_config_min_sale_qty,max_cart_qty,use_config_max_sale_qty,is_in_stock,notify_on_stock_below,use_config_notify_stock_qty,manage_stock,use_config_manage_stock,use_config_qty_increments,qty_increments,use_config_enable_qty_inc,enable_qty_increments,is_decimal_divided,website_id,deferred_stock_update,use_config_deferred_stock_update,related_skus,crosssell_skus,upsell_skus,hide_from_product_page,custom_options,bundle_price_type,bundle_sku_type,bundle_price_view,bundle_weight_type,bundle_values,associated_skus,,base_image,small_image,thumbnail_image,additional_image_1,additional_image_2,additional_image_3
CE1210,,Default,simple,,base,Maternity Support Belt Illusion - Black,,,1,1,Taxable Goods,"Catalog, Search",115,,,,maternity-support-belt-illusion-black,,,,,,,,Block after Info Column,,,,,,,,,,,Use config,,"has_options=1,quantity_and_stock_status=In Stock,required_options=0",20,0,1,0,0,1,1,0,0,1,1,,1,0,1,1,0,1,0,0,1,0,1,,,,,,,,,,,,,https://www.blushandbloom.com/shop/images/images_small/Illusion_Support_Belt_-_black1-80x120.jpg,https://www.blushandbloom.com/shop/images/images_small/Illusion_Support_Belt_-_black1-80x120.jpg,https://www.blushandbloom.com/shop/images/images_small/Illusion_Support_Belt_-_black1-80x120.jpg,https://www.blushandbloom.com/shop/images/images_small/Illusion_Support_Belt_-_black2-80x120.jpg,,
CE1220,,Default,simple,,base,Maternity Support Belt Signature - Natural,,,1,1,Taxable Goods,"Catalog, Search",150,,,,maternity-support-belt-signature-natural,,,,,,,,Block after Info Column,,,,,,,,,,,Use config,,"has_options=0,quantity_and_stock_status=In Stock,required_options=0",20,0,1,0,0,1,1,0,0,1,1,,1,0,1,1,0,1,0,0,1,0,1,,,,,,,,,,,,,https://www.blushandbloom.com/shop/images/images_small/CE1220_WHITE-80x120.jpg,https://www.blushandbloom.com/shop/images/images_small/CE1220_WHITE-80x120.jpg,https://www.blushandbloom.com/shop/images/images_small/CE1220_WHITE-80x120.jpg,https://www.blushandbloom.com/shop/images/images_small/CE1220_WHITE_(2)-80x120.jpg,,
CR1610,,Default,simple,,base,Maternity and Nursing Top Serenity - Blueberry,,,1,1,Taxable Goods,"Catalog, Search",155,,,,maternity-and-nursing-top-serenity-blueberry,,,,,,,,Block after Info Column,,,,,,,,,,,Use config,,"has_options=0,quantity_and_stock_status=In Stock,required_options=0",20,0,1,0,0,1,1,0,0,1,1,,1,0,1,1,0,1,0,0,1,0,1,,,,,,,,,,,,,https://www.blushandbloom.com/shop/images/images_small/CR1610_BLUEBERRY-80x120.jpg,https://www.blushandbloom.com/shop/images/images_small/CR1610_BLUEBERRY-80x120.jpg,https://www.blushandbloom.com/shop/images/images_small/CR1610_BLUEBERRY-80x120.jpg,https://www.blushandbloom.com/shop/images/images_small/CR1610_BLUEBERRY_(3)-80x120.jpg,https://www.blushandbloom.com/shop/images/images_small/CR1610_BLUEBERRY_(4)-80x120.jpg,https://www.blushandbloom.com/shop/images/images_small/CR1610_BLUEBERRY_(2)-80x120.jpg
LG720,,Default,simple,,base,Maternity Legging Khali - Night Blue,,,1,1,Taxable Goods,"Catalog, Search",185,,,,maternity-legging-khali-night-blue,,,,,,,,Block after Info Column,,,,,,,,,,,Use config,,"has_options=1,shipment_type=together,quantity_and_stock_status=In Stock,required_options=0",20,0,1,0,0,1,1,0,0,1,1,,1,0,1,1,0,1,0,0,1,0,1,,,,,,,,,,,,,https://www.blushandbloom.com/shop/images/images_small/LG720_NIGHT_BLUE-80x120.jpg,https://www.blushandbloom.com/shop/images/images_small/LG720_NIGHT_BLUE-80x120.jpg,https://www.blushandbloom.com/shop/images/images_small/LG720_NIGHT_BLUE-80x120.jpg,https://www.blushandbloom.com/shop/images/images_small/LG720_NIGHT_BLUE_(2)-80x120.jpg,https://www.blushandbloom.com/shop/images/images_small/LG720_NIGHT_BLUE_(3)-80x120.jpg,
TN720,,Default,simple,,base,Maternity and Nursing Top Khali - Night Blue,,,1,1,Taxable Goods,"Catalog, Search",225,,,,maternity-and-nursing-top-khali-night-blue,,,,,,,,Block after Info Column,,,,,,,,,,,Use config,,"has_options=1,shipment_type=together,quantity_and_stock_status=In Stock,required_options=0",20,0,1,0,0,1,1,0,0,1,1,,1,0,1,1,0,1,0,0,1,0,1,,,,,,,,,,,,,https://www.blushandbloom.com/shop/images/images_small/TN720_Night_Blue-80x120.jpg,https://www.blushandbloom.com/shop/images/images_small/TN720_Night_Blue-80x120.jpg,https://www.blushandbloom.com/shop/images/images_small/TN720_Night_Blue-80x120.jpg,https://www.blushandbloom.com/shop/images/images_small/TN720_Night_Blue_(2)-80x120.jpg,https://www.blushandbloom.com/shop/images/images_small/TN720_Night_Blue_(3)-80x120.jpg,https://www.blushandbloom.com/shop/images/images_small/TN720_Night_Blue_(4)-80x120.jpg
SH1210,,Default,simple,,base,Maternity Shorts Illusion - Black,,,1,1,Taxable Goods,"Catalog, Search",110,,,,maternity-shorts-illusion-black,,,,,,,,Block after Info Column,,,,,,,,,,,Use config,,"has_options=0,quantity_and_stock_status=In Stock,required_options=0",20,0,1,0,0,1,1,0,0,1,1,,1,0,1,1,0,1,0,0,1,0,1,,,,,,,,,,,,,https://www.blushandbloom.com/shop/images/images_small/SH1210_BLACK-80x120.jpg,https://www.blushandbloom.com/shop/images/images_small/SH1210_BLACK-80x120.jpg,https://www.blushandbloom.com/shop/images/images_small/SH1210_BLACK-80x120.jpg,https://www.blushandbloom.com/shop/images/images_small/SH1210_BLACK_(2)-80x120.jpg,https://www.blushandbloom.com/shop/images/images_small/SH1210_(3)-80x120.jpg,https://www.blushandbloom.com/shop/images/images_small/cache-shorts-illusion_size_chart-80x120.jpg
CL1210,,Default,simple,,base,Maternity Brief Illusion - Black,,,1,1,Taxable Goods,"Catalog, Search",115,,,,maternity-brief-illusion-black,,,,,,,,Block after Info Column,,,,,,,,,,,Use config,,"has_options=0,quantity_and_stock_status=In Stock,required_options=0",20,0,1,0,0,1,1,0,0,1,1,,1,0,1,1,0,1,0,0,1,0,1,,,,,,,,,,,,,https://www.blushandbloom.com/shop/images/images_small/Illusion_Brief_-_black1-80x120.jpg,https://www.blushandbloom.com/shop/images/images_small/Illusion_Brief_-_black1-80x120.jpg,https://www.blushandbloom.com/shop/images/images_small/Illusion_Brief_-_black1-80x120.jpg,https://www.blushandbloom.com/shop/images/images_small/iB2-80x120.jpg,https://www.blushandbloom.com/shop/images/images_small/Illusion_Brief_-_black2-80x120.jpg,
CL1610,,Default,simple,,base,Maternity Brief Serenity - Black,,,1,1,Taxable Goods,"Catalog, Search",115,,,,maternity-brief-serenity-black,,,,,,,,Block after Info Column,,,,,,,,,,,Use config,,"has_options=1,shipment_type=together,quantity_and_stock_status=In Stock,required_options=0",20,0,1,0,0,1,1,0,0,1,1,,1,0,1,1,0,1,0,0,1,0,1,,,,,,,,,,,,,https://www.blushandbloom.com/shop/images/images_small/snt_black1-80x120.jpg,https://www.blushandbloom.com/shop/images/images_small/snt_black1-80x120.jpg,https://www.blushandbloom.com/shop/images/images_small/snt_black1-80x120.jpg,https://www.blushandbloom.com/shop/images/images_small/CR1610_BLACK_(2)-80x120.jpg,https://www.blushandbloom.com/shop/images/images_small/CR1610_BLACK_(3)-80x120.jpg,https://www.blushandbloom.com/shop/images/images_small/CR1610_BLACK3-80x120.jpg
CL510,,Default,simple,,base,Maternity Brief Mosaic - Mandarine,,,1,1,Taxable Goods,"Catalog, Search",105,,,,maternity-brief-mosaic-mandarine,,,,,,,,Block after Info Column,,,,,,,,,,,Use config,,"has_options=0,quantity_and_stock_status=In Stock,required_options=0",20,0,1,0,0,1,1,0,0,1,1,,1,0,1,1,0,1,0,0,1,0,1,,,,,,,,,,,,,https://www.blushandbloom.com/shop/images/images_small/MB1-80x120.jpg,https://www.blushandbloom.com/shop/images/images_small/MB1-80x120.jpg,https://www.blushandbloom.com/shop/images/images_small/MB1-80x120.jpg,https://www.blushandbloom.com/shop/images/images_small/mb2-80x120.jpg,https://www.blushandbloom.com/shop/images/images_small/mb3-80x120.jpg,
SH811,,Default,simple,,base,Maternity Shorty Serena - Blush,,,1,1,Taxable Goods,"Catalog, Search",125,,,,maternity-shorty-serena-blush,,,,,,,,Block after Info Column,,,,,,,,,,,Use config,,"has_options=1,quantity_and_stock_status=In Stock,required_options=3",20,0,1,0,0,1,1,0,0,1,1,,1,0,1,1,0,1,0,0,1,0,1,,,,,,,,,,,,,https://www.blushandbloom.com/shop/images/images_small/SH811_BLUSH-80x120.jpg,https://www.blushandbloom.com/shop/images/images_small/SH811_BLUSH-80x120.jpg,https://www.blushandbloom.com/shop/images/images_small/SH811_BLUSH-80x120.jpg,https://www.blushandbloom.com/shop/images/images_small/SH811_BLUSH_(2)-80x120.jpg,,
SH910,,Default,simple,,base,Maternity Shorts Lisa - Black,,,1,1,Taxable Goods,"Catalog, Search",125,,,,maternity-shorts-lisa-black,,,,,,,,Block after Info Column,,,,,,,,,,,Use config,,"has_options=0,quantity_and_stock_status=In Stock,required_options=0",20,0,1,0,0,1,1,0,0,1,1,,1,0,1,1,0,1,0,0,1,0,1,,,,,,,,,,,,,https://www.blushandbloom.com/shop/images/images_small/SH811_BLACK-80x120.jpg,https://www.blushandbloom.com/shop/images/images_small/SH811_BLACK-80x120.jpg,https://www.blushandbloom.com/shop/images/images_small/SH811_BLACK-80x120.jpg,https://www.blushandbloom.com/shop/images/images_small/SH811_BLACK_(2)-80x120.jpg,https://www.blushandbloom.com/shop/images/images_small/SF811CD_BLACK_(3)-80x120.jpg,
SH1220,,Default,simple,,base,Maternity Shorts Signature - Natural,,,1,1,Taxable Goods,"Catalog, Search",115,,,,maternity-shorts-signature-natural,,,,,,,,Block after Info Column,,,,,,,,,,,Use config,,"has_options=0,quantity_and_stock_status=In Stock,required_options=0",20,0,1,0,0,1,1,0,0,1,1,,1,0,1,1,0,1,0,0,1,0,1,,,,,,,,,,,,,https://www.blushandbloom.com/shop/images/images_small/SH1220_NATURAL-80x120.jpg,https://www.blushandbloom.com/shop/images/images_small/SH1220_NATURAL-80x120.jpg,https://www.blushandbloom.com/shop/images/images_small/SH1220_NATURAL-80x120.jpg,https://www.blushandbloom.com/shop/images/images_small/SH1220_NATURAL_(2)-80x120.jpg,https://www.blushandbloom.com/shop/images/images_small/SH1220_NATURAL_(3)-80x120.jpg,https://www.blushandbloom.com/shop/images/images_small/SH1220_NATURAL_(4)-80x120.jpg
SF1901,,Default,simple,,base,Maternity and Nursing Seemless Bra Milk - Bordeaux,,,1,1,Taxable Goods,"Catalog, Search",225,,,,maternity-and-nursing-seemless-bra-milk-bordeaux,,,,,,,,Block after Info Column,,,,,,,,,,,Use config,,"has_options=0,quantity_and_stock_status=In Stock,required_options=0",20,0,1,0,0,1,1,0,0,1,1,,1,0,1,1,0,1,0,0,1,0,1,,,,,,,,,,,,,https://www.blushandbloom.com/shop/images/images_small/SF1901_BORDEAUX-80x120.jpg,https://www.blushandbloom.com/shop/images/images_small/SF1901_BORDEAUX-80x120.jpg,https://www.blushandbloom.com/shop/images/images_small/SF1901_BORDEAUX-80x120.jpg,https://www.blushandbloom.com/shop/images/images_small/SF1901_BORDEAUX_(2)-80x120.jpg,https://www.blushandbloom.com/shop/images/images_small/SF1901_BORDEAUX_(3)-80x120.jpg,https://www.blushandbloom.com/shop/images/images_small/SF1901_SIZE_CHART-80x120.jpg
SH1901,,Default,simple,,base,Maternity Shorty Milk - Green,,,1,1,Taxable Goods,"Catalog, Search",95,,,,maternity-shorty-milk-green,,,,,,,,Block after Info Column,,,,,,,,,,,Use config,,"has_options=1,quantity_and_stock_status=In Stock,required_options=1",20,0,1,0,0,1,1,0,0,1,1,,1,0,1,1,0,1,0,0,1,0,1,,,,,,,,,,,,,https://www.blushandbloom.com/shop/images/images_small/SH1901_GREEN-80x120.jpg,https://www.blushandbloom.com/shop/images/images_small/SH1901_GREEN-80x120.jpg,https://www.blushandbloom.com/shop/images/images_small/SH1901_GREEN-80x120.jpg,https://www.blushandbloom.com/shop/images/images_small/SH1901_GREEN_(2)-80x120.jpg,https://www.blushandbloom.com/shop/images/images_small/SG1901_GREEN_(3)-80x120.jpg,https://www.blushandbloom.com/shop/images/images_small/SG1901_GREEN_(2)-80x120.jpg
