sku,name,store_view_code,attribute_set_code,product_type,categories,product_websites,description,short_description,weight,product_online,tax_class_name,visibility,price,special_price,special_price_from_date,special_price_to_date,url_key,meta_title,meta_keywords,meta_description,created_at,updated_at,new_from_date,new_to_date,display_product_options_in,map_price,msrp_price,map_enabled,gift_message_available,custom_design,custom_design_from,custom_design_to,custom_layout_update,page_layout,product_options_container,msrp_display_actual_price_type,country_of_manufacture,additional_attributes,qty,out_of_stock_qty,use_config_min_qty,is_qty_decimal,allow_backorders,use_config_backorders,min_cart_qty,use_config_min_sale_qty,max_cart_qty,use_config_max_sale_qty,is_in_stock,notify_on_stock_below,use_config_notify_stock_qty,manage_stock,use_config_manage_stock,use_config_qty_increments,qty_increments,use_config_enable_qty_inc,enable_qty_increments,is_decimal_divided,website_id,deferred_stock_update,use_config_deferred_stock_update,related_skus,crosssell_skus,upsell_skus,hide_from_product_page,custom_options,bundle_price_type,bundle_sku_type,bundle_price_view,bundle_weight_type,bundle_values,associated_skus,base_image,big_image,thumbnail_image,alt_image_1
UB01A9,Cotton Muslin Single Swaddle - BRETON STRIPES,,Default,simple,,base,"<p>Details:</p>

<p>Featuring hand-painted prints, this versatile swaddle is an everyday essential. Crafted in lightweight and breathable cotton muslin, ideal for swaddling, nursing, cuddling and more.</p>

<p>Features:</p>

<p>&quot;100% cotton muslin One 47&quot;&quot; x 47&quot;&quot; swaddle blanket Lightweight and breathable Softer with each wash&quot;</p>

<p></p>",,0.21,1,Taxable Goods,"Catalog, Search",79,,,,,,,,,,,,Block after Info Column,,,,,,,,,,,Use config,,"has_options=1,quantity_and_stock_status=In Stock,required_options=10",4,0,1,0,0,1,1,0,0,1,1,,1,0,1,1,0,1,0,0,1,0,1,,,,,,,,,,,,https://www.blushandbloom.com/shop/images/images_big/UB01A9_copy.jpg,https://www.blushandbloom.com/shop/images/images_big/UB01A9_copy.jpg,https://www.blushandbloom.com/shop/images/images_big/UB01A9-little-unicorn-cotton-swaddle-single-breton-stripes-wb-2.jpg,
UB01A6,Cotton Muslin Single Swaddle - DUSTY ROSE,,Default,simple,,base,"<p>Details:</p>

<p>Featuring hand-painted prints, this versatile swaddle is an everyday essential. Crafted in lightweight and breathable cotton muslin, ideal for swaddling, nursing, cuddling and more.</p>

<p>Features:</p>

<p>&quot;100% cotton muslin One 47&quot;&quot; x 47&quot;&quot; swaddle blanket Lightweight and breathable Softer with each wash&quot;</p>

<p></p>",,0.21,1,Taxable Goods,"Catalog, Search",79,,,,,,,,,,,,Block after Info Column,,,,,,,,,,,Use config,,"has_options=1,quantity_and_stock_status=In Stock,required_options=11",5,0,1,0,0,1,1,0,0,1,1,,1,0,1,1,0,1,0,0,1,0,1,,,,,,,,,,,,https://www.blushandbloom.com/shop/images/images_big/UB01A6_copy.jpg,https://www.blushandbloom.com/shop/images/images_big/UB01A6.jpg,https://www.blushandbloom.com/shop/images/images_big/UB01A6.jpg,https://www.blushandbloom.com/shop/images/images_big/UB01A6.jpg
UB01B5,Cotton Muslin Single Swaddle - FERN,,Default,simple,,base,"<p>Details:</p>

<p>Featuring hand-painted prints, this versatile swaddle is an everyday essential. Crafted in lightweight and breathable cotton muslin, ideal for swaddling, nursing, cuddling and more.</p>

<p>Features:</p>

<p>&quot;100% cotton muslin One 47&quot;&quot; x 47&quot;&quot; swaddle blanket Lightweight and breathable Softer with each wash&quot;</p>

<p></p>",,0.21,1,Taxable Goods,"Catalog, Search",79,,,,,,,,,,,,Block after Info Column,,,,,,,,,,,Use config,,"has_options=1,quantity_and_stock_status=In Stock,required_options=14",6,0,1,0,0,1,1,0,0,1,1,,1,0,1,1,0,1,0,0,1,0,1,,,,,,,,,,,,https://www.blushandbloom.com/shop/images/images_big/UB01B5.jpg,https://www.blushandbloom.com/shop/images/images_big/UB01B5-little-unicorn-cotton-swaddle-single-fern-wb-2.jpg,https://www.blushandbloom.com/shop/images/images_big/UB01B5-little-unicorn-cotton-swaddle-single-fern-wb-2.jpg,https://www.blushandbloom.com/shop/images/images_big/UB01B5-little-unicorn-cotton-swaddle-single-fern-wb-2.jpg
UB0178,Cotton Muslin Single Swaddle - FOOD TRUCK,,Default,simple,,base,"<p>Details:</p>

<p>Featuring hand-painted prints, this versatile swaddle is an everyday essential. Crafted in lightweight and breathable cotton muslin, ideal for swaddling, nursing, cuddling and more.</p>

<p>Features:</p>

<p>&quot;100% cotton muslin One 47&quot;&quot; x 47&quot;&quot; swaddle blanket Lightweight and breathable Softer with each wash&quot;</p>

<p></p>",,0.21,1,Taxable Goods,"Catalog, Search",79,,,,,,,,,,,,Block after Info Column,,,,,,,,,,,Use config,,"has_options=1,quantity_and_stock_status=In Stock,required_options=10",2,0,1,0,0,1,1,0,0,1,1,,1,0,1,1,0,1,0,0,1,0,1,,,,,,,,,,,,https://www.blushandbloom.com/shop/images/images_big/LITTLE~2.JPG,https://www.blushandbloom.com/shop/images/images_big/LITTLE~2.JPG,https://www.blushandbloom.com/shop/images/images_big/LITTLE~2.JPG,https://www.blushandbloom.com/shop/images/images_big/LITTLE~2.JPG
UB01B6,Cotton Muslin Single Swaddle - LAKE ,,Default,simple,,base,"<p>Details:</p>

<p>Featuring hand-painted prints, this versatile swaddle is an everyday essential. Crafted in lightweight and breathable cotton muslin, ideal for swaddling, nursing, cuddling and more.</p>

<p>Features:</p>

<p>&quot;100% cotton muslin One 47&quot;&quot; x 47&quot;&quot; swaddle blanket Lightweight and breathable Softer with each wash&quot;</p>

<p></p>",,0.21,1,Taxable Goods,"Catalog, Search",79,,,,,,,,,,,,Block after Info Column,,,,,,,,,,,Use config,,"has_options=1,quantity_and_stock_status=In Stock,required_options=11",6,0,1,0,0,1,1,0,0,1,1,,1,0,1,1,0,1,0,0,1,0,1,,,,,,,,,,,,https://www.blushandbloom.com/shop/images/images_big/UB01B6~1.JPG,https://www.blushandbloom.com/shop/images/images_big/UB01B6-little-unicorn-cotton-swaddle-single-lake-wb-2.jpg,https://www.blushandbloom.com/shop/images/images_big/UB01B6-little-unicorn-cotton-swaddle-single-lake-wb-2.jpg,https://www.blushandbloom.com/shop/images/images_big/UB01B6-little-unicorn-cotton-swaddle-single-lake-wb-2.jpg
UB01B2,Cotton Muslin Single Swaddle - LINEN,,Default,simple,,base,"<p>Details:</p>

<p>Featuring hand-painted prints, this versatile swaddle is an everyday essential. Crafted in lightweight and breathable cotton muslin, ideal for swaddling, nursing, cuddling and more.</p>

<p>Features:</p>

<p>&quot;100% cotton muslin One 47&quot;&quot; x 47&quot;&quot; swaddle blanket Lightweight and breathable Softer with each wash&quot;</p>

<p></p>",,0.21,1,Taxable Goods,"Catalog, Search",79,,,,,,,,,,,,Block after Info Column,,,,,,,,,,,Use config,,"has_options=1,quantity_and_stock_status=In Stock,required_options=14",6,0,1,0,0,1,1,0,0,1,1,,1,0,1,1,0,1,0,0,1,0,1,,,,,,,,,,,,https://www.blushandbloom.com/shop/images/images_big/UB01B22.jpg,https://www.blushandbloom.com/shop/images/images_big/UB01B21.jpg,https://www.blushandbloom.com/shop/images/images_big/UB01B21.jpg,https://www.blushandbloom.com/shop/images/images_big/UB01B21.jpg
UB01A8,Cotton Muslin Single Swaddle - MEADOW,,Default,simple,,base,"<p>Details:</p>

<p>Featuring hand-painted prints, this versatile swaddle is an everyday essential. Crafted in lightweight and breathable cotton muslin, ideal for swaddling, nursing, cuddling and more.</p>

<p>Features:</p>

<p>&quot;100% cotton muslin One 47&quot;&quot; x 47&quot;&quot; swaddle blanket Lightweight and breathable Softer with each wash&quot;</p>

<p></p>",,0.21,1,Taxable Goods,"Catalog, Search",79,,,,,,,,,,,,Block after Info Column,,,,,,,,,,,Use config,,"has_options=1,quantity_and_stock_status=In Stock,required_options=10",10,0,1,0,0,1,1,0,0,1,1,,1,0,1,1,0,1,0,0,1,0,1,,,,,,,,,,,,https://www.blushandbloom.com/shop/images/images_big/UB01A8~1.JPG,https://www.blushandbloom.com/shop/images/images_big/UB01A8ee.jpg,https://www.blushandbloom.com/shop/images/images_big/UB01A8ee.jpg,https://www.blushandbloom.com/shop/images/images_big/UB01A8ee.jpg
UB01B4,Cotton Muslin Single Swaddle - MUSTARD,,Default,simple,,base,"<p>Details:</p>

<p>Featuring hand-painted prints, this versatile swaddle is an everyday essential. Crafted in lightweight and breathable cotton muslin, ideal for swaddling, nursing, cuddling and more.</p>

<p>Features:</p>

<p>&quot;100% cotton muslin One 47&quot;&quot; x 47&quot;&quot; swaddle blanket Lightweight and breathable Softer with each wash&quot;</p>

<p></p>",,0.21,1,Taxable Goods,"Catalog, Search",79,,,,,,,,,,,,Block after Info Column,,,,,,,,,,,Use config,,"has_options=1,quantity_and_stock_status=In Stock,required_options=11",5,0,1,0,0,1,1,0,0,1,1,,1,0,1,1,0,1,0,0,1,0,1,,,,,,,,,,,,https://www.blushandbloom.com/shop/images/images_big/UB01B4_copy.jpg,https://www.blushandbloom.com/shop/images/images_big/UB01B466.jpg,https://www.blushandbloom.com/shop/images/images_big/UB01B466.jpg,https://www.blushandbloom.com/shop/images/images_big/UB01B466.jpg
UB01B1,Cotton Muslin Single Swaddle - NICKEL,,Default,simple,,base,"<p>Details:</p>

<p>Featuring hand-painted prints, this versatile swaddle is an everyday essential. Crafted in lightweight and breathable cotton muslin, ideal for swaddling, nursing, cuddling and more.</p>

<p>Features:</p>

<p>&quot;100% cotton muslin One 47&quot;&quot; x 47&quot;&quot; swaddle blanket Lightweight and breathable Softer with each wash&quot;</p>

<p></p>",,0.21,1,Taxable Goods,"Catalog, Search",79,,,,,,,,,,,,Block after Info Column,,,,,,,,,,,Use config,,"has_options=1,quantity_and_stock_status=In Stock,required_options=14",4,0,1,0,0,1,1,0,0,1,1,,1,0,1,1,0,1,0,0,1,0,1,,,,,,,,,,,,https://www.blushandbloom.com/shop/images/images_big/UB01B1_copy.jpg,https://www.blushandbloom.com/shop/images/images_big/UB01B1rr.jpg,https://www.blushandbloom.com/shop/images/images_big/UB01B1rr.jpg,https://www.blushandbloom.com/shop/images/images_big/UB01B1rr.jpg
UB01B7,Cotton Muslin Single Swaddle - PLUM,,Default,simple,,base,"<p>Details:</p>

<p>Featuring hand-painted prints, this versatile swaddle is an everyday essential. Crafted in lightweight and breathable cotton muslin, ideal for swaddling, nursing, cuddling and more.</p>

<p>Features:</p>

<p>&quot;100% cotton muslin One 47&quot;&quot; x 47&quot;&quot; swaddle blanket Lightweight and breathable Softer with each wash&quot;</p>

<p></p>",,0.21,1,Taxable Goods,"Catalog, Search",79,,,,,,,,,,,,Block after Info Column,,,,,,,,,,,Use config,,"has_options=1,quantity_and_stock_status=In Stock,required_options=10",6,0,1,0,0,1,1,0,0,1,1,,1,0,1,1,0,1,0,0,1,0,1,,,,,,,,,,,,https://www.blushandbloom.com/shop/images/images_big/plum_copy.jpg,https://www.blushandbloom.com/shop/images/images_big/Plum.jpg,https://www.blushandbloom.com/shop/images/images_big/Plum.jpg,https://www.blushandbloom.com/shop/images/images_big/Plum.jpg
UB0133,Cotton Muslin Single Swaddle - PRICKLE POTS,,Default,simple,,base,"<p>Details:</p>

<p>Featuring hand-painted prints, this versatile swaddle is an everyday essential. Crafted in lightweight and breathable cotton muslin, ideal for swaddling, nursing, cuddling and more.</p>

<p>Features:</p>

<p>&quot;100% cotton muslin One 47&quot;&quot; x 47&quot;&quot; swaddle blanket Lightweight and breathable Softer with each wash&quot;</p>

<p></p>",,0.21,1,Taxable Goods,"Catalog, Search",79,,,,,,,,,,,,Block after Info Column,,,,,,,,,,,Use config,,"has_options=1,quantity_and_stock_status=In Stock,required_options=11",4,0,1,0,0,1,1,0,0,1,1,,1,0,1,1,0,1,0,0,1,0,1,,,,,,,,,,,,https://www.blushandbloom.com/shop/images/images_big/UB0133~2.JPG,https://www.blushandbloom.com/shop/images/images_big/UB0133~1.JPG,https://www.blushandbloom.com/shop/images/images_big/UB0133~1.JPG,https://www.blushandbloom.com/shop/images/images_big/UB0133~1.JPG
UB01A3,Cotton Muslin Single Swaddle - ROSE PETAL,,Default,simple,,base,"<p>Details:</p>

<p>Featuring hand-painted prints, this versatile swaddle is an everyday essential. Crafted in lightweight and breathable cotton muslin, ideal for swaddling, nursing, cuddling and more.</p>

<p>Features:</p>

<p>&quot;100% cotton muslin One 47&quot;&quot; x 47&quot;&quot; swaddle blanket Lightweight and breathable Softer with each wash&quot;</p>

<p></p>",,0.21,1,Taxable Goods,"Catalog, Search",79,,,,,,,,,,,,Block after Info Column,,,,,,,,,,,Use config,,"has_options=1,quantity_and_stock_status=In Stock,required_options=14",2,0,1,0,0,1,1,0,0,1,1,,1,0,1,1,0,1,0,0,1,0,1,,,,,,,,,,,,https://www.blushandbloom.com/shop/images/images_big/UB01A3~2.JPG,https://www.blushandbloom.com/shop/images/images_big/ub01a3-little-unicorn-cotton-muslin-swaddle-rose-petal-wb.jpg,https://www.blushandbloom.com/shop/images/images_big/ub01a3-little-unicorn-cotton-muslin-swaddle-rose-petal-wb.jpg,https://www.blushandbloom.com/shop/images/images_big/ub01a3-little-unicorn-cotton-muslin-swaddle-rose-petal-wb.jpg
UB01B3,Cotton Muslin Single Swaddle - RUST,,Default,simple,,base,"<p>Details:</p>

<p>Featuring hand-painted prints, this versatile swaddle is an everyday essential. Crafted in lightweight and breathable cotton muslin, ideal for swaddling, nursing, cuddling and more.</p>

<p>Features:</p>

<p>&quot;100% cotton muslin One 47&quot;&quot; x 47&quot;&quot; swaddle blanket Lightweight and breathable Softer with each wash&quot;</p>

<p></p>",,0.21,1,Taxable Goods,"Catalog, Search",79,,,,,,,,,,,,Block after Info Column,,,,,,,,,,,Use config,,"has_options=1,quantity_and_stock_status=In Stock,required_options=10",6,0,1,0,0,1,1,0,0,1,1,,1,0,1,1,0,1,0,0,1,0,1,,,,,,,,,,,,https://www.blushandbloom.com/shop/images/images_big/UB01B3~1.JPG,https://www.blushandbloom.com/shop/images/images_big/UB01B3tt.jpg,https://www.blushandbloom.com/shop/images/images_big/UB01B3tt.jpg,https://www.blushandbloom.com/shop/images/images_big/UB01B3tt.jpg
UB01B0,Cotton Muslin Single Swaddle - WILD MUMS,,Default,simple,,base,"<p>Details:</p>

<p>Featuring hand-painted prints, this versatile swaddle is an everyday essential. Crafted in lightweight and breathable cotton muslin, ideal for swaddling, nursing, cuddling and more.</p>

<p>Features:</p>

<p>&quot;100% cotton muslin One 47&quot;&quot; x 47&quot;&quot; swaddle blanket Lightweight and breathable Softer with each wash&quot;</p>

<p></p>",,0.21,1,Taxable Goods,"Catalog, Search",79,,,,,,,,,,,,Block after Info Column,,,,,,,,,,,Use config,,"has_options=1,quantity_and_stock_status=In Stock,required_options=11",9,0,1,0,0,1,1,0,0,1,1,,1,0,1,1,0,1,0,0,1,0,1,,,,,,,,,,,,https://www.blushandbloom.com/shop/images/images_big/UB01B0~1.JPG,https://www.blushandbloom.com/shop/images/images_big/UB01B0ss.jpg,https://www.blushandbloom.com/shop/images/images_big/UB01B0ss.jpg,https://www.blushandbloom.com/shop/images/images_big/UB01B0ss.jpg
UB0531,Cotton Muslin Single Swaddle - BAKED CLAY,,Default,simple,,base,"<p>Details:</p>

<p>Our everyday swaddle gets a cozy update &mdash; buttery soft to the touch and extra gentle on baby's delicate skin. Featuring our signature hand-painted prints, it's an elevated essential for swaddling, nursing, cuddling and more.</p>

<p> Features:</p>

<p>&quot;100% rayon muslin made from bamboo 47&quot;&quot; x 47&quot;&quot; deluxe swaddling blanket Lightweight and breathable Softer with each wash&quot;</p>",,0.19,1,Taxable Goods,"Catalog, Search",89,,,,,,,,,,,,Block after Info Column,,,,,,,,,,,Use config,,"has_options=1,quantity_and_stock_status=In Stock,required_options=14",2,0,1,0,0,1,1,0,0,1,1,,1,0,1,1,0,1,0,0,1,0,1,,,,,,,,,,,,https://www.blushandbloom.com/shop/images/images_big/UB0531~1.JPG,https://www.blushandbloom.com/shop/images/images_big/UB0531pp.jpg,https://www.blushandbloom.com/shop/images/images_big/UB0531pp.jpg,https://www.blushandbloom.com/shop/images/images_big/UB0531pp.jpg
UB0530,Deluxe Muslin Single Swaddle- Safari Social,,Default,simple,,base,"<p>Details:</p>

<p>Our everyday swaddle gets a cozy update &mdash; buttery soft to the touch and extra gentle on baby's delicate skin. Featuring our signature hand-painted prints, it's an elevated essential for swaddling, nursing, cuddling and more.</p>

<p> Features:</p>

<p>&quot;100% rayon muslin made from bamboo 47&quot;&quot; x 47&quot;&quot; deluxe swaddling blanket Lightweight and breathable Softer with each wash&quot;</p>",,0.19,1,Taxable Goods,"Catalog, Search",89,,,,,,,,,,,,Block after Info Column,,,,,,,,,,,Use config,,"has_options=1,quantity_and_stock_status=In Stock,required_options=10",10,0,1,0,0,1,1,0,0,1,1,,1,0,1,1,0,1,0,0,1,0,1,,,,,,,,,,,,https://www.blushandbloom.com/shop/images/images_big/UB0530~1.JPG,https://www.blushandbloom.com/shop/images/images_big/UB0530-little-unicorn-deluxe-swaddle-single-safari-social-wb-2.jpg,https://www.blushandbloom.com/shop/images/images_big/UB0530-little-unicorn-deluxe-swaddle-single-safari-social-wb-2.jpg,https://www.blushandbloom.com/shop/images/images_big/UB0530-little-unicorn-deluxe-swaddle-single-safari-social-wb-2.jpg
UB0532,Deluxe Muslin Single Swaddle- Work Bench,,Default,simple,,base,"<p>Details:</p>

<p>Our everyday swaddle gets a cozy update &mdash; buttery soft to the touch and extra gentle on baby's delicate skin. Featuring our signature hand-painted prints, it's an elevated essential for swaddling, nursing, cuddling and more.</p>

<p> Features:</p>

<p>&quot;100% rayon muslin made from bamboo 47&quot;&quot; x 47&quot;&quot; deluxe swaddling blanket Lightweight and breathable Softer with each wash&quot;</p>",,0.19,1,Taxable Goods,"Catalog, Search",89,,,,,,,,,,,,Block after Info Column,,,,,,,,,,,Use config,,"has_options=1,quantity_and_stock_status=In Stock,required_options=11",3,0,1,0,0,1,1,0,0,1,1,,1,0,1,1,0,1,0,0,1,0,1,,,,,,,,,,,,https://www.blushandbloom.com/shop/images/images_big/UB0532_(1).jpg,https://www.blushandbloom.com/shop/images/images_big/UB0532.jpg,https://www.blushandbloom.com/shop/images/images_big/UB0532.jpg,https://www.blushandbloom.com/shop/images/images_big/UB0532.jpg
UB0413,Deluxe Muslin Swaddle 2 Pack- Safari Social Set,,Default,simple,,base,"<p>Details:</p>

<p>Our softest swaddles, in two hand-painted prints! Silky soft to the touch, our deluxe swaddles are lightweight and breathable while being gentle on baby's skin &mdash; ideal for swaddling, nursing, cuddling and more.</p>

<p> Features:</p>

<p>100% rayon muslin made from bamboo 47&quot;&quot; x 47&quot;&quot; deluxe swaddling blanket Lightweight and breathable Softer with each wash</p>",,0.73,1,Taxable Goods,"Catalog, Search",149,,,,,,,,,,,,Block after Info Column,,,,,,,,,,,Use config,,"has_options=1,quantity_and_stock_status=In Stock,required_options=14",5,0,1,0,0,1,1,0,0,1,1,,1,0,1,1,0,1,0,0,1,0,1,,,,,,,,,,,,https://www.blushandbloom.com/shop/images/images_big/Safari_Social_2pck_-_Swaddle3.png,https://www.blushandbloom.com/shop/images/images_big/Safari_Social_2pck_-_Swaddle.png,https://www.blushandbloom.com/shop/images/images_big/Safari_Social_2pck_-_Swaddle2.png,https://www.blushandbloom.com/shop/images/images_big/Safari_Social_2pck_-_Swaddle1.png
UB0414,Deluxe Muslin Swaddle 2 Pack-Work Bench Set,,Default,simple,,base,"<p>Details:</p>

<p>Our softest swaddles, in two hand-painted prints! Silky soft to the touch, our deluxe swaddles are lightweight and breathable while being gentle on baby's skin &mdash; ideal for swaddling, nursing, cuddling and more.</p>

<p> Features:</p>

<p>100% rayon muslin made from bamboo 47&quot;&quot; x 47&quot;&quot; deluxe swaddling blanket Lightweight and breathable Softer with each wash</p>",,0.73,1,Taxable Goods,"Catalog, Search",149,,,,,,,,,,,,Block after Info Column,,,,,,,,,,,Use config,,"has_options=1,quantity_and_stock_status=In Stock,required_options=10",6,0,1,0,0,1,1,0,0,1,1,,1,0,1,1,0,1,0,0,1,0,1,,,,,,,,,,,,https://www.blushandbloom.com/shop/images/images_big/Work_Bench_2pck_-_Swaddle4.png,https://www.blushandbloom.com/shop/images/images_big/Work_Bench_2pck_-_Swaddle.png,https://www.blushandbloom.com/shop/images/images_big/Work_Bench_2pck_-_Swaddle3.png,https://www.blushandbloom.com/shop/images/images_big/Work_Bench_2pck_-_Swaddle2.png
UB0265,Cotton Muslin Quilt- Wild Mums,,Default,simple,,base,"<p>Details:</p>

<p>Made for nap time, playtime or anytime, this machine washable quilt is a versatile everyday essential. Featuring four breathable layers and crafted with playful hand-painted prints, it's as durable as it is cozy.</p>

<p> Features:</p>

<p>&quot;4-layers of 100% cotton muslin Large 47&quot;&quot; x 47&quot;&quot; Breathable Lightweight and warm Original prints to fit your unique style Fabric gets softer with each wash&quot;</p>",,1.5,1,Taxable Goods,"Catalog, Search",249,,,,,,,,,,,,Block after Info Column,,,,,,,,,,,Use config,,"has_options=1,quantity_and_stock_status=In Stock,required_options=11",7,0,1,0,0,1,1,0,0,1,1,,1,0,1,1,0,1,0,0,1,0,1,,,,,,,,,,,,https://www.blushandbloom.com/shop/images/images_big/UB0265-14234.jpg,https://www.blushandbloom.com/shop/images/images_big/UB0265-14235.jpg,https://www.blushandbloom.com/shop/images/images_big/UB0265-14236.jpg,https://www.blushandbloom.com/shop/images/images_big/UB0265-14236.jpg
UB0620,Deluxe Muslin Quilt - Safari Social,,Default,simple,,base,"<p>Details:</p>

<p>A cuddle time favorite, our deluxe quilt is super gentle on baby's skin. Featuring four silky-soft-to-the-touch layers in playful, handprinted prints &mdash; it's as cute as it is cozy!</p>

<p>Features:</p>

<p>100% rayon muslin made from bamboo Large 47&quot;&quot; x 47&quot;&quot; size Breathable Lightweight and warm Original prints to fit your unique style Fabric gets softer with each wash</p>",,1.2,1,Taxable Goods,"Catalog, Search",309,,,,,,,,,,,,Block after Info Column,,,,,,,,,,,Use config,,"has_options=1,quantity_and_stock_status=In Stock,required_options=14",3,,,,,,,,,,,,,,,,,,,,,,,,,,,,,,,,,,https://www.blushandbloom.com/shop/images/images_big/Safari_Social.jpg,https://www.blushandbloom.com/shop/images/images_big/Safari_Social.1jpg.jpg,https://www.blushandbloom.com/shop/images/images_big/Safari_Social2.jpg,https://www.blushandbloom.com/shop/images/images_big/Safari_Social2.jpg
UB0623,Deluxe Muslin Quilt -Work Bench,,Default,simple,,base,"<p>Details:</p>

<p>A cuddle time favorite, our deluxe quilt is super gentle on baby's skin. Featuring four silky-soft-to-the-touch layers in playful, handprinted prints &mdash; it's as cute as it is cozy!</p>

<p>Features:</p>

<p>100% rayon muslin made from bamboo Large 47&quot;&quot; x 47&quot;&quot; size Breathable Lightweight and warm Original prints to fit your unique style Fabric gets softer with each wash</p>",,1.2,1,Taxable Goods,"Catalog, Search",309,,,,,,,,,,,,Block after Info Column,,,,,,,,,,,Use config,,"has_options=1,quantity_and_stock_status=In Stock,required_options=10",1,0,1,0,0,1,1,0,0,1,1,,1,0,1,1,0,1,0,0,1,0,1,,,,,,,,,,,,https://www.blushandbloom.com/shop/images/images_big/Deluxe_Quilt_-_Work_Bench3.png,https://www.blushandbloom.com/shop/images/images_big/Deluxe_Quilt_-_Work_Bench.png,https://www.blushandbloom.com/shop/images/images_big/Deluxe_Quilt_-_Work_Bench2.png,https://www.blushandbloom.com/shop/images/images_big/Deluxe_Quilt_-_Work_Bench2.png
UC0115,Cotton Muslin Sleep Bag Blue Windflower,,Default,simple,,base,"<p>Details:</p>

<p>Lightweight, breathable and featuring artisan hand-painted prints, our sleep bags are a safe and stylish alternative to a blanket. A top-to-bottom zipper makes for easy nighttime diaper changes and machine washable cotton muslin gets softer with every wash.</p>

<p>Features:</p>

<p>2-layer 100% cotton Breathable Softer with each wash Zips open from top to bottom Use in place of blankets for safe sleep 1.1 TOG</p>",,0.37,1,Taxable Goods,"Catalog, Search",199,,,,,,,,,,,,Block after Info Column,,,,,,,,,,,Use config,,"has_options=1,quantity_and_stock_status=In Stock,required_options=14",27,0,1,0,0,1,1,0,0,1,1,,1,0,1,1,0,1,0,0,1,0,1,,,,,,,,,,,,https://www.blushandbloom.com/shop/images/images_big/UC0115M_(1).jpg,https://www.blushandbloom.com/shop/images/images_big/UC0115M.jpg,https://www.blushandbloom.com/shop/images/images_big/UC0115M.jpg,https://www.blushandbloom.com/shop/images/images_big/UC0115M.jpg
UC0117,Cotton Muslin Sleep Bag - Fairy Garden,,Default,simple,,base,"<p>Details:</p>

<p>Lightweight, breathable and featuring artisan hand-painted prints, our sleep bags are a safe and stylish alternative to a blanket. A top-to-bottom zipper makes for easy nighttime diaper changes and machine washable cotton muslin gets softer with every wash.</p>

<p>Features:</p>

<p>2-layer 100% cotton Breathable Softer with each wash Zips open from top to bottom Use in place of blankets for safe sleep 1.1 TOG</p>",,0.37,1,Taxable Goods,"Catalog, Search",199,,,,,,,,,,,,Block after Info Column,,,,,,,,,,,Use config,,"has_options=1,quantity_and_stock_status=In Stock,required_options=10",32,0,1,0,0,1,1,0,0,1,1,,1,0,1,1,0,1,0,0,1,0,1,,,,,,,,,,,,https://www.blushandbloom.com/shop/images/images_big/UC0117M_(1).jpg,https://www.blushandbloom.com/shop/images/images_big/UC0117M.jpg,https://www.blushandbloom.com/shop/images/images_big/UC0117M.jpg,https://www.blushandbloom.com/shop/images/images_big/UC0117M.jpg
UC0307,Cotton Muslin Sleep Bag Large - Tropical Leaf,,Default,simple,,base,"<p>Details:</p>

<p>Lightweight, breathable and featuring artisan hand-painted prints, our sleep bags are a safe and stylish alternative to a blanket. A top-to-bottom zipper makes for easy nighttime diaper changes and machine washable cotton muslin gets softer with every wash.</p>

<p>Features:</p>

<p>2-layer 100% cotton Breathable Softer with each wash Zips open from top to bottom Use in place of blankets for safe sleep 1.1 TOG</p>",,0.37,1,Taxable Goods,"Catalog, Search",199,,,,,,,,,,,,Block after Info Column,,,,,,,,,,,Use config,,"has_options=1,quantity_and_stock_status=In Stock,required_options=11",7,0,1,0,0,1,1,0,0,1,1,,1,0,1,1,0,1,0,0,1,0,1,,,,,,,,,,,,https://www.blushandbloom.com/shop/images/images_big/UC0207L_(1)t.jpg,https://www.blushandbloom.com/shop/images/images_big/UC0207Ltr.jpg,https://www.blushandbloom.com/shop/images/images_big/UC0207Ltr.jpg,https://www.blushandbloom.com/shop/images/images_big/UC0207Ltr.jpg
UC0401,Cotton Muslin Sleep Romper - Grey Stripe,,Default,simple,,base,"<p>Details:</p>

<p>Little Unicorn Sleep Rompers are the perfect transitional piece from a swaddle or sleep bag, providing more mobility while still keeping your little one snug and cozy. Lightweight and breathable and featuring artisan hand-painted prints, our sleep rompers are a safe and convenient alternative to a blanket and can be worn from night to day, for sleep or play. A top-to-bottom zipper makes for easy nighttime diaper changes and machine washable cotton muslin gets softer with every wash.</p>

<p> Features:</p>

<p>2-layer 100% cotton Breathable Softer with each wash Zips open from top to bottom Use in place of blankets for safe sleep 1.1 TOG</p>",,0.38,1,Taxable Goods,"Catalog, Search",219,,,,,,,,,,,,Block after Info Column,,,,,,,,,,,Use config,,"has_options=1,quantity_and_stock_status=In Stock,required_options=14",18,0,1,0,0,1,1,0,0,1,1,,1,0,1,1,0,1,0,0,1,0,1,,,,,,,,,,,,https://www.blushandbloom.com/shop/images/images_big/UC0401M-15563_800x.jpg,https://www.blushandbloom.com/shop/images/images_big/UC0401M_copy_2.png,https://www.blushandbloom.com/shop/images/images_big/UC0401M_copy.png,https://www.blushandbloom.com/shop/images/images_big/UC0401M_copy.png
UC0402,Cotton Muslin Sleep Romper - Watercolor Roses,,Default,simple,,base,"<p>Details:</p>

<p>Little Unicorn Sleep Rompers are the perfect transitional piece from a swaddle or sleep bag, providing more mobility while still keeping your little one snug and cozy. Lightweight and breathable and featuring artisan hand-painted prints, our sleep rompers are a safe and convenient alternative to a blanket and can be worn from night to day, for sleep or play. A top-to-bottom zipper makes for easy nighttime diaper changes and machine washable cotton muslin gets softer with every wash.</p>

<p> Features:</p>

<p>2-layer 100% cotton Breathable Softer with each wash Zips open from top to bottom Use in place of blankets for safe sleep 1.1 TOG</p>",,0.38,1,Taxable Goods,"Catalog, Search",219,,,,,,,,,,,,Block after Info Column,,,,,,,,,,,Use config,,"has_options=1,quantity_and_stock_status=In Stock,required_options=10",18,0,1,0,0,1,1,0,0,1,1,,1,0,1,1,0,1,0,0,1,0,1,,,,,,,,,,,,https://www.blushandbloom.com/shop/images/images_big/UC0402M-15836_800x.jpg,https://www.blushandbloom.com/shop/images/images_big/UC0402M_copy.png,https://www.blushandbloom.com/shop/images/images_big/UC0402M.png,https://www.blushandbloom.com/shop/images/images_big/UC0402M.png
UC0403,Cotton Muslin Sleep Romper Medium - Planetary,,Default,simple,,base,"<p>Details:</p>

<p>Little Unicorn Sleep Rompers are the perfect transitional piece from a swaddle or sleep bag, providing more mobility while still keeping your little one snug and cozy. Lightweight and breathable and featuring artisan hand-painted prints, our sleep rompers are a safe and convenient alternative to a blanket and can be worn from night to day, for sleep or play. A top-to-bottom zipper makes for easy nighttime diaper changes and machine washable cotton muslin gets softer with every wash.</p>

<p> Features:</p>

<p>2-layer 100% cotton Breathable Softer with each wash Zips open from top to bottom Use in place of blankets for safe sleep 1.1 TOG</p>",,0.38,1,Taxable Goods,"Catalog, Search",219,,,,,,,,,,,,Block after Info Column,,,,,,,,,,,Use config,,"has_options=1,quantity_and_stock_status=In Stock,required_options=11",20,0,1,0,0,1,1,0,0,1,1,,1,0,1,1,0,1,0,0,1,0,1,,,,,,,,,,,,https://www.blushandbloom.com/shop/images/images_big/little-unicorn-romper-planetary.jpg,https://www.blushandbloom.com/shop/images/images_big/little-unicorn-romper-planetary.jpeg,https://www.blushandbloom.com/shop/images/images_big/little-unicorn-romper-planetary-2.jpg,https://www.blushandbloom.com/shop/images/images_big/little-unicorn-romper-planetary-2.jpg
UC0404,Cotton Muslin Sleep Romper - Dino Friends,,Default,simple,,base,"<p>Details:</p>

<p>Little Unicorn Sleep Rompers are the perfect transitional piece from a swaddle or sleep bag, providing more mobility while still keeping your little one snug and cozy. Lightweight and breathable and featuring artisan hand-painted prints, our sleep rompers are a safe and convenient alternative to a blanket and can be worn from night to day, for sleep or play. A top-to-bottom zipper makes for easy nighttime diaper changes and machine washable cotton muslin gets softer with every wash.</p>

<p> Features:</p>

<p>2-layer 100% cotton Breathable Softer with each wash Zips open from top to bottom Use in place of blankets for safe sleep 1.1 TOG</p>",,0.38,1,Taxable Goods,"Catalog, Search",219,,,,,,,,,,,,Block after Info Column,,,,,,,,,,,Use config,,"has_options=1,quantity_and_stock_status=In Stock,required_options=14",22,0,1,0,0,1,1,0,0,1,1,,1,0,1,1,0,1,0,0,1,0,1,,,,,,,,,,,,https://www.blushandbloom.com/shop/images/images_big/Dino-M.png,https://www.blushandbloom.com/shop/images/images_big/Dino-_M_copy_2.png,https://www.blushandbloom.com/shop/images/images_big/Dino-_M.png,https://www.blushandbloom.com/shop/images/images_big/Dino-_M.png
UC0405,Cotton Muslin Sleep Romper - Tropical Leaf,,Default,simple,,base,"<p>Details:</p>

<p>Little Unicorn Sleep Rompers are the perfect transitional piece from a swaddle or sleep bag, providing more mobility while still keeping your little one snug and cozy. Lightweight and breathable and featuring artisan hand-painted prints, our sleep rompers are a safe and convenient alternative to a blanket and can be worn from night to day, for sleep or play. A top-to-bottom zipper makes for easy nighttime diaper changes and machine washable cotton muslin gets softer with every wash.</p>

<p> Features:</p>

<p>2-layer 100% cotton Breathable Softer with each wash Zips open from top to bottom Use in place of blankets for safe sleep 1.1 TOG</p>",,0.38,1,Taxable Goods,"Catalog, Search",219,,,,,,,,,,,,Block after Info Column,,,,,,,,,,,Use config,,"has_options=1,quantity_and_stock_status=In Stock,required_options=10",20,0,1,0,0,1,1,0,0,1,1,,1,0,1,1,0,1,0,0,1,0,1,,,,,,,,,,,,https://www.blushandbloom.com/shop/images/images_big/Tropical_Leaf-_M.png,https://www.blushandbloom.com/shop/images/images_big/Tropical_Leaf-_M3.png,https://www.blushandbloom.com/shop/images/images_big/Tropical_Leaf-_M1.png,https://www.blushandbloom.com/shop/images/images_big/Tropical_Leaf-_M1.png
UC0500,Cotton Muslin Sleep Romper - Forest Friends,,Default,simple,,base,"<p>Details:</p>

<p>Little Unicorn Sleep Rompers are the perfect transitional piece from a swaddle or sleep bag, providing more mobility while still keeping your little one snug and cozy. Lightweight and breathable and featuring artisan hand-painted prints, our sleep rompers are a safe and convenient alternative to a blanket and can be worn from night to day, for sleep or play. A top-to-bottom zipper makes for easy nighttime diaper changes and machine washable cotton muslin gets softer with every wash.</p>

<p> Features:</p>

<p>2-layer 100% cotton Breathable Softer with each wash Zips open from top to bottom Use in place of blankets for safe sleep 1.1 TOG</p>",,0.38,1,Taxable Goods,"Catalog, Search",219,,,,,,,,,,,,Block after Info Column,,,,,,,,,,,Use config,,"has_options=1,quantity_and_stock_status=In Stock,required_options=6",15,0,1,0,0,1,1,0,0,1,1,,1,0,1,1,0,1,0,0,1,0,1,,,,,,,,,,,,https://www.blushandbloom.com/shop/images/images_big/UC0400M-15560_800x.jpg,https://www.blushandbloom.com/shop/images/images_big/Forest_Friends_L1.png,https://www.blushandbloom.com/shop/images/images_big/Forest_Friends_L.png,https://www.blushandbloom.com/shop/images/images_big/Forest_Friends_L.png
UH0205,Cotton Hooded Towel Big Kid - High Tide,,Default,simple,,base,"<p>Details:</p>

<p>Splash into bath time with a plush and absorbent hooded towel. Featuring a cozy hood and pockets for little hands, the hooded towel is crafted with printed muslin on the outside and ultra-soft terry cloth on the inside.</p>

<p>Features:</p>

<p>100% Cotton 42&quot;&quot; tall x 47&quot;&quot; wide Bath towel with printed cotton muslin on one side and ultra-soft terry Cloth on the other; a cozy hood and pockets for little hands Fully printed cotton muslin back quilted with fluffy terry cloth Printed pockets for hands</p>",,0.9,1,Taxable Goods,"Catalog, Search",259,,,,,,,,,,,,Block after Info Column,,,,,,,,,,,Use config,,"has_options=1,quantity_and_stock_status=In Stock,required_options=2",3,0,1,0,0,1,1,0,0,1,1,,1,0,1,1,0,1,0,0,1,0,1,,,,,,,,,,,,https://www.blushandbloom.com/shop/images/images_big/little-unicorn-cotton-big-kid-hooded-towel-.jpg,https://www.blushandbloom.com/shop/images/images_big/UH0205~1.JPG,https://www.blushandbloom.com/shop/images/images_big/UH0205~1.JPG,https://www.blushandbloom.com/shop/images/images_big/UH0205~1.JPG
UH0202,Cotton Hooded Towel Big Kid - Lemon,,Default,simple,,base,"<p>Details:</p>

<p>Splash into bath time with a plush and absorbent hooded towel. Featuring a cozy hood and pockets for little hands, the hooded towel is crafted with printed muslin on the outside and ultra-soft terry cloth on the inside.</p>

<p>Features:</p>

<p>100% Cotton 42&quot;&quot; tall x 47&quot;&quot; wide Bath towel with printed cotton muslin on one side and ultra-soft terry Cloth on the other; a cozy hood and pockets for little hands Fully printed cotton muslin back quilted with fluffy terry cloth Printed pockets for hands</p>",,0.9,1,Taxable Goods,"Catalog, Search",259,,,,,,,,,,,,Block after Info Column,,,,,,,,,,,Use config,,"has_options=1,quantity_and_stock_status=In Stock,required_options=2",3,0,1,0,0,1,1,0,0,1,1,,1,0,1,1,0,1,0,0,1,0,1,,,,,,,,,,,,https://www.blushandbloom.com/shop/images/images_big/uh0202-little-unicorn-cotton-big-kid-hooded-towel-lemon-wb.jpg,https://www.blushandbloom.com/shop/images/images_big/UH0202~2.JPG,https://www.blushandbloom.com/shop/images/images_big/UH0202~2.JPG,https://www.blushandbloom.com/shop/images/images_big/UH0202~2.JPG
UH0206,Cotton Hooded Towel Big Kid - Narwhal,,Default,simple,,base,"<p>Details:</p>

<p>Splash into bath time with a plush and absorbent hooded towel. Featuring a cozy hood and pockets for little hands, the hooded towel is crafted with printed muslin on the outside and ultra-soft terry cloth on the inside.</p>

<p>Features:</p>

<p>100% Cotton 42&quot;&quot; tall x 47&quot;&quot; wide Bath towel with printed cotton muslin on one side and ultra-soft terry Cloth on the other; a cozy hood and pockets for little hands Fully printed cotton muslin back quilted with fluffy terry cloth Printed pockets for hands</p>",,0.9,1,Taxable Goods,"Catalog, Search",259,,,,,,,,,,,,Block after Info Column,,,,,,,,,,,Use config,,"has_options=1,quantity_and_stock_status=In Stock,required_options=6",3,0,1,0,0,1,1,0,0,1,1,,1,0,1,1,0,1,0,0,1,0,1,,,,,,,,,,,,https://www.blushandbloom.com/shop/images/images_big/Narwhal.jpg,https://www.blushandbloom.com/shop/images/images_big/Narwhal.1jpg.jpg,https://www.blushandbloom.com/shop/images/images_big/Narwhal.1jpg.jpg,https://www.blushandbloom.com/shop/images/images_big/Narwhal.1jpg.jpg
UH0209,Cotton Hooded Towel Big Kid - Shark,,Default,simple,,base,"<p>Details:</p>

<p>Splash into bath time with a plush and absorbent hooded towel. Featuring a cozy hood and pockets for little hands, the hooded towel is crafted with printed muslin on the outside and ultra-soft terry cloth on the inside.</p>

<p>Features:</p>

<p>100% Cotton 42&quot;&quot; tall x 47&quot;&quot; wide Bath towel with printed cotton muslin on one side and ultra-soft terry Cloth on the other; a cozy hood and pockets for little hands Fully printed cotton muslin back quilted with fluffy terry cloth Printed pockets for hands</p>",,0.9,1,Taxable Goods,"Catalog, Search",259,,,,,,,,,,,,Block after Info Column,,,,,,,,,,,Use config,,"has_options=1,quantity_and_stock_status=In Stock,required_options=10",3,0,1,0,0,1,1,0,0,1,1,,1,0,1,1,0,1,0,0,1,0,1,,,,,,,,,,,,https://www.blushandbloom.com/shop/images/images_big/little-unicorn-cotton-big-kid-hooded-towel-shark-32.jpg,https://www.blushandbloom.com/shop/images/images_big/little-unicorn-cotton-big-kid-hooded-towel-shark-33.jpg,https://www.blushandbloom.com/shop/images/images_big/little-unicorn-cotton-big-kid-hooded-towel-shark-33.jpg,https://www.blushandbloom.com/shop/images/images_big/little-unicorn-cotton-big-kid-hooded-towel-shark-33.jpg
UH0208,Cotton Hooded Towel Big Kid - Tropical Leaf,,Default,simple,,base,"<p>Details:</p>

<p>Splash into bath time with a plush and absorbent hooded towel. Featuring a cozy hood and pockets for little hands, the hooded towel is crafted with printed muslin on the outside and ultra-soft terry cloth on the inside.</p>

<p>Features:</p>

<p>100% Cotton 42&quot;&quot; tall x 47&quot;&quot; wide Bath towel with printed cotton muslin on one side and ultra-soft terry Cloth on the other; a cozy hood and pockets for little hands Fully printed cotton muslin back quilted with fluffy terry cloth Printed pockets for hands</p>",,0.9,1,Taxable Goods,"Catalog, Search",259,,,,,,,,,,,,Block after Info Column,,,,,,,,,,,Use config,,"has_options=1,quantity_and_stock_status=In Stock,required_options=14",3,0,1,0,0,1,1,0,0,1,1,,1,0,1,1,0,1,0,0,1,0,1,,,,,,,,,,,,https://www.blushandbloom.com/shop/images/images_big/Tropical_Leaf.jpeg,https://www.blushandbloom.com/shop/images/images_big/Tropical_Leaf.jpg,https://www.blushandbloom.com/shop/images/images_big/Tropical_Leaf.jpg,https://www.blushandbloom.com/shop/images/images_big/Tropical_Leaf.jpg
UH0215,Cotton Hooded Towel Big Kid - Watercolor Roses,,Default,simple,,base,"<p>Details:</p>

<p>Splash into bath time with a plush and absorbent hooded towel. Featuring a cozy hood and pockets for little hands, the hooded towel is crafted with printed muslin on the outside and ultra-soft terry cloth on the inside.</p>

<p>Features:</p>

<p>100% Cotton 42&quot;&quot; tall x 47&quot;&quot; wide Bath towel with printed cotton muslin on one side and ultra-soft terry Cloth on the other; a cozy hood and pockets for little hands Fully printed cotton muslin back quilted with fluffy terry cloth Printed pockets for hands</p>",,0.9,1,Taxable Goods,"Catalog, Search",259,,,,,,,,,,,,Block after Info Column,,,,,,,,,,,Use config,,"has_options=1,quantity_and_stock_status=In Stock,required_options=18",3,0,1,0,0,1,1,0,0,1,1,,1,0,1,1,0,1,0,0,1,0,1,,,,,,,,,,,,https://www.blushandbloom.com/shop/images/images_big/uh0215-little-unicorn-cotton-hooded-towel-big-kid-watercolor-roses-wb.jpg,https://www.blushandbloom.com/shop/images/images_big/uh0215-little-unicorn-cotton-hooded-towel-big-kid-watercolor-roses-wb1.jpg,https://www.blushandbloom.com/shop/images/images_big/uh0215-little-unicorn-cotton-hooded-towel-big-kid-watercolor-roses-wb1.jpg,https://www.blushandbloom.com/shop/images/images_big/uh0215-little-unicorn-cotton-hooded-towel-big-kid-watercolor-roses-wb1.jpg
