sku,store_view_code,attribute_set_code,product_type,categories,product_websites,name,description,short_description,weight,product_online,tax_class_name,visibility,price,special_price,special_price_from_date,special_price_to_date,url_key,meta_title,meta_keywords,meta_description,created_at,updated_at,new_from_date,new_to_date,display_product_options_in,map_price,msrp_price,map_enabled,gift_message_available,custom_design,custom_design_from,custom_design_to,custom_layout_update,page_layout,product_options_container,msrp_display_actual_price_type,country_of_manufacture,additional_attributes,qty,out_of_stock_qty,use_config_min_qty,is_qty_decimal,allow_backorders,use_config_backorders,min_cart_qty,use_config_min_sale_qty,max_cart_qty,use_config_max_sale_qty,is_in_stock,notify_on_stock_below,use_config_notify_stock_qty,manage_stock,use_config_manage_stock,use_config_qty_increments,qty_increments,use_config_enable_qty_inc,enable_qty_increments,is_decimal_divided,website_id,deferred_stock_update,use_config_deferred_stock_update,related_skus,crosssell_skus,upsell_skus,hide_from_product_page,custom_options,bundle_price_type,bundle_sku_type,bundle_price_view,bundle_weight_type,bundle_values,associated_skus,base_image,small_image,thumbnail_image,additional_image_1,additional_image_2,additional_image_3,additional_image_4
CC-EDENBIK-FUS,,Default,simple,"Default Category/Nursing,Default Category/Nursing/Nursing Bras",base,Eden Maternity Bikini Fuchsia,,,1,1,Taxable Goods,"Catalog, Search",290,,,,eden-maternity-bikini-fuchsia,,,,,,,,Block after Info Column,,,,,,,,,,,Use config,,"has_options=1,quantity_and_stock_status=In Stock,required_options=8",20,0,1,0,0,1,1,0,0,1,1,,1,0,1,1,0,1,0,0,1,0,1,,,,,,,,,,,,,,,,,,
LV-LMN-PPL,,Default,simple,"Default Category/Nursing,Default Category/Nursing/Nursing Bras",base,Lisa Maternity and Nursing Nightie Purple and Black Stripe,,,1,1,Taxable Goods,"Catalog, Search",265,,,,Lisa-Maternity-and-Nursing-Nightie-Purple-and-Black-Stripe,,,,,,,,Block after Info Column,,,,,,,,,,,Use config,,"has_options=1,quantity_and_stock_status=In Stock,required_options=9",20,0,1,0,0,1,1,0,0,1,1,,1,0,1,1,0,1,0,0,1,0,1,,,,,,,,,,,,,,,,,,
CL-WNB-BCUP,,Default,simple,"Default Category/Nursing,Default Category/Nursing/Nursing Bras",base,Buttermilk Waffles 3D Spacer T-Shirt Bra,,,1,1,Taxable Goods,"Catalog, Search",245,,,,waffles-3d-spacer-contour-nursing-bra-beige,,,,,,,,Block after Info Column,,,,,,,,,,,Use config,,"has_options=1,quantity_and_stock_status=In Stock,required_options=10",20,0,1,0,0,1,1,0,0,1,1,,1,0,1,1,0,1,0,0,1,0,1,,,,,,,,,,,,,,,,,,
EMI-CSNB-AUB,,Default,simple,"Default Category/Nursing,Default Category/Nursing/Nursing Bras",base,Cloud Swing Nursing Bra Aubergine & Cream,,,1,1,Taxable Goods,"Catalog, Search",160,,,,Cloud-Swing-Nursing-Bra-Aubergine-&-Cream,,,,,,,,Block after Info Column,,,,,,,,,,,Use config,,"has_options=1,quantity_and_stock_status=In Stock,required_options=11",20,0,1,0,0,1,1,0,0,1,1,,1,0,1,1,0,1,0,0,1,0,1,,,,,,,,,,,,,,,,,,
HM-ABHDNB,,Default,simple,"Default Category/Nursing,Default Category/Nursing/Nursing Bras",base,Awakened By Her Desire Nursing Bra,,,1,1,Taxable Goods,"Catalog, Search",220,,,,Awakened-By-Her-Desire-Nursing-Bra,,,,,,,,Block after Info Column,,,,,,,,,,,Use config,,"has_options=1,quantity_and_stock_status=In Stock,required_options=12",20,0,1,0,0,1,1,0,0,1,1,,1,0,1,1,0,1,0,0,1,0,1,,,,,,,,,,,,,,,,,,
SM-CLARA_PPLP,,Default,simple,"Default Category/Nursing,Default Category/Nursing/Nursing Bras",base,Clara Whispering Chemise Purple Potion,,,1,1,Taxable Goods,"Catalog, Search",595,,,,Clara-Whispering-Chemise-Purple-Potion,,,,,,,,Block after Info Column,,,,,,,,,,,Use config,,"has_options=1,quantity_and_stock_status=In Stock,required_options=13",20,0,1,0,0,1,1,0,0,1,1,,1,0,1,1,0,1,0,0,1,0,1,,,,,,,,,,,,,,,,,,
MAM-0014,,Default,simple,"Default Category/Nursing,Default Category/Nursing/Nursing Bras",base,Georgia Ruched Maternity Swimsuit,,,1,1,Taxable Goods,"Catalog, Search",375,,,,georgia-ruched-maternity-swimsuit,,,,,,,,Block after Info Column,,,,,,,,,,,Use config,,"has_options=1,quantity_and_stock_status=In Stock,required_options=14",20,0,1,0,0,1,1,0,0,1,1,,1,0,1,1,0,1,0,0,1,0,1,,,,,,,,,,,,,,,,,,
